# MagicaVoxel @ Ephtracy

# group
o 

# material
mtllib gold.mtl
usemtl palette

# normals
vn -1 0 0
vn 1 0 0
vn 0 0 1
vn 0 0 -1
vn 0 -1 0
vn 0 1 0

# texcoords
vt 0.412109 0.5
vt 0.416016 0.5
vt 0.419922 0.5
vt 0.423828 0.5
vt 0.427734 0.5
vt 0.431641 0.5

# verts
v -0.3 0 0.3
v -0.3 0 0.1
v -0.3 0 0
v -0.3 0 -0.1
v -0.3 0 -0.2
v -0.3 0 -0.3
v -0.3 0.1 0.3
v -0.3 0.1 0.1
v -0.3 0.1 0
v -0.3 0.1 -0.1
v -0.3 0.1 -0.2
v -0.3 0.1 -0.3
v -0.3 0.2 -0.1
v -0.3 0.2 -0.2
v -0.2 0.1 0.2
v -0.2 0.1 0.1
v -0.2 0.1 0
v -0.2 0.1 -0.1
v -0.2 0.2 0.2
v -0.2 0.2 0.1
v -0.2 0.2 0
v -0.2 0.2 -0.1
v -0.2 0.3 0.1
v -0.2 0.3 0
v -0.2 0.3 -0.1
v -0.1 0.1 0.3
v -0.1 0.1 0.2
v -0.1 0.1 -0.2
v -0.1 0.1 -0.3
v -0.1 0.2 0.3
v -0.1 0.2 0.2
v -0.1 0.2 0.1
v -0.1 0.2 -0.2
v -0.1 0.2 -0.3
v -0.1 0.3 0.2
v -0.1 0.3 0.1
v -0.1 0.3 0
v -0.1 0.4 0.1
v -0.1 0.4 0
v 0 0.3 0
v 0 0.3 -0.1
v 0 0.4 0
v 0 0.4 -0.1
v 0.2 0.1 0.3
v 0.2 0.1 0.2
v 0.2 0.2 0.3
v 0.2 0.2 0.2
v 0 0.1 0.3
v 0 0.1 0.2
v 0 0.1 -0.2
v 0 0.1 -0.3
v 0 0.2 0.3
v 0 0.2 0.2
v 0 0.2 -0.2
v 0 0.2 -0.3
v 0.1 0.2 0.2
v 0.1 0.2 0.1
v 0.1 0.3 0.2
v 0.1 0.3 0.1
v 0.1 0.3 0
v 0.1 0.3 -0.1
v 0.1 0.4 0.1
v 0.1 0.4 0
v 0.1 0.4 -0.1
v 0.2 0.1 0
v 0.2 0.1 -0.1
v 0.2 0.2 0.1
v 0.2 0.2 0
v 0.2 0.2 -0.1
v 0.2 0.3 0.1
v 0.2 0.3 -0.1
v 0.3 0 0.3
v 0.3 0 0.2
v 0.3 0 0.1
v 0.3 0 0
v 0.3 0 -0.1
v 0.3 0 -0.2
v 0.3 0 -0.3
v 0.3 0.1 0.2
v 0.3 0.1 0.1
v 0.3 0.1 0
v 0.3 0.1 -0.1
v 0.3 0.1 -0.2
v 0.3 0.1 -0.3
v 0.3 0.2 0.3
v 0.3 0.2 0.2
v 0.3 0.2 0.1
v 0.3 0.2 0
v 0.3 0.2 -0.1
v 0.3 0.2 -0.2
v -0.3 0 0.3
v -0.3 0.1 0.3
v -0.1 0 0.3
v -0.1 0.1 0.3
v -0.1 0.2 0.3
v 0 0 0.3
v 0 0.1 0.3
v 0 0.2 0.3
v 0.1 0 0.3
v 0.1 0.1 0.3
v 0.2 0 0.3
v 0.2 0.1 0.3
v 0.2 0.2 0.3
v 0.3 0 0.3
v 0.3 0.2 0.3
v -0.2 0.1 0.2
v -0.2 0.2 0.2
v -0.1 0.1 0.2
v -0.1 0.2 0.2
v -0.1 0.3 0.2
v 0 0.1 0.2
v 0 0.2 0.2
v 0.1 0.1 0.2
v 0.1 0.2 0.2
v 0.1 0.3 0.2
v 0.2 0.1 0.2
v 0.2 0.2 0.2
v -0.2 0.2 0.1
v -0.2 0.3 0.1
v -0.1 0.2 0.1
v -0.1 0.3 0.1
v -0.1 0.4 0.1
v 0 0.3 0.1
v 0 0.4 0.1
v 0.1 0.2 0.1
v 0.1 0.3 0.1
v 0.1 0.4 0.1
v 0.2 0.2 0.1
v 0.2 0.3 0.1
v -0.3 0.1 -0.1
v -0.3 0.2 -0.1
v -0.2 0.1 -0.1
v -0.2 0.2 -0.1
v 0.2 0.1 -0.1
v 0.2 0.2 -0.1
v 0.3 0.1 -0.1
v 0.3 0.2 -0.1
v -0.1 0.3 0
v -0.1 0.4 0
v 0 0.3 0
v 0 0.4 0
v 0.2 0.1 0
v 0.2 0.2 0
v 0.3 0.1 0
v 0.3 0.2 0
v -0.2 0.2 -0.1
v -0.2 0.3 -0.1
v -0.1 0.2 -0.1
v -0.1 0.3 -0.1
v 0 0.2 -0.1
v 0 0.3 -0.1
v 0 0.4 -0.1
v 0.1 0.2 -0.1
v 0.1 0.3 -0.1
v 0.1 0.4 -0.1
v 0.2 0.2 -0.1
v 0.2 0.3 -0.1
v -0.3 0.1 -0.2
v -0.3 0.2 -0.2
v -0.2 0.1 -0.2
v -0.2 0.2 -0.2
v -0.1 0.1 -0.2
v -0.1 0.2 -0.2
v 0 0.1 -0.2
v 0 0.2 -0.2
v 0.1 0.1 -0.2
v 0.1 0.2 -0.2
v 0.2 0.1 -0.2
v 0.3 0.1 -0.2
v 0.3 0.2 -0.2
v -0.3 0 -0.3
v -0.3 0.1 -0.3
v -0.2 0 -0.3
v -0.2 0.1 -0.3
v -0.1 0 -0.3
v -0.1 0.1 -0.3
v -0.1 0.2 -0.3
v 0 0.1 -0.3
v 0 0.2 -0.3
v 0.1 0 -0.3
v 0.1 0.1 -0.3
v 0.2 0 -0.3
v 0.2 0.1 -0.3
v 0.3 0 -0.3
v 0.3 0.1 -0.3
v -0.3 0 0.3
v -0.1 0 0.3
v 0 0 0.3
v 0.1 0 0.3
v 0.2 0 0.3
v 0.3 0 0.3
v -0.2 0 0.2
v -0.1 0 0.2
v 0 0 0.2
v 0.1 0 0.2
v 0.2 0 0.2
v 0.3 0 0.2
v -0.3 0 0.1
v -0.2 0 0.1
v 0 0 0.1
v 0.1 0 0.1
v 0.2 0 0.1
v 0.3 0 0.1
v -0.3 0 0
v -0.2 0 0
v -0.1 0 0
v 0 0 0
v 0.1 0 0
v 0.2 0 0
v 0.3 0 0
v -0.3 0 -0.1
v -0.2 0 -0.1
v -0.1 0 -0.1
v 0 0 -0.1
v 0.1 0 -0.1
v 0.2 0 -0.1
v 0.3 0 -0.1
v -0.3 0 -0.2
v -0.2 0 -0.2
v -0.1 0 -0.2
v 0.1 0 -0.2
v 0.2 0 -0.2
v 0.3 0 -0.2
v -0.3 0 -0.3
v -0.2 0 -0.3
v -0.1 0 -0.3
v 0.1 0 -0.3
v 0.2 0 -0.3
v 0.3 0 -0.3
v -0.3 0.1 0.3
v -0.1 0.1 0.3
v 0 0.1 0.3
v 0.1 0.1 0.3
v 0.2 0.1 0.3
v -0.2 0.1 0.2
v -0.1 0.1 0.2
v 0 0.1 0.2
v 0.1 0.1 0.2
v 0.2 0.1 0.2
v -0.3 0.1 0.1
v -0.2 0.1 0.1
v -0.3 0.1 0
v -0.2 0.1 0
v 0.2 0.1 0
v 0.3 0.1 0
v -0.3 0.1 -0.1
v -0.2 0.1 -0.1
v 0.2 0.1 -0.1
v 0.3 0.1 -0.1
v -0.3 0.1 -0.2
v -0.2 0.1 -0.2
v -0.1 0.1 -0.2
v 0 0.1 -0.2
v 0.1 0.1 -0.2
v 0.2 0.1 -0.2
v 0.3 0.1 -0.2
v -0.3 0.1 -0.3
v -0.2 0.1 -0.3
v -0.1 0.1 -0.3
v 0 0.1 -0.3
v 0.1 0.1 -0.3
v 0.2 0.1 -0.3
v 0.3 0.1 -0.3
v -0.1 0.2 0.3
v 0 0.2 0.3
v 0.2 0.2 0.3
v 0.3 0.2 0.3
v -0.2 0.2 0.2
v -0.1 0.2 0.2
v 0 0.2 0.2
v 0.1 0.2 0.2
v 0.2 0.2 0.2
v 0.3 0.2 0.2
v -0.2 0.2 0.1
v -0.1 0.2 0.1
v 0.1 0.2 0.1
v 0.2 0.2 0.1
v 0.3 0.2 0.1
v 0.2 0.2 0
v 0.3 0.2 0
v -0.3 0.2 -0.1
v -0.2 0.2 -0.1
v -0.1 0.2 -0.1
v 0 0.2 -0.1
v 0.1 0.2 -0.1
v 0.2 0.2 -0.1
v 0.3 0.2 -0.1
v -0.3 0.2 -0.2
v -0.2 0.2 -0.2
v -0.1 0.2 -0.2
v 0 0.2 -0.2
v 0.1 0.2 -0.2
v 0.3 0.2 -0.2
v -0.1 0.2 -0.3
v 0 0.2 -0.3
v -0.1 0.3 0.2
v 0.1 0.3 0.2
v -0.2 0.3 0.1
v -0.1 0.3 0.1
v 0 0.3 0.1
v 0.1 0.3 0.1
v 0.2 0.3 0.1
v -0.2 0.3 0
v -0.1 0.3 0
v 0 0.3 0
v 0.1 0.3 0
v -0.2 0.3 -0.1
v -0.1 0.3 -0.1
v 0 0.3 -0.1
v 0.1 0.3 -0.1
v 0.2 0.3 -0.1
v -0.1 0.4 0.1
v 0 0.4 0.1
v 0.1 0.4 0.1
v -0.1 0.4 0
v 0 0.4 0
v 0.1 0.4 0
v 0 0.4 -0.1
v 0.1 0.4 -0.1

# faces
f 7/1/1 2/1/1 1/1/1
f 8/5/1 3/5/1 2/5/1
f 8/1/1 2/1/1 7/1/1
f 9/3/1 4/3/1 3/3/1
f 9/5/1 3/5/1 8/5/1
f 10/4/1 5/4/1 4/4/1
f 10/3/1 4/3/1 9/3/1
f 11/1/1 6/1/1 5/1/1
f 11/4/1 5/4/1 10/4/1
f 12/1/1 6/1/1 11/1/1
f 13/2/1 11/2/1 10/2/1
f 14/2/1 11/2/1 13/2/1
f 19/1/1 16/1/1 15/1/1
f 20/4/1 17/4/1 16/4/1
f 20/1/1 16/1/1 19/1/1
f 21/6/1 18/6/1 17/6/1
f 21/4/1 17/4/1 20/4/1
f 22/6/1 18/6/1 21/6/1
f 23/2/1 21/2/1 20/2/1
f 24/4/1 22/4/1 21/4/1
f 24/2/1 21/2/1 23/2/1
f 25/4/1 22/4/1 24/4/1
f 30/4/1 27/4/1 26/4/1
f 31/4/1 27/4/1 30/4/1
f 33/4/1 29/4/1 28/4/1
f 34/4/1 29/4/1 33/4/1
f 35/5/1 32/5/1 31/5/1
f 36/5/1 32/5/1 35/5/1
f 38/5/1 37/5/1 36/5/1
f 39/5/1 37/5/1 38/5/1
f 42/1/1 41/1/1 40/1/1
f 43/1/1 41/1/1 42/1/1
f 46/3/1 45/3/1 44/3/1
f 47/3/1 45/3/1 46/3/1
f 48/4/2 49/4/2 52/4/2
f 52/4/2 49/4/2 53/4/2
f 50/4/2 51/4/2 54/4/2
f 54/4/2 51/4/2 55/4/2
f 56/5/2 57/5/2 58/5/2
f 58/5/2 57/5/2 59/5/2
f 59/4/2 60/4/2 62/4/2
f 60/1/2 61/1/2 63/1/2
f 62/4/2 60/4/2 63/4/2
f 63/1/2 61/1/2 64/1/2
f 65/5/2 66/5/2 68/5/2
f 68/5/2 66/5/2 69/5/2
f 67/2/2 68/2/2 70/2/2
f 68/2/2 69/2/2 70/2/2
f 70/2/2 69/2/2 71/2/2
f 72/3/2 73/3/2 79/3/2
f 73/6/2 74/6/2 79/6/2
f 74/3/2 75/3/2 80/3/2
f 79/6/2 74/6/2 80/6/2
f 75/4/2 76/4/2 81/4/2
f 80/3/2 75/3/2 81/3/2
f 76/1/2 77/1/2 82/1/2
f 81/4/2 76/4/2 82/4/2
f 77/3/2 78/3/2 83/3/2
f 82/1/2 77/1/2 83/1/2
f 83/3/2 78/3/2 84/3/2
f 72/3/2 79/3/2 85/3/2
f 79/1/2 80/1/2 86/1/2
f 85/3/2 79/3/2 86/3/2
f 80/6/2 81/6/2 87/6/2
f 86/1/2 80/1/2 87/1/2
f 87/6/2 81/6/2 88/6/2
f 82/5/2 83/5/2 89/5/2
f 89/5/2 83/5/2 90/5/2
f 93/1/3 92/1/3 91/1/3
f 94/1/3 92/1/3 93/1/3
f 96/6/3 94/6/3 93/6/3
f 97/4/3 95/4/3 94/4/3
f 97/6/3 94/6/3 96/6/3
f 98/4/3 95/4/3 97/4/3
f 99/5/3 97/5/3 96/5/3
f 100/5/3 97/5/3 99/5/3
f 101/1/3 100/1/3 99/1/3
f 102/1/3 100/1/3 101/1/3
f 104/3/3 102/3/3 101/3/3
f 104/3/3 103/3/3 102/3/3
f 105/3/3 103/3/3 104/3/3
f 108/1/3 107/1/3 106/1/3
f 109/1/3 107/1/3 108/1/3
f 112/5/3 110/5/3 109/5/3
f 113/6/3 112/6/3 111/6/3
f 114/5/3 110/5/3 112/5/3
f 114/6/3 112/6/3 113/6/3
f 115/5/3 110/5/3 114/5/3
f 116/2/3 114/2/3 113/2/3
f 117/2/3 114/2/3 116/2/3
f 120/2/3 119/2/3 118/2/3
f 121/2/3 119/2/3 120/2/3
f 123/5/3 122/5/3 121/5/3
f 124/5/3 122/5/3 123/5/3
f 126/4/3 124/4/3 123/4/3
f 127/4/3 124/4/3 126/4/3
f 128/2/3 126/2/3 125/2/3
f 129/2/3 126/2/3 128/2/3
f 132/2/3 131/2/3 130/2/3
f 133/2/3 131/2/3 132/2/3
f 136/5/3 135/5/3 134/5/3
f 137/5/3 135/5/3 136/5/3
f 138/5/4 139/5/4 140/5/4
f 140/5/4 139/5/4 141/5/4
f 142/6/4 143/6/4 144/6/4
f 144/6/4 143/6/4 145/6/4
f 146/4/4 147/4/4 148/4/4
f 148/4/4 147/4/4 149/4/4
f 148/1/4 149/1/4 150/1/4
f 150/1/4 149/1/4 151/1/4
f 150/4/4 151/4/4 153/4/4
f 151/1/4 152/1/4 154/1/4
f 153/4/4 151/4/4 154/4/4
f 154/1/4 152/1/4 155/1/4
f 153/2/4 154/2/4 156/2/4
f 156/2/4 154/2/4 157/2/4
f 158/2/4 159/2/4 160/2/4
f 160/2/4 159/2/4 161/2/4
f 160/5/4 161/5/4 162/5/4
f 162/5/4 161/5/4 163/5/4
f 164/2/4 165/2/4 166/2/4
f 166/2/4 165/2/4 167/2/4
f 166/5/4 167/5/4 168/5/4
f 168/5/4 167/5/4 169/5/4
f 169/5/4 167/5/4 170/5/4
f 171/1/4 172/1/4 173/1/4
f 173/1/4 172/1/4 174/1/4
f 173/5/4 174/5/4 175/5/4
f 175/5/4 174/5/4 176/5/4
f 175/3/4 176/3/4 178/3/4
f 176/4/4 177/4/4 178/4/4
f 178/4/4 177/4/4 179/4/4
f 175/3/4 178/3/4 180/3/4
f 180/3/4 178/3/4 181/3/4
f 180/6/4 181/6/4 182/6/4
f 182/6/4 181/6/4 183/6/4
f 182/3/4 183/3/4 184/3/4
f 184/3/4 183/3/4 185/3/4
f 192/1/5 187/1/5 186/1/5
f 193/6/5 188/6/5 187/6/5
f 193/1/5 187/1/5 192/1/5
f 194/5/5 189/5/5 188/5/5
f 194/6/5 188/6/5 193/6/5
f 195/1/5 190/1/5 189/1/5
f 195/5/5 189/5/5 194/5/5
f 196/3/5 191/3/5 190/3/5
f 196/1/5 190/1/5 195/1/5
f 197/3/5 191/3/5 196/3/5
f 198/1/5 192/1/5 186/1/5
f 199/6/5 193/6/5 192/6/5
f 199/1/5 192/1/5 198/1/5
f 200/3/5 195/3/5 194/3/5
f 200/4/5 194/4/5 193/4/5
f 201/5/5 196/5/5 195/5/5
f 201/3/5 195/3/5 200/3/5
f 202/6/5 197/6/5 196/6/5
f 202/5/5 196/5/5 201/5/5
f 203/6/5 197/6/5 202/6/5
f 204/5/5 199/5/5 198/5/5
f 205/6/5 193/6/5 199/6/5
f 205/5/5 199/5/5 204/5/5
f 206/4/5 200/4/5 193/4/5
f 206/6/5 193/6/5 205/6/5
f 206/4/5 201/4/5 200/4/5
f 207/4/5 201/4/5 206/4/5
f 208/5/5 202/5/5 201/5/5
f 208/4/5 201/4/5 207/4/5
f 209/3/5 203/3/5 202/3/5
f 209/5/5 202/5/5 208/5/5
f 210/3/5 203/3/5 209/3/5
f 211/3/5 205/3/5 204/3/5
f 211/3/5 206/3/5 205/3/5
f 212/3/5 206/3/5 211/3/5
f 213/4/5 207/4/5 206/4/5
f 213/3/5 206/3/5 212/3/5
f 214/1/5 208/1/5 207/1/5
f 214/4/5 207/4/5 213/4/5
f 214/1/5 209/1/5 208/1/5
f 215/1/5 209/1/5 214/1/5
f 216/4/5 210/4/5 209/4/5
f 216/1/5 209/1/5 215/1/5
f 217/4/5 210/4/5 216/4/5
f 218/4/5 212/4/5 211/4/5
f 219/2/5 213/2/5 212/2/5
f 219/4/5 212/4/5 218/4/5
f 220/3/5 215/3/5 214/3/5
f 220/2/5 213/2/5 219/2/5
f 220/3/5 214/3/5 213/3/5
f 221/1/5 217/1/5 216/1/5
f 221/3/5 215/3/5 220/3/5
f 221/1/5 216/1/5 215/1/5
f 222/1/5 217/1/5 221/1/5
f 223/1/5 217/1/5 222/1/5
f 224/1/5 219/1/5 218/1/5
f 225/5/5 220/5/5 219/5/5
f 225/1/5 219/1/5 224/1/5
f 226/3/5 221/3/5 220/3/5
f 226/5/5 220/5/5 225/5/5
f 227/6/5 222/6/5 221/6/5
f 227/3/5 221/3/5 226/3/5
f 228/3/5 223/3/5 222/3/5
f 228/6/5 222/6/5 227/6/5
f 229/3/5 223/3/5 228/3/5
f 230/1/6 231/1/6 235/1/6
f 235/1/6 231/1/6 236/1/6
f 232/5/6 233/5/6 237/5/6
f 233/1/6 234/1/6 238/1/6
f 237/5/6 233/5/6 238/5/6
f 238/1/6 234/1/6 239/1/6
f 230/1/6 235/1/6 240/1/6
f 240/1/6 235/1/6 241/1/6
f 240/5/6 241/5/6 242/5/6
f 242/5/6 241/5/6 243/5/6
f 242/3/6 243/3/6 246/3/6
f 246/3/6 243/3/6 247/3/6
f 244/4/6 245/4/6 248/4/6
f 248/4/6 245/4/6 249/4/6
f 250/1/6 251/1/6 257/1/6
f 251/5/6 252/5/6 258/5/6
f 257/1/6 251/1/6 258/1/6
f 258/5/6 252/5/6 259/5/6
f 253/3/6 254/3/6 260/3/6
f 254/6/6 255/6/6 261/6/6
f 260/3/6 254/3/6 261/3/6
f 255/3/6 256/3/6 262/3/6
f 261/6/6 255/6/6 262/6/6
f 262/3/6 256/3/6 263/3/6
f 264/4/6 265/4/6 269/4/6
f 269/4/6 265/4/6 270/4/6
f 266/3/6 267/3/6 272/3/6
f 272/3/6 267/3/6 273/3/6
f 268/1/6 269/1/6 274/1/6
f 274/1/6 269/1/6 275/1/6
f 271/2/6 272/2/6 276/2/6
f 272/1/6 273/1/6 277/1/6
f 276/2/6 272/2/6 277/2/6
f 277/1/6 273/1/6 278/1/6
f 277/6/6 278/6/6 279/6/6
f 279/6/6 278/6/6 280/6/6
f 281/2/6 282/2/6 288/2/6
f 282/5/6 283/5/6 289/5/6
f 288/2/6 282/2/6 289/2/6
f 283/4/6 284/4/6 290/4/6
f 289/5/6 283/5/6 290/5/6
f 284/2/6 285/2/6 291/2/6
f 290/4/6 284/4/6 291/4/6
f 286/5/6 287/5/6 292/5/6
f 291/2/6 285/2/6 292/2/6
f 285/5/6 286/5/6 292/5/6
f 292/5/6 287/5/6 293/5/6
f 290/4/6 291/4/6 294/4/6
f 294/4/6 291/4/6 295/4/6
f 296/5/6 297/5/6 299/5/6
f 299/5/6 297/5/6 300/5/6
f 300/5/6 297/5/6 301/5/6
f 298/2/6 299/2/6 303/2/6
f 303/2/6 299/2/6 304/2/6
f 301/2/6 302/2/6 306/2/6
f 303/4/6 304/4/6 307/4/6
f 304/1/6 305/1/6 308/1/6
f 307/4/6 304/4/6 308/4/6
f 308/1/6 305/1/6 309/1/6
f 306/2/6 302/2/6 310/2/6
f 310/2/6 302/2/6 311/2/6
f 312/5/6 313/5/6 315/5/6
f 313/4/6 314/4/6 316/4/6
f 315/5/6 313/5/6 316/5/6
f 316/4/6 314/4/6 317/4/6
f 316/1/6 317/1/6 318/1/6
f 318/1/6 317/1/6 319/1/6
