%YAML 1.1
%TAG !u! tag:unity3d.com,2011:
--- !u!1 &3026294498667291879
GameObject:
  m_ObjectHideFlags: 0
  m_CorrespondingSourceObject: {fileID: 0}
  m_PrefabInstance: {fileID: 0}
  m_PrefabAsset: {fileID: 0}
  serializedVersion: 6
  m_Component:
  - component: {fileID: 8850989281730114627}
  - component: {fileID: 2669717139197401741}
  m_Layer: 0
  m_Name: Kris_1
  m_TagString: Untagged
  m_Icon: {fileID: 0}
  m_NavMeshLayer: 0
  m_StaticEditorFlags: 0
  m_IsActive: 1
--- !u!4 &8850989281730114627
Transform:
  m_ObjectHideFlags: 0
  m_CorrespondingSourceObject: {fileID: 0}
  m_PrefabInstance: {fileID: 0}
  m_PrefabAsset: {fileID: 0}
  m_GameObject: {fileID: 3026294498667291879}
  m_LocalRotation: {x: 0, y: 0, z: 0, w: 1}
  m_LocalPosition: {x: -4.49, y: 0, z: -4.496}
  m_LocalScale: {x: 1, y: 1, z: 1}
  m_Children:
  - {fileID: 7569379506414526594}
  m_Father: {fileID: 0}
  m_RootOrder: 0
  m_LocalEulerAnglesHint: {x: 0, y: 0, z: 0}
--- !u!114 &2669717139197401741
MonoBehaviour:
  m_ObjectHideFlags: 0
  m_CorrespondingSourceObject: {fileID: 0}
  m_PrefabInstance: {fileID: 0}
  m_PrefabAsset: {fileID: 0}
  m_GameObject: {fileID: 3026294498667291879}
  m_Enabled: 1
  m_EditorHideFlags: 0
  m_Script: {fileID: 11500000, guid: e28ddd4394a431044b14767725489921, type: 3}
  m_Name: 
  m_EditorClassIdentifier: 
  Size: {x: 1, y: 1}
  mainRenderer: {fileID: 8685605029102062596}
--- !u!1001 &7962768709784225641
PrefabInstance:
  m_ObjectHideFlags: 0
  serializedVersion: 2
  m_Modification:
    m_TransformParent: {fileID: 8850989281730114627}
    m_Modifications:
    - target: {fileID: -8679921383154817045, guid: ac531b12305b4284aace5acff488b7ab, type: 3}
      propertyPath: m_LocalPosition.x
      value: -0
      objectReference: {fileID: 0}
    - target: {fileID: -8679921383154817045, guid: ac531b12305b4284aace5acff488b7ab, type: 3}
      propertyPath: m_LocalPosition.y
      value: 0
      objectReference: {fileID: 0}
    - target: {fileID: -8679921383154817045, guid: ac531b12305b4284aace5acff488b7ab, type: 3}
      propertyPath: m_LocalPosition.z
      value: 0
      objectReference: {fileID: 0}
    - target: {fileID: -8679921383154817045, guid: ac531b12305b4284aace5acff488b7ab, type: 3}
      propertyPath: m_LocalRotation.x
      value: -0
      objectReference: {fileID: 0}
    - target: {fileID: -8679921383154817045, guid: ac531b12305b4284aace5acff488b7ab, type: 3}
      propertyPath: m_LocalRotation.y
      value: -0.70710576
      objectReference: {fileID: 0}
    - target: {fileID: -8679921383154817045, guid: ac531b12305b4284aace5acff488b7ab, type: 3}
      propertyPath: m_LocalRotation.z
      value: -0
      objectReference: {fileID: 0}
    - target: {fileID: -8679921383154817045, guid: ac531b12305b4284aace5acff488b7ab, type: 3}
      propertyPath: m_LocalRotation.w
      value: 0.70710784
      objectReference: {fileID: 0}
    - target: {fileID: -8679921383154817045, guid: ac531b12305b4284aace5acff488b7ab, type: 3}
      propertyPath: m_RootOrder
      value: 0
      objectReference: {fileID: 0}
    - target: {fileID: -8679921383154817045, guid: ac531b12305b4284aace5acff488b7ab, type: 3}
      propertyPath: m_LocalEulerAnglesHint.x
      value: 0
      objectReference: {fileID: 0}
    - target: {fileID: -8679921383154817045, guid: ac531b12305b4284aace5acff488b7ab, type: 3}
      propertyPath: m_LocalEulerAnglesHint.y
      value: -90
      objectReference: {fileID: 0}
    - target: {fileID: -8679921383154817045, guid: ac531b12305b4284aace5acff488b7ab, type: 3}
      propertyPath: m_LocalEulerAnglesHint.z
      value: 0
      objectReference: {fileID: 0}
    - target: {fileID: 919132149155446097, guid: ac531b12305b4284aace5acff488b7ab, type: 3}
      propertyPath: m_Name
      value: kris_vox
      objectReference: {fileID: 0}
    m_RemovedComponents: []
  m_SourcePrefab: {fileID: 100100000, guid: ac531b12305b4284aace5acff488b7ab, type: 3}
--- !u!4 &7569379506414526594 stripped
Transform:
  m_CorrespondingSourceObject: {fileID: -8679921383154817045, guid: ac531b12305b4284aace5acff488b7ab, type: 3}
  m_PrefabInstance: {fileID: 7962768709784225641}
  m_PrefabAsset: {fileID: 0}
--- !u!23 &8685605029102062596 stripped
MeshRenderer:
  m_CorrespondingSourceObject: {fileID: -7635826562936255635, guid: ac531b12305b4284aace5acff488b7ab, type: 3}
  m_PrefabInstance: {fileID: 7962768709784225641}
  m_PrefabAsset: {fileID: 0}
