# MagicaVoxel @ Ephtracy

# group
o 

# material
mtllib Platform.mtl
usemtl palette

# normals
vn -1 0 0
vn 1 0 0
vn 0 0 1
vn 0 0 -1
vn 0 -1 0
vn 0 1 0

# texcoords
vt 0.970703 0.5
vt 0.974609 0.5
vt 0.978516 0.5
vt 0.982422 0.5
vt 0.986328 0.5

# verts
v -0.8 0 0.8
v -0.8 0 0.7
v -0.8 0 0.6
v -0.8 0 0.5
v -0.8 0 0.4
v -0.8 0 0.2
v -0.8 0 0.1
v -0.8 0 -0.2
v -0.8 0 -0.3
v -0.8 0 -0.4
v -0.8 0 -0.5
v -0.8 0 -0.6
v -0.8 0 -0.7
v -0.8 0.1 0.8
v -0.8 0.1 0.7
v -0.8 0.1 0.6
v -0.8 0.1 0.5
v -0.8 0.1 0.4
v -0.8 0.1 0.2
v -0.8 0.1 0.1
v -0.8 0.1 -0.2
v -0.8 0.1 -0.3
v -0.8 0.1 -0.4
v -0.8 0.1 -0.5
v -0.8 0.1 -0.6
v -0.8 0.1 -0.7
v 0.7 0 0.8
v 0.7 0 0.7
v 0.7 0 0.6
v 0.7 0 0.5
v 0.7 0 0.2
v 0.7 0 0.1
v 0.7 0 -0.1
v 0.7 0 -0.2
v 0.7 0 -0.3
v 0.7 0 -0.4
v 0.7 0 -0.5
v 0.7 0 -0.7
v 0.7 0.1 0.8
v 0.7 0.1 0.7
v 0.7 0.1 0.6
v 0.7 0.1 0.5
v 0.7 0.1 0.2
v 0.7 0.1 0.1
v 0.7 0.1 -0.1
v 0.7 0.1 -0.2
v 0.7 0.1 -0.3
v 0.7 0.1 -0.4
v 0.7 0.1 -0.5
v 0.7 0.1 -0.7
v -0.8 0 0.8
v -0.8 0.1 0.8
v -0.6 0 0.8
v -0.6 0.1 0.8
v -0.5 0 0.8
v -0.5 0.1 0.8
v -0.4 0 0.8
v -0.4 0.1 0.8
v -0.3 0 0.8
v -0.3 0.1 0.8
v -0.2 0 0.8
v -0.2 0.1 0.8
v -0.1 0 0.8
v -0.1 0.1 0.8
v 0 0 0.8
v 0 0.1 0.8
v 0.1 0 0.8
v 0.1 0.1 0.8
v 0.3 0 0.8
v 0.3 0.1 0.8
v 0.4 0 0.8
v 0.4 0.1 0.8
v 0.5 0 0.8
v 0.5 0.1 0.8
v 0.6 0 0.8
v 0.6 0.1 0.8
v 0.7 0 0.8
v 0.7 0.1 0.8
v -0.8 0 -0.7
v -0.8 0.1 -0.7
v -0.7 0 -0.7
v -0.7 0.1 -0.7
v -0.6 0 -0.7
v -0.6 0.1 -0.7
v -0.5 0 -0.7
v -0.5 0.1 -0.7
v -0.4 0 -0.7
v -0.4 0.1 -0.7
v -0.3 0 -0.7
v -0.3 0.1 -0.7
v -0.2 0 -0.7
v -0.2 0.1 -0.7
v -0.1 0 -0.7
v -0.1 0.1 -0.7
v 0 0 -0.7
v 0 0.1 -0.7
v 0.1 0 -0.7
v 0.1 0.1 -0.7
v 0.2 0 -0.7
v 0.2 0.1 -0.7
v 0.3 0 -0.7
v 0.3 0.1 -0.7
v 0.4 0 -0.7
v 0.4 0.1 -0.7
v 0.5 0 -0.7
v 0.5 0.1 -0.7
v 0.6 0 -0.7
v 0.6 0.1 -0.7
v 0.7 0 -0.7
v 0.7 0.1 -0.7
v -0.8 0 0.8
v -0.6 0 0.8
v -0.5 0 0.8
v -0.4 0 0.8
v -0.3 0 0.8
v -0.2 0 0.8
v -0.1 0 0.8
v 0 0 0.8
v 0.1 0 0.8
v 0.3 0 0.8
v 0.4 0 0.8
v 0.5 0 0.8
v 0.6 0 0.8
v 0.7 0 0.8
v -0.8 0 0.7
v -0.7 0 0.7
v -0.6 0 0.7
v -0.5 0 0.7
v -0.4 0 0.7
v -0.3 0 0.7
v -0.2 0 0.7
v -0.1 0 0.7
v 0 0 0.7
v 0.1 0 0.7
v 0.2 0 0.7
v 0.3 0 0.7
v 0.4 0 0.7
v 0.5 0 0.7
v 0.6 0 0.7
v 0.7 0 0.7
v -0.8 0 0.6
v -0.7 0 0.6
v -0.6 0 0.6
v -0.5 0 0.6
v -0.4 0 0.6
v -0.3 0 0.6
v -0.2 0 0.6
v 0 0 0.6
v 0.1 0 0.6
v 0.2 0 0.6
v 0.3 0 0.6
v 0.4 0 0.6
v 0.5 0 0.6
v 0.6 0 0.6
v 0.7 0 0.6
v -0.8 0 0.5
v -0.7 0 0.5
v -0.5 0 0.5
v -0.4 0 0.5
v -0.3 0 0.5
v -0.2 0 0.5
v -0.1 0 0.5
v 0 0 0.5
v 0.1 0 0.5
v 0.2 0 0.5
v 0.3 0 0.5
v 0.4 0 0.5
v 0.5 0 0.5
v 0.6 0 0.5
v 0.7 0 0.5
v -0.8 0 0.4
v -0.7 0 0.4
v -0.6 0 0.4
v -0.5 0 0.4
v -0.4 0 0.4
v -0.3 0 0.4
v -0.2 0 0.4
v -0.1 0 0.4
v 0 0 0.4
v 0.1 0 0.4
v 0.2 0 0.4
v 0.3 0 0.4
v 0.4 0 0.4
v 0.5 0 0.4
v 0.6 0 0.4
v -0.7 0 0.3
v -0.5 0 0.3
v -0.4 0 0.3
v -0.3 0 0.3
v -0.2 0 0.3
v -0.1 0 0.3
v 0 0 0.3
v 0.1 0 0.3
v 0.2 0 0.3
v 0.3 0 0.3
v 0.4 0 0.3
v 0.5 0 0.3
v 0.6 0 0.3
v -0.8 0 0.2
v -0.7 0 0.2
v -0.6 0 0.2
v -0.5 0 0.2
v -0.4 0 0.2
v -0.3 0 0.2
v -0.2 0 0.2
v 0 0 0.2
v 0.1 0 0.2
v 0.2 0 0.2
v 0.3 0 0.2
v 0.4 0 0.2
v 0.6 0 0.2
v 0.7 0 0.2
v -0.8 0 0.1
v -0.7 0 0.1
v -0.6 0 0.1
v -0.5 0 0.1
v -0.4 0 0.1
v -0.3 0 0.1
v -0.2 0 0.1
v -0.1 0 0.1
v 0 0 0.1
v 0.1 0 0.1
v 0.2 0 0.1
v 0.3 0 0.1
v 0.4 0 0.1
v 0.5 0 0.1
v 0.6 0 0.1
v 0.7 0 0.1
v -0.7 0 0
v -0.6 0 0
v -0.5 0 0
v -0.4 0 0
v -0.3 0 0
v -0.2 0 0
v -0.1 0 0
v 0 0 0
v 0.1 0 0
v 0.3 0 0
v 0.4 0 0
v 0.5 0 0
v 0.6 0 0
v -0.6 0 -0.1
v -0.5 0 -0.1
v -0.4 0 -0.1
v -0.3 0 -0.1
v -0.2 0 -0.1
v -0.1 0 -0.1
v 0 0 -0.1
v 0.1 0 -0.1
v 0.2 0 -0.1
v 0.3 0 -0.1
v 0.4 0 -0.1
v 0.5 0 -0.1
v 0.7 0 -0.1
v -0.8 0 -0.2
v -0.6 0 -0.2
v -0.5 0 -0.2
v -0.3 0 -0.2
v -0.2 0 -0.2
v -0.1 0 -0.2
v 0 0 -0.2
v 0.1 0 -0.2
v 0.2 0 -0.2
v 0.3 0 -0.2
v 0.4 0 -0.2
v 0.5 0 -0.2
v 0.6 0 -0.2
v 0.7 0 -0.2
v -0.8 0 -0.3
v -0.7 0 -0.3
v -0.5 0 -0.3
v -0.4 0 -0.3
v -0.3 0 -0.3
v -0.2 0 -0.3
v -0.1 0 -0.3
v 0 0 -0.3
v 0.1 0 -0.3
v 0.2 0 -0.3
v 0.3 0 -0.3
v 0.4 0 -0.3
v 0.5 0 -0.3
v 0.6 0 -0.3
v 0.7 0 -0.3
v -0.8 0 -0.4
v -0.7 0 -0.4
v -0.6 0 -0.4
v -0.5 0 -0.4
v -0.4 0 -0.4
v -0.3 0 -0.4
v -0.2 0 -0.4
v -0.1 0 -0.4
v 0 0 -0.4
v 0.2 0 -0.4
v 0.3 0 -0.4
v 0.4 0 -0.4
v 0.5 0 -0.4
v 0.6 0 -0.4
v 0.7 0 -0.4
v -0.8 0 -0.5
v -0.7 0 -0.5
v -0.6 0 -0.5
v -0.5 0 -0.5
v -0.4 0 -0.5
v -0.3 0 -0.5
v -0.2 0 -0.5
v -0.1 0 -0.5
v 0 0 -0.5
v 0.1 0 -0.5
v 0.2 0 -0.5
v 0.3 0 -0.5
v 0.4 0 -0.5
v 0.5 0 -0.5
v 0.6 0 -0.5
v 0.7 0 -0.5
v -0.8 0 -0.6
v -0.7 0 -0.6
v -0.6 0 -0.6
v -0.5 0 -0.6
v -0.4 0 -0.6
v -0.3 0 -0.6
v -0.2 0 -0.6
v -0.1 0 -0.6
v 0 0 -0.6
v 0.1 0 -0.6
v 0.2 0 -0.6
v 0.3 0 -0.6
v 0.4 0 -0.6
v 0.5 0 -0.6
v 0.6 0 -0.6
v -0.8 0 -0.7
v -0.7 0 -0.7
v -0.6 0 -0.7
v -0.5 0 -0.7
v -0.4 0 -0.7
v -0.3 0 -0.7
v -0.2 0 -0.7
v -0.1 0 -0.7
v 0 0 -0.7
v 0.1 0 -0.7
v 0.2 0 -0.7
v 0.3 0 -0.7
v 0.4 0 -0.7
v 0.5 0 -0.7
v 0.6 0 -0.7
v 0.7 0 -0.7
v -0.8 0.1 0.8
v -0.6 0.1 0.8
v -0.5 0.1 0.8
v -0.4 0.1 0.8
v -0.3 0.1 0.8
v -0.2 0.1 0.8
v -0.1 0.1 0.8
v 0 0.1 0.8
v 0.1 0.1 0.8
v 0.3 0.1 0.8
v 0.4 0.1 0.8
v 0.5 0.1 0.8
v 0.6 0.1 0.8
v 0.7 0.1 0.8
v -0.8 0.1 0.7
v -0.7 0.1 0.7
v -0.6 0.1 0.7
v -0.5 0.1 0.7
v -0.4 0.1 0.7
v -0.3 0.1 0.7
v -0.2 0.1 0.7
v -0.1 0.1 0.7
v 0 0.1 0.7
v 0.1 0.1 0.7
v 0.2 0.1 0.7
v 0.3 0.1 0.7
v 0.4 0.1 0.7
v 0.5 0.1 0.7
v 0.6 0.1 0.7
v 0.7 0.1 0.7
v -0.8 0.1 0.6
v -0.7 0.1 0.6
v -0.6 0.1 0.6
v -0.5 0.1 0.6
v -0.4 0.1 0.6
v -0.3 0.1 0.6
v -0.2 0.1 0.6
v 0 0.1 0.6
v 0.1 0.1 0.6
v 0.2 0.1 0.6
v 0.3 0.1 0.6
v 0.4 0.1 0.6
v 0.5 0.1 0.6
v 0.6 0.1 0.6
v 0.7 0.1 0.6
v -0.8 0.1 0.5
v -0.7 0.1 0.5
v -0.5 0.1 0.5
v -0.4 0.1 0.5
v -0.3 0.1 0.5
v -0.2 0.1 0.5
v -0.1 0.1 0.5
v 0 0.1 0.5
v 0.1 0.1 0.5
v 0.2 0.1 0.5
v 0.3 0.1 0.5
v 0.4 0.1 0.5
v 0.5 0.1 0.5
v 0.6 0.1 0.5
v 0.7 0.1 0.5
v -0.8 0.1 0.4
v -0.7 0.1 0.4
v -0.6 0.1 0.4
v -0.5 0.1 0.4
v -0.4 0.1 0.4
v -0.3 0.1 0.4
v -0.2 0.1 0.4
v -0.1 0.1 0.4
v 0 0.1 0.4
v 0.1 0.1 0.4
v 0.2 0.1 0.4
v 0.3 0.1 0.4
v 0.4 0.1 0.4
v 0.5 0.1 0.4
v 0.6 0.1 0.4
v -0.7 0.1 0.3
v -0.5 0.1 0.3
v -0.4 0.1 0.3
v -0.3 0.1 0.3
v -0.2 0.1 0.3
v -0.1 0.1 0.3
v 0 0.1 0.3
v 0.1 0.1 0.3
v 0.2 0.1 0.3
v 0.3 0.1 0.3
v 0.4 0.1 0.3
v 0.5 0.1 0.3
v 0.6 0.1 0.3
v -0.8 0.1 0.2
v -0.7 0.1 0.2
v -0.6 0.1 0.2
v -0.5 0.1 0.2
v -0.4 0.1 0.2
v -0.3 0.1 0.2
v -0.2 0.1 0.2
v 0 0.1 0.2
v 0.1 0.1 0.2
v 0.2 0.1 0.2
v 0.3 0.1 0.2
v 0.4 0.1 0.2
v 0.6 0.1 0.2
v 0.7 0.1 0.2
v -0.8 0.1 0.1
v -0.7 0.1 0.1
v -0.6 0.1 0.1
v -0.5 0.1 0.1
v -0.4 0.1 0.1
v -0.3 0.1 0.1
v -0.2 0.1 0.1
v -0.1 0.1 0.1
v 0 0.1 0.1
v 0.1 0.1 0.1
v 0.2 0.1 0.1
v 0.3 0.1 0.1
v 0.4 0.1 0.1
v 0.5 0.1 0.1
v 0.6 0.1 0.1
v 0.7 0.1 0.1
v -0.7 0.1 0
v -0.6 0.1 0
v -0.5 0.1 0
v -0.4 0.1 0
v -0.3 0.1 0
v -0.2 0.1 0
v -0.1 0.1 0
v 0 0.1 0
v 0.1 0.1 0
v 0.3 0.1 0
v 0.4 0.1 0
v 0.5 0.1 0
v 0.6 0.1 0
v -0.6 0.1 -0.1
v -0.5 0.1 -0.1
v -0.4 0.1 -0.1
v -0.3 0.1 -0.1
v -0.2 0.1 -0.1
v -0.1 0.1 -0.1
v 0 0.1 -0.1
v 0.1 0.1 -0.1
v 0.2 0.1 -0.1
v 0.3 0.1 -0.1
v 0.4 0.1 -0.1
v 0.5 0.1 -0.1
v 0.7 0.1 -0.1
v -0.8 0.1 -0.2
v -0.6 0.1 -0.2
v -0.5 0.1 -0.2
v -0.3 0.1 -0.2
v -0.2 0.1 -0.2
v -0.1 0.1 -0.2
v 0 0.1 -0.2
v 0.1 0.1 -0.2
v 0.2 0.1 -0.2
v 0.3 0.1 -0.2
v 0.4 0.1 -0.2
v 0.5 0.1 -0.2
v 0.6 0.1 -0.2
v 0.7 0.1 -0.2
v -0.8 0.1 -0.3
v -0.7 0.1 -0.3
v -0.5 0.1 -0.3
v -0.4 0.1 -0.3
v -0.3 0.1 -0.3
v -0.2 0.1 -0.3
v -0.1 0.1 -0.3
v 0 0.1 -0.3
v 0.1 0.1 -0.3
v 0.2 0.1 -0.3
v 0.3 0.1 -0.3
v 0.4 0.1 -0.3
v 0.5 0.1 -0.3
v 0.6 0.1 -0.3
v 0.7 0.1 -0.3
v -0.8 0.1 -0.4
v -0.7 0.1 -0.4
v -0.6 0.1 -0.4
v -0.5 0.1 -0.4
v -0.4 0.1 -0.4
v -0.3 0.1 -0.4
v -0.2 0.1 -0.4
v -0.1 0.1 -0.4
v 0 0.1 -0.4
v 0.2 0.1 -0.4
v 0.3 0.1 -0.4
v 0.4 0.1 -0.4
v 0.5 0.1 -0.4
v 0.6 0.1 -0.4
v 0.7 0.1 -0.4
v -0.8 0.1 -0.5
v -0.7 0.1 -0.5
v -0.6 0.1 -0.5
v -0.5 0.1 -0.5
v -0.4 0.1 -0.5
v -0.3 0.1 -0.5
v -0.2 0.1 -0.5
v -0.1 0.1 -0.5
v 0 0.1 -0.5
v 0.1 0.1 -0.5
v 0.2 0.1 -0.5
v 0.3 0.1 -0.5
v 0.4 0.1 -0.5
v 0.5 0.1 -0.5
v 0.6 0.1 -0.5
v 0.7 0.1 -0.5
v -0.8 0.1 -0.6
v -0.7 0.1 -0.6
v -0.6 0.1 -0.6
v -0.5 0.1 -0.6
v -0.4 0.1 -0.6
v -0.3 0.1 -0.6
v -0.2 0.1 -0.6
v -0.1 0.1 -0.6
v 0 0.1 -0.6
v 0.1 0.1 -0.6
v 0.2 0.1 -0.6
v 0.3 0.1 -0.6
v 0.4 0.1 -0.6
v 0.5 0.1 -0.6
v 0.6 0.1 -0.6
v -0.8 0.1 -0.7
v -0.7 0.1 -0.7
v -0.6 0.1 -0.7
v -0.5 0.1 -0.7
v -0.4 0.1 -0.7
v -0.3 0.1 -0.7
v -0.2 0.1 -0.7
v -0.1 0.1 -0.7
v 0 0.1 -0.7
v 0.1 0.1 -0.7
v 0.2 0.1 -0.7
v 0.3 0.1 -0.7
v 0.4 0.1 -0.7
v 0.5 0.1 -0.7
v 0.6 0.1 -0.7
v 0.7 0.1 -0.7

# faces
f 14/4/1 2/4/1 1/4/1
f 15/2/1 3/2/1 2/2/1
f 15/4/1 2/4/1 14/4/1
f 16/1/1 4/1/1 3/1/1
f 16/2/1 3/2/1 15/2/1
f 17/5/1 5/5/1 4/5/1
f 17/1/1 4/1/1 16/1/1
f 18/2/1 6/2/1 5/2/1
f 18/5/1 5/5/1 17/5/1
f 19/4/1 7/4/1 6/4/1
f 19/2/1 6/2/1 18/2/1
f 20/1/1 8/1/1 7/1/1
f 20/4/1 7/4/1 19/4/1
f 21/2/1 9/2/1 8/2/1
f 21/1/1 8/1/1 20/1/1
f 22/5/1 10/5/1 9/5/1
f 22/2/1 9/2/1 21/2/1
f 23/2/1 11/2/1 10/2/1
f 23/5/1 10/5/1 22/5/1
f 24/4/1 12/4/1 11/4/1
f 24/2/1 11/2/1 23/2/1
f 25/3/1 13/3/1 12/3/1
f 25/4/1 12/4/1 24/4/1
f 26/3/1 13/3/1 25/3/1
f 27/2/2 28/2/2 39/2/2
f 28/1/2 29/1/2 40/1/2
f 39/2/2 28/2/2 40/2/2
f 29/3/2 30/3/2 41/3/2
f 40/1/2 29/1/2 41/1/2
f 30/4/2 31/4/2 42/4/2
f 41/3/2 30/3/2 42/3/2
f 31/1/2 32/1/2 43/1/2
f 42/4/2 31/4/2 43/4/2
f 32/3/2 33/3/2 44/3/2
f 43/1/2 32/1/2 44/1/2
f 33/4/2 34/4/2 45/4/2
f 44/3/2 33/3/2 45/3/2
f 34/5/2 35/5/2 46/5/2
f 45/4/2 34/4/2 46/4/2
f 35/1/2 36/1/2 47/1/2
f 46/5/2 35/5/2 47/5/2
f 36/5/2 37/5/2 48/5/2
f 47/1/2 36/1/2 48/1/2
f 37/1/2 38/1/2 49/1/2
f 48/5/2 37/5/2 49/5/2
f 49/1/2 38/1/2 50/1/2
f 53/4/3 52/4/3 51/4/3
f 54/4/3 52/4/3 53/4/3
f 55/3/3 54/3/3 53/3/3
f 56/3/3 54/3/3 55/3/3
f 57/4/3 56/4/3 55/4/3
f 58/4/3 56/4/3 57/4/3
f 59/1/3 58/1/3 57/1/3
f 60/1/3 58/1/3 59/1/3
f 61/3/3 60/3/3 59/3/3
f 62/3/3 60/3/3 61/3/3
f 63/4/3 62/4/3 61/4/3
f 64/4/3 62/4/3 63/4/3
f 65/1/3 64/1/3 63/1/3
f 66/1/3 64/1/3 65/1/3
f 67/4/3 66/4/3 65/4/3
f 68/4/3 66/4/3 67/4/3
f 69/1/3 68/1/3 67/1/3
f 70/1/3 68/1/3 69/1/3
f 71/5/3 70/5/3 69/5/3
f 72/5/3 70/5/3 71/5/3
f 73/4/3 72/4/3 71/4/3
f 74/4/3 72/4/3 73/4/3
f 75/1/3 74/1/3 73/1/3
f 76/1/3 74/1/3 75/1/3
f 77/2/3 76/2/3 75/2/3
f 78/2/3 76/2/3 77/2/3
f 79/3/4 80/3/4 81/3/4
f 81/3/4 80/3/4 82/3/4
f 81/1/4 82/1/4 83/1/4
f 83/1/4 82/1/4 84/1/4
f 83/4/4 84/4/4 85/4/4
f 85/4/4 84/4/4 86/4/4
f 85/1/4 86/1/4 87/1/4
f 87/1/4 86/1/4 88/1/4
f 87/5/4 88/5/4 89/5/4
f 89/5/4 88/5/4 90/5/4
f 89/4/4 90/4/4 91/4/4
f 91/4/4 90/4/4 92/4/4
f 91/1/4 92/1/4 93/1/4
f 93/1/4 92/1/4 94/1/4
f 93/3/4 94/3/4 95/3/4
f 95/3/4 94/3/4 96/3/4
f 95/5/4 96/5/4 97/5/4
f 97/5/4 96/5/4 98/5/4
f 97/1/4 98/1/4 99/1/4
f 99/1/4 98/1/4 100/1/4
f 99/4/4 100/4/4 101/4/4
f 101/4/4 100/4/4 102/4/4
f 101/2/4 102/2/4 103/2/4
f 103/2/4 102/2/4 104/2/4
f 103/1/4 104/1/4 105/1/4
f 105/1/4 104/1/4 106/1/4
f 105/5/4 106/5/4 107/5/4
f 107/5/4 106/5/4 108/5/4
f 107/1/4 108/1/4 109/1/4
f 109/1/4 108/1/4 110/1/4
f 125/4/5 112/4/5 111/4/5
f 126/4/5 112/4/5 125/4/5
f 127/3/5 113/3/5 112/3/5
f 127/4/5 112/4/5 126/4/5
f 128/4/5 114/4/5 113/4/5
f 128/3/5 113/3/5 127/3/5
f 129/1/5 115/1/5 114/1/5
f 129/4/5 114/4/5 128/4/5
f 130/3/5 116/3/5 115/3/5
f 130/1/5 115/1/5 129/1/5
f 131/4/5 117/4/5 116/4/5
f 131/3/5 116/3/5 130/3/5
f 132/1/5 118/1/5 117/1/5
f 132/4/5 117/4/5 131/4/5
f 133/4/5 119/4/5 118/4/5
f 133/1/5 118/1/5 132/1/5
f 134/1/5 120/1/5 119/1/5
f 134/4/5 119/4/5 133/4/5
f 135/1/5 120/1/5 134/1/5
f 136/5/5 121/5/5 120/5/5
f 136/1/5 120/1/5 135/1/5
f 137/4/5 122/4/5 121/4/5
f 137/5/5 121/5/5 136/5/5
f 138/1/5 123/1/5 122/1/5
f 138/4/5 122/4/5 137/4/5
f 139/2/5 124/2/5 123/2/5
f 139/1/5 123/1/5 138/1/5
f 140/2/5 124/2/5 139/2/5
f 141/2/5 126/2/5 125/2/5
f 142/3/5 127/3/5 126/3/5
f 142/2/5 126/2/5 141/2/5
f 143/4/5 128/4/5 127/4/5
f 143/3/5 127/3/5 142/3/5
f 144/3/5 129/3/5 128/3/5
f 144/4/5 128/4/5 143/4/5
f 145/1/5 130/1/5 129/1/5
f 145/3/5 129/3/5 144/3/5
f 145/1/5 131/1/5 130/1/5
f 146/1/5 131/1/5 145/1/5
f 147/2/5 132/2/5 131/2/5
f 147/1/5 131/1/5 146/1/5
f 147/2/5 133/2/5 132/2/5
f 148/3/5 135/3/5 134/3/5
f 148/2/5 133/2/5 147/2/5
f 148/3/5 134/3/5 133/3/5
f 149/3/5 135/3/5 148/3/5
f 150/1/5 136/1/5 135/1/5
f 150/3/5 135/3/5 149/3/5
f 151/2/5 137/2/5 136/2/5
f 151/1/5 136/1/5 150/1/5
f 152/4/5 138/4/5 137/4/5
f 152/2/5 137/2/5 151/2/5
f 153/2/5 139/2/5 138/2/5
f 153/4/5 138/4/5 152/4/5
f 154/1/5 140/1/5 139/1/5
f 154/2/5 139/2/5 153/2/5
f 155/1/5 140/1/5 154/1/5
f 156/1/5 142/1/5 141/1/5
f 157/5/5 143/5/5 142/5/5
f 157/1/5 142/1/5 156/1/5
f 158/1/5 144/1/5 143/1/5
f 158/1/5 145/1/5 144/1/5
f 159/3/5 146/3/5 145/3/5
f 159/1/5 145/1/5 158/1/5
f 160/2/5 147/2/5 146/2/5
f 160/3/5 146/3/5 159/3/5
f 161/4/5 148/4/5 147/4/5
f 161/2/5 147/2/5 160/2/5
f 162/4/5 148/4/5 161/4/5
f 163/5/5 149/5/5 148/5/5
f 163/4/5 148/4/5 162/4/5
f 164/2/5 151/2/5 150/2/5
f 164/5/5 149/5/5 163/5/5
f 164/2/5 150/2/5 149/2/5
f 165/2/5 151/2/5 164/2/5
f 166/5/5 152/5/5 151/5/5
f 166/2/5 151/2/5 165/2/5
f 167/1/5 153/1/5 152/1/5
f 167/5/5 152/5/5 166/5/5
f 168/4/5 154/4/5 153/4/5
f 168/1/5 153/1/5 167/1/5
f 169/3/5 155/3/5 154/3/5
f 169/4/5 154/4/5 168/4/5
f 170/3/5 155/3/5 169/3/5
f 171/5/5 157/5/5 156/5/5
f 172/5/5 143/5/5 157/5/5
f 172/5/5 157/5/5 171/5/5
f 173/1/5 158/1/5 143/1/5
f 173/5/5 143/5/5 172/5/5
f 174/2/5 159/2/5 158/2/5
f 174/1/5 158/1/5 173/1/5
f 175/4/5 160/4/5 159/4/5
f 175/2/5 159/2/5 174/2/5
f 176/3/5 161/3/5 160/3/5
f 176/4/5 160/4/5 175/4/5
f 177/2/5 162/2/5 161/2/5
f 177/3/5 161/3/5 176/3/5
f 178/1/5 163/1/5 162/1/5
f 178/2/5 162/2/5 177/2/5
f 179/4/5 164/4/5 163/4/5
f 179/1/5 163/1/5 178/1/5
f 180/3/5 165/3/5 164/3/5
f 180/4/5 164/4/5 179/4/5
f 181/1/5 166/1/5 165/1/5
f 181/3/5 165/3/5 180/3/5
f 181/1/5 167/1/5 166/1/5
f 182/1/5 167/1/5 181/1/5
f 183/2/5 168/2/5 167/2/5
f 183/1/5 167/1/5 182/1/5
f 183/2/5 169/2/5 168/2/5
f 184/2/5 169/2/5 183/2/5
f 185/4/5 170/4/5 169/4/5
f 185/2/5 169/2/5 184/2/5
f 186/2/5 172/2/5 171/2/5
f 186/5/5 173/5/5 172/5/5
f 186/5/5 175/5/5 174/5/5
f 186/5/5 174/5/5 173/5/5
f 187/5/5 175/5/5 186/5/5
f 188/2/5 176/2/5 175/2/5
f 188/5/5 175/5/5 187/5/5
f 189/3/5 177/3/5 176/3/5
f 189/2/5 176/2/5 188/2/5
f 189/3/5 178/3/5 177/3/5
f 190/3/5 178/3/5 189/3/5
f 191/4/5 180/4/5 179/4/5
f 191/3/5 178/3/5 190/3/5
f 191/4/5 179/4/5 178/4/5
f 192/4/5 180/4/5 191/4/5
f 193/2/5 181/2/5 180/2/5
f 193/4/5 180/4/5 192/4/5
f 193/2/5 182/2/5 181/2/5
f 194/2/5 182/2/5 193/2/5
f 195/4/5 183/4/5 182/4/5
f 195/2/5 182/2/5 194/2/5
f 195/4/5 184/4/5 183/4/5
f 196/4/5 184/4/5 195/4/5
f 197/3/5 185/3/5 184/3/5
f 197/4/5 184/4/5 196/4/5
f 198/4/5 170/4/5 185/4/5
f 198/3/5 185/3/5 197/3/5
f 199/2/5 186/2/5 171/2/5
f 200/3/5 187/3/5 186/3/5
f 200/2/5 186/2/5 199/2/5
f 201/3/5 187/3/5 200/3/5
f 202/2/5 188/2/5 187/2/5
f 202/3/5 187/3/5 201/3/5
f 203/1/5 190/1/5 189/1/5
f 203/2/5 188/2/5 202/2/5
f 203/1/5 189/1/5 188/1/5
f 204/1/5 190/1/5 203/1/5
f 205/2/5 191/2/5 190/2/5
f 205/1/5 190/1/5 204/1/5
f 206/1/5 192/1/5 191/1/5
f 206/3/5 193/3/5 192/3/5
f 207/1/5 194/1/5 193/1/5
f 207/3/5 193/3/5 206/3/5
f 208/4/5 195/4/5 194/4/5
f 208/1/5 194/1/5 207/1/5
f 209/3/5 196/3/5 195/3/5
f 209/4/5 195/4/5 208/4/5
f 210/2/5 197/2/5 196/2/5
f 210/3/5 196/3/5 209/3/5
f 210/2/5 198/2/5 197/2/5
f 211/4/5 170/4/5 198/4/5
f 211/2/5 198/2/5 210/2/5
f 212/4/5 170/4/5 211/4/5
f 213/4/5 201/4/5 200/4/5
f 213/4/5 200/4/5 199/4/5
f 214/4/5 201/4/5 213/4/5
f 215/5/5 202/5/5 201/5/5
f 215/4/5 201/4/5 214/4/5
f 216/3/5 203/3/5 202/3/5
f 216/5/5 202/5/5 215/5/5
f 217/5/5 204/5/5 203/5/5
f 217/3/5 203/3/5 216/3/5
f 218/4/5 205/4/5 204/4/5
f 218/5/5 204/5/5 217/5/5
f 219/2/5 191/2/5 205/2/5
f 219/4/5 205/4/5 218/4/5
f 220/1/5 206/1/5 191/1/5
f 220/2/5 191/2/5 219/2/5
f 221/2/5 207/2/5 206/2/5
f 221/1/5 206/1/5 220/1/5
f 222/3/5 208/3/5 207/3/5
f 222/2/5 207/2/5 221/2/5
f 223/4/5 209/4/5 208/4/5
f 223/3/5 208/3/5 222/3/5
f 224/5/5 210/5/5 209/5/5
f 224/4/5 209/4/5 223/4/5
f 225/3/5 211/3/5 210/3/5
f 225/5/5 210/5/5 224/5/5
f 226/3/5 211/3/5 225/3/5
f 227/1/5 212/1/5 211/1/5
f 227/3/5 211/3/5 226/3/5
f 228/1/5 212/1/5 227/1/5
f 229/1/5 214/1/5 213/1/5
f 229/4/5 216/4/5 215/4/5
f 229/4/5 215/4/5 214/4/5
f 230/4/5 216/4/5 229/4/5
f 231/5/5 217/5/5 216/5/5
f 231/4/5 216/4/5 230/4/5
f 232/2/5 218/2/5 217/2/5
f 232/5/5 217/5/5 231/5/5
f 233/4/5 219/4/5 218/4/5
f 233/2/5 218/2/5 232/2/5
f 234/5/5 220/5/5 219/5/5
f 234/4/5 219/4/5 233/4/5
f 235/4/5 221/4/5 220/4/5
f 235/5/5 220/5/5 234/5/5
f 236/3/5 222/3/5 221/3/5
f 236/4/5 221/4/5 235/4/5
f 237/2/5 223/2/5 222/2/5
f 237/3/5 222/3/5 236/3/5
f 237/2/5 224/2/5 223/2/5
f 238/1/5 225/1/5 224/1/5
f 238/2/5 224/2/5 237/2/5
f 239/4/5 226/4/5 225/4/5
f 239/1/5 225/1/5 238/1/5
f 240/1/5 227/1/5 226/1/5
f 240/4/5 226/4/5 239/4/5
f 241/3/5 228/3/5 227/3/5
f 241/1/5 227/1/5 240/1/5
f 242/4/5 231/4/5 230/4/5
f 242/1/5 230/1/5 229/1/5
f 243/3/5 232/3/5 231/3/5
f 243/4/5 231/4/5 242/4/5
f 243/3/5 233/3/5 232/3/5
f 244/3/5 233/3/5 243/3/5
f 245/2/5 234/2/5 233/2/5
f 245/3/5 233/3/5 244/3/5
f 246/1/5 235/1/5 234/1/5
f 246/2/5 234/2/5 245/2/5
f 247/5/5 236/5/5 235/5/5
f 247/1/5 235/1/5 246/1/5
f 248/2/5 237/2/5 236/2/5
f 248/5/5 236/5/5 247/5/5
f 249/1/5 238/1/5 237/1/5
f 249/2/5 237/2/5 248/2/5
f 250/1/5 238/1/5 249/1/5
f 251/3/5 239/3/5 238/3/5
f 251/1/5 238/1/5 250/1/5
f 252/5/5 240/5/5 239/5/5
f 252/3/5 239/3/5 251/3/5
f 253/3/5 241/3/5 240/3/5
f 253/5/5 240/5/5 252/5/5
f 254/3/5 228/3/5 241/3/5
f 254/3/5 241/3/5 253/3/5
f 255/1/5 242/1/5 229/1/5
f 255/1/5 229/1/5 213/1/5
f 256/5/5 243/5/5 242/5/5
f 256/1/5 242/1/5 255/1/5
f 257/3/5 244/3/5 243/3/5
f 257/5/5 243/5/5 256/5/5
f 258/5/5 245/5/5 244/5/5
f 258/3/5 246/3/5 245/3/5
f 258/3/5 247/3/5 246/3/5
f 259/3/5 247/3/5 258/3/5
f 260/4/5 248/4/5 247/4/5
f 260/3/5 247/3/5 259/3/5
f 261/2/5 249/2/5 248/2/5
f 261/4/5 248/4/5 260/4/5
f 261/2/5 250/2/5 249/2/5
f 262/2/5 250/2/5 261/2/5
f 263/4/5 251/4/5 250/4/5
f 263/2/5 250/2/5 262/2/5
f 264/2/5 252/2/5 251/2/5
f 264/4/5 251/4/5 263/4/5
f 265/3/5 253/3/5 252/3/5
f 265/2/5 252/2/5 264/2/5
f 266/4/5 254/4/5 253/4/5
f 266/3/5 253/3/5 265/3/5
f 267/4/5 254/4/5 266/4/5
f 268/4/5 254/4/5 267/4/5
f 269/2/5 256/2/5 255/2/5
f 270/2/5 256/2/5 269/2/5
f 271/3/5 244/3/5 257/3/5
f 271/3/5 257/3/5 256/3/5
f 272/5/5 259/5/5 258/5/5
f 272/3/5 244/3/5 271/3/5
f 272/5/5 258/5/5 244/5/5
f 273/5/5 259/5/5 272/5/5
f 274/4/5 260/4/5 259/4/5
f 274/5/5 259/5/5 273/5/5
f 275/2/5 262/2/5 261/2/5
f 275/4/5 260/4/5 274/4/5
f 275/2/5 261/2/5 260/2/5
f 276/2/5 262/2/5 275/2/5
f 277/3/5 263/3/5 262/3/5
f 277/2/5 262/2/5 276/2/5
f 278/4/5 264/4/5 263/4/5
f 278/3/5 263/3/5 277/3/5
f 279/1/5 265/1/5 264/1/5
f 279/4/5 264/4/5 278/4/5
f 280/2/5 266/2/5 265/2/5
f 280/1/5 265/1/5 279/1/5
f 280/2/5 267/2/5 266/2/5
f 281/2/5 267/2/5 280/2/5
f 282/5/5 268/5/5 267/5/5
f 282/2/5 267/2/5 281/2/5
f 283/5/5 268/5/5 282/5/5
f 284/5/5 270/5/5 269/5/5
f 285/2/5 256/2/5 270/2/5
f 285/5/5 270/5/5 284/5/5
f 286/3/5 271/3/5 256/3/5
f 286/2/5 256/2/5 285/2/5
f 287/2/5 272/2/5 271/2/5
f 287/3/5 271/3/5 286/3/5
f 288/5/5 273/5/5 272/5/5
f 288/2/5 272/2/5 287/2/5
f 289/3/5 274/3/5 273/3/5
f 289/5/5 273/5/5 288/5/5
f 290/5/5 275/5/5 274/5/5
f 290/3/5 274/3/5 289/3/5
f 291/1/5 276/1/5 275/1/5
f 291/5/5 275/5/5 290/5/5
f 292/5/5 277/5/5 276/5/5
f 292/1/5 276/1/5 291/1/5
f 292/5/5 278/5/5 277/5/5
f 293/4/5 279/4/5 278/4/5
f 293/5/5 278/5/5 292/5/5
f 294/2/5 280/2/5 279/2/5
f 294/4/5 279/4/5 293/4/5
f 295/4/5 281/4/5 280/4/5
f 295/2/5 280/2/5 294/2/5
f 296/1/5 283/1/5 282/1/5
f 296/4/5 281/4/5 295/4/5
f 296/1/5 282/1/5 281/1/5
f 297/1/5 283/1/5 296/1/5
f 298/1/5 283/1/5 297/1/5
f 299/2/5 285/2/5 284/2/5
f 300/5/5 286/5/5 285/5/5
f 300/2/5 285/2/5 299/2/5
f 301/3/5 287/3/5 286/3/5
f 301/5/5 286/5/5 300/5/5
f 302/5/5 288/5/5 287/5/5
f 302/3/5 287/3/5 301/3/5
f 303/2/5 290/2/5 289/2/5
f 303/5/5 288/5/5 302/5/5
f 303/2/5 289/2/5 288/2/5
f 304/2/5 290/2/5 303/2/5
f 305/1/5 291/1/5 290/1/5
f 305/2/5 290/2/5 304/2/5
f 305/1/5 292/1/5 291/1/5
f 306/1/5 292/1/5 305/1/5
f 307/3/5 293/3/5 292/3/5
f 307/1/5 292/1/5 306/1/5
f 308/3/5 293/3/5 307/3/5
f 309/1/5 294/1/5 293/1/5
f 309/3/5 293/3/5 308/3/5
f 310/2/5 295/2/5 294/2/5
f 310/1/5 294/1/5 309/1/5
f 310/2/5 296/2/5 295/2/5
f 310/2/5 297/2/5 296/2/5
f 311/2/5 297/2/5 310/2/5
f 312/2/5 297/2/5 311/2/5
f 313/5/5 298/5/5 297/5/5
f 313/2/5 297/2/5 312/2/5
f 314/5/5 298/5/5 313/5/5
f 315/4/5 300/4/5 299/4/5
f 316/5/5 302/5/5 301/5/5
f 316/4/5 300/4/5 315/4/5
f 316/5/5 301/5/5 300/5/5
f 317/5/5 302/5/5 316/5/5
f 318/1/5 303/1/5 302/1/5
f 318/5/5 302/5/5 317/5/5
f 319/3/5 304/3/5 303/3/5
f 319/1/5 303/1/5 318/1/5
f 320/4/5 305/4/5 304/4/5
f 320/3/5 304/3/5 319/3/5
f 321/2/5 306/2/5 305/2/5
f 321/4/5 305/4/5 320/4/5
f 322/3/5 307/3/5 306/3/5
f 322/2/5 306/2/5 321/2/5
f 323/2/5 308/2/5 307/2/5
f 323/3/5 307/3/5 322/3/5
f 324/4/5 309/4/5 308/4/5
f 324/2/5 308/2/5 323/2/5
f 325/3/5 310/3/5 309/3/5
f 325/4/5 309/4/5 324/4/5
f 326/2/5 311/2/5 310/2/5
f 326/3/5 310/3/5 325/3/5
f 327/3/5 312/3/5 311/3/5
f 327/2/5 311/2/5 326/2/5
f 328/1/5 314/1/5 313/1/5
f 328/3/5 312/3/5 327/3/5
f 328/1/5 313/1/5 312/1/5
f 329/1/5 314/1/5 328/1/5
f 330/3/5 316/3/5 315/3/5
f 331/1/5 317/1/5 316/1/5
f 331/3/5 316/3/5 330/3/5
f 332/4/5 318/4/5 317/4/5
f 332/1/5 317/1/5 331/1/5
f 333/1/5 319/1/5 318/1/5
f 333/4/5 318/4/5 332/4/5
f 334/5/5 320/5/5 319/5/5
f 334/1/5 319/1/5 333/1/5
f 335/4/5 321/4/5 320/4/5
f 335/5/5 320/5/5 334/5/5
f 336/1/5 322/1/5 321/1/5
f 336/4/5 321/4/5 335/4/5
f 337/3/5 323/3/5 322/3/5
f 337/1/5 322/1/5 336/1/5
f 338/5/5 324/5/5 323/5/5
f 338/3/5 323/3/5 337/3/5
f 339/1/5 325/1/5 324/1/5
f 339/5/5 324/5/5 338/5/5
f 340/4/5 326/4/5 325/4/5
f 340/1/5 325/1/5 339/1/5
f 341/2/5 327/2/5 326/2/5
f 341/4/5 326/4/5 340/4/5
f 342/1/5 328/1/5 327/1/5
f 342/2/5 327/2/5 341/2/5
f 343/5/5 329/5/5 328/5/5
f 343/1/5 328/1/5 342/1/5
f 344/1/5 314/1/5 329/1/5
f 344/5/5 329/5/5 343/5/5
f 345/1/5 314/1/5 344/1/5
f 346/4/6 347/4/6 360/4/6
f 360/4/6 347/4/6 361/4/6
f 347/3/6 348/3/6 362/3/6
f 361/4/6 347/4/6 362/4/6
f 348/4/6 349/4/6 363/4/6
f 362/3/6 348/3/6 363/3/6
f 349/1/6 350/1/6 364/1/6
f 363/4/6 349/4/6 364/4/6
f 350/3/6 351/3/6 365/3/6
f 364/1/6 350/1/6 365/1/6
f 351/4/6 352/4/6 366/4/6
f 365/3/6 351/3/6 366/3/6
f 352/1/6 353/1/6 367/1/6
f 366/4/6 352/4/6 367/4/6
f 353/4/6 354/4/6 368/4/6
f 367/1/6 353/1/6 368/1/6
f 354/1/6 355/1/6 369/1/6
f 368/4/6 354/4/6 369/4/6
f 369/1/6 355/1/6 370/1/6
f 355/5/6 356/5/6 371/5/6
f 370/1/6 355/1/6 371/1/6
f 356/4/6 357/4/6 372/4/6
f 371/5/6 356/5/6 372/5/6
f 357/1/6 358/1/6 373/1/6
f 372/4/6 357/4/6 373/4/6
f 358/2/6 359/2/6 374/2/6
f 373/1/6 358/1/6 374/1/6
f 374/2/6 359/2/6 375/2/6
f 360/2/6 361/2/6 376/2/6
f 361/3/6 362/3/6 377/3/6
f 376/2/6 361/2/6 377/2/6
f 362/4/6 363/4/6 378/4/6
f 377/3/6 362/3/6 378/3/6
f 363/3/6 364/3/6 379/3/6
f 378/4/6 363/4/6 379/4/6
f 364/1/6 365/1/6 380/1/6
f 379/3/6 364/3/6 380/3/6
f 365/1/6 366/1/6 380/1/6
f 380/1/6 366/1/6 381/1/6
f 366/2/6 367/2/6 382/2/6
f 381/1/6 366/1/6 382/1/6
f 367/2/6 368/2/6 382/2/6
f 369/3/6 370/3/6 383/3/6
f 382/2/6 368/2/6 383/2/6
f 368/3/6 369/3/6 383/3/6
f 383/3/6 370/3/6 384/3/6
f 370/1/6 371/1/6 385/1/6
f 384/3/6 370/3/6 385/3/6
f 371/2/6 372/2/6 386/2/6
f 385/1/6 371/1/6 386/1/6
f 372/4/6 373/4/6 387/4/6
f 386/2/6 372/2/6 387/2/6
f 373/2/6 374/2/6 388/2/6
f 387/4/6 373/4/6 388/4/6
f 374/1/6 375/1/6 389/1/6
f 388/2/6 374/2/6 389/2/6
f 389/1/6 375/1/6 390/1/6
f 376/1/6 377/1/6 391/1/6
f 377/5/6 378/5/6 392/5/6
f 391/1/6 377/1/6 392/1/6
f 378/1/6 379/1/6 393/1/6
f 379/1/6 380/1/6 393/1/6
f 380/3/6 381/3/6 394/3/6
f 393/1/6 380/1/6 394/1/6
f 381/2/6 382/2/6 395/2/6
f 394/3/6 381/3/6 395/3/6
f 382/4/6 383/4/6 396/4/6
f 395/2/6 382/2/6 396/2/6
f 396/4/6 383/4/6 397/4/6
f 383/5/6 384/5/6 398/5/6
f 397/4/6 383/4/6 398/4/6
f 385/2/6 386/2/6 399/2/6
f 398/5/6 384/5/6 399/5/6
f 384/2/6 385/2/6 399/2/6
f 399/2/6 386/2/6 400/2/6
f 386/5/6 387/5/6 401/5/6
f 400/2/6 386/2/6 401/2/6
f 387/1/6 388/1/6 402/1/6
f 401/5/6 387/5/6 402/5/6
f 388/4/6 389/4/6 403/4/6
f 402/1/6 388/1/6 403/1/6
f 389/3/6 390/3/6 404/3/6
f 403/4/6 389/4/6 404/4/6
f 404/3/6 390/3/6 405/3/6
f 391/5/6 392/5/6 406/5/6
f 392/5/6 378/5/6 407/5/6
f 406/5/6 392/5/6 407/5/6
f 378/1/6 393/1/6 408/1/6
f 407/5/6 378/5/6 408/5/6
f 393/2/6 394/2/6 409/2/6
f 408/1/6 393/1/6 409/1/6
f 394/4/6 395/4/6 410/4/6
f 409/2/6 394/2/6 410/2/6
f 395/3/6 396/3/6 411/3/6
f 410/4/6 395/4/6 411/4/6
f 396/2/6 397/2/6 412/2/6
f 411/3/6 396/3/6 412/3/6
f 397/1/6 398/1/6 413/1/6
f 412/2/6 397/2/6 413/2/6
f 398/4/6 399/4/6 414/4/6
f 413/1/6 398/1/6 414/1/6
f 399/3/6 400/3/6 415/3/6
f 414/4/6 399/4/6 415/4/6
f 400/1/6 401/1/6 416/1/6
f 415/3/6 400/3/6 416/3/6
f 401/1/6 402/1/6 416/1/6
f 416/1/6 402/1/6 417/1/6
f 402/2/6 403/2/6 418/2/6
f 417/1/6 402/1/6 418/1/6
f 403/2/6 404/2/6 418/2/6
f 418/2/6 404/2/6 419/2/6
f 404/4/6 405/4/6 420/4/6
f 419/2/6 404/2/6 420/2/6
f 406/2/6 407/2/6 421/2/6
f 407/5/6 408/5/6 421/5/6
f 409/5/6 410/5/6 421/5/6
f 408/5/6 409/5/6 421/5/6
f 421/5/6 410/5/6 422/5/6
f 410/2/6 411/2/6 423/2/6
f 422/5/6 410/5/6 423/5/6
f 411/3/6 412/3/6 424/3/6
f 423/2/6 411/2/6 424/2/6
f 412/3/6 413/3/6 424/3/6
f 424/3/6 413/3/6 425/3/6
f 414/4/6 415/4/6 426/4/6
f 425/3/6 413/3/6 426/3/6
f 413/4/6 414/4/6 426/4/6
f 426/4/6 415/4/6 427/4/6
f 415/2/6 416/2/6 428/2/6
f 427/4/6 415/4/6 428/4/6
f 416/2/6 417/2/6 428/2/6
f 428/2/6 417/2/6 429/2/6
f 417/4/6 418/4/6 430/4/6
f 429/2/6 417/2/6 430/2/6
f 418/4/6 419/4/6 430/4/6
f 430/4/6 419/4/6 431/4/6
f 419/3/6 420/3/6 432/3/6
f 431/4/6 419/4/6 432/4/6
f 420/4/6 405/4/6 433/4/6
f 432/3/6 420/3/6 433/3/6
f 406/2/6 421/2/6 434/2/6
f 421/3/6 422/3/6 435/3/6
f 434/2/6 421/2/6 435/2/6
f 435/3/6 422/3/6 436/3/6
f 422/2/6 423/2/6 437/2/6
f 436/3/6 422/3/6 437/3/6
f 424/1/6 425/1/6 438/1/6
f 437/2/6 423/2/6 438/2/6
f 423/1/6 424/1/6 438/1/6
f 438/1/6 425/1/6 439/1/6
f 425/2/6 426/2/6 440/2/6
f 439/1/6 425/1/6 440/1/6
f 426/1/6 427/1/6 441/1/6
f 427/3/6 428/3/6 441/3/6
f 428/1/6 429/1/6 442/1/6
f 441/3/6 428/3/6 442/3/6
f 429/4/6 430/4/6 443/4/6
f 442/1/6 429/1/6 443/1/6
f 430/3/6 431/3/6 444/3/6
f 443/4/6 430/4/6 444/4/6
f 431/2/6 432/2/6 445/2/6
f 444/3/6 431/3/6 445/3/6
f 432/2/6 433/2/6 445/2/6
f 433/4/6 405/4/6 446/4/6
f 445/2/6 433/2/6 446/2/6
f 446/4/6 405/4/6 447/4/6
f 435/4/6 436/4/6 448/4/6
f 434/4/6 435/4/6 448/4/6
f 448/4/6 436/4/6 449/4/6
f 436/5/6 437/5/6 450/5/6
f 449/4/6 436/4/6 450/4/6
f 437/3/6 438/3/6 451/3/6
f 450/5/6 437/5/6 451/5/6
f 438/5/6 439/5/6 452/5/6
f 451/3/6 438/3/6 452/3/6
f 439/4/6 440/4/6 453/4/6
f 452/5/6 439/5/6 453/5/6
f 440/2/6 426/2/6 454/2/6
f 453/4/6 440/4/6 454/4/6
f 426/1/6 441/1/6 455/1/6
f 454/2/6 426/2/6 455/2/6
f 441/2/6 442/2/6 456/2/6
f 455/1/6 441/1/6 456/1/6
f 442/3/6 443/3/6 457/3/6
f 456/2/6 442/2/6 457/2/6
f 443/4/6 444/4/6 458/4/6
f 457/3/6 443/3/6 458/3/6
f 444/5/6 445/5/6 459/5/6
f 458/4/6 444/4/6 459/4/6
f 445/3/6 446/3/6 460/3/6
f 459/5/6 445/5/6 460/5/6
f 460/3/6 446/3/6 461/3/6
f 446/1/6 447/1/6 462/1/6
f 461/3/6 446/3/6 462/3/6
f 462/1/6 447/1/6 463/1/6
f 448/1/6 449/1/6 464/1/6
f 450/4/6 451/4/6 464/4/6
f 449/4/6 450/4/6 464/4/6
f 464/4/6 451/4/6 465/4/6
f 451/5/6 452/5/6 466/5/6
f 465/4/6 451/4/6 466/4/6
f 452/2/6 453/2/6 467/2/6
f 466/5/6 452/5/6 467/5/6
f 453/4/6 454/4/6 468/4/6
f 467/2/6 453/2/6 468/2/6
f 454/5/6 455/5/6 469/5/6
f 468/4/6 454/4/6 469/4/6
f 455/4/6 456/4/6 470/4/6
f 469/5/6 455/5/6 470/5/6
f 456/3/6 457/3/6 471/3/6
f 470/4/6 456/4/6 471/4/6
f 457/2/6 458/2/6 472/2/6
f 471/3/6 457/3/6 472/3/6
f 458/2/6 459/2/6 472/2/6
f 459/1/6 460/1/6 473/1/6
f 472/2/6 459/2/6 473/2/6
f 460/4/6 461/4/6 474/4/6
f 473/1/6 460/1/6 474/1/6
f 461/1/6 462/1/6 475/1/6
f 474/4/6 461/4/6 475/4/6
f 462/3/6 463/3/6 476/3/6
f 475/1/6 462/1/6 476/1/6
f 465/4/6 466/4/6 477/4/6
f 464/1/6 465/1/6 477/1/6
f 466/3/6 467/3/6 478/3/6
f 477/4/6 466/4/6 478/4/6
f 467/3/6 468/3/6 478/3/6
f 478/3/6 468/3/6 479/3/6
f 468/2/6 469/2/6 480/2/6
f 479/3/6 468/3/6 480/3/6
f 469/1/6 470/1/6 481/1/6
f 480/2/6 469/2/6 481/2/6
f 470/5/6 471/5/6 482/5/6
f 481/1/6 470/1/6 482/1/6
f 471/2/6 472/2/6 483/2/6
f 482/5/6 471/5/6 483/5/6
f 472/1/6 473/1/6 484/1/6
f 483/2/6 472/2/6 484/2/6
f 484/1/6 473/1/6 485/1/6
f 473/3/6 474/3/6 486/3/6
f 485/1/6 473/1/6 486/1/6
f 474/5/6 475/5/6 487/5/6
f 486/3/6 474/3/6 487/3/6
f 475/3/6 476/3/6 488/3/6
f 487/5/6 475/5/6 488/5/6
f 476/3/6 463/3/6 489/3/6
f 488/3/6 476/3/6 489/3/6
f 464/1/6 477/1/6 490/1/6
f 448/1/6 464/1/6 490/1/6
f 477/5/6 478/5/6 491/5/6
f 490/1/6 477/1/6 491/1/6
f 478/3/6 479/3/6 492/3/6
f 491/5/6 478/5/6 492/5/6
f 479/5/6 480/5/6 493/5/6
f 480/3/6 481/3/6 493/3/6
f 481/3/6 482/3/6 493/3/6
f 493/3/6 482/3/6 494/3/6
f 482/4/6 483/4/6 495/4/6
f 494/3/6 482/3/6 495/3/6
f 483/2/6 484/2/6 496/2/6
f 495/4/6 483/4/6 496/4/6
f 484/2/6 485/2/6 496/2/6
f 496/2/6 485/2/6 497/2/6
f 485/4/6 486/4/6 498/4/6
f 497/2/6 485/2/6 498/2/6
f 486/2/6 487/2/6 499/2/6
f 498/4/6 486/4/6 499/4/6
f 487/3/6 488/3/6 500/3/6
f 499/2/6 487/2/6 500/2/6
f 488/4/6 489/4/6 501/4/6
f 500/3/6 488/3/6 501/3/6
f 501/4/6 489/4/6 502/4/6
f 502/4/6 489/4/6 503/4/6
f 490/2/6 491/2/6 504/2/6
f 504/2/6 491/2/6 505/2/6
f 492/3/6 479/3/6 506/3/6
f 491/3/6 492/3/6 506/3/6
f 493/5/6 494/5/6 507/5/6
f 506/3/6 479/3/6 507/3/6
f 479/5/6 493/5/6 507/5/6
f 507/5/6 494/5/6 508/5/6
f 494/4/6 495/4/6 509/4/6
f 508/5/6 494/5/6 509/5/6
f 496/2/6 497/2/6 510/2/6
f 509/4/6 495/4/6 510/4/6
f 495/2/6 496/2/6 510/2/6
f 510/2/6 497/2/6 511/2/6
f 497/3/6 498/3/6 512/3/6
f 511/2/6 497/2/6 512/2/6
f 498/4/6 499/4/6 513/4/6
f 512/3/6 498/3/6 513/3/6
f 499/1/6 500/1/6 514/1/6
f 513/4/6 499/4/6 514/4/6
f 500/2/6 501/2/6 515/2/6
f 514/1/6 500/1/6 515/1/6
f 501/2/6 502/2/6 515/2/6
f 515/2/6 502/2/6 516/2/6
f 502/5/6 503/5/6 517/5/6
f 516/2/6 502/2/6 517/2/6
f 517/5/6 503/5/6 518/5/6
f 504/5/6 505/5/6 519/5/6
f 505/2/6 491/2/6 520/2/6
f 519/5/6 505/5/6 520/5/6
f 491/3/6 506/3/6 521/3/6
f 520/2/6 491/2/6 521/2/6
f 506/2/6 507/2/6 522/2/6
f 521/3/6 506/3/6 522/3/6
f 507/5/6 508/5/6 523/5/6
f 522/2/6 507/2/6 523/2/6
f 508/3/6 509/3/6 524/3/6
f 523/5/6 508/5/6 524/5/6
f 509/5/6 510/5/6 525/5/6
f 524/3/6 509/3/6 525/3/6
f 510/1/6 511/1/6 526/1/6
f 525/5/6 510/5/6 526/5/6
f 511/5/6 512/5/6 527/5/6
f 526/1/6 511/1/6 527/1/6
f 512/5/6 513/5/6 527/5/6
f 513/4/6 514/4/6 528/4/6
f 527/5/6 513/5/6 528/5/6
f 514/2/6 515/2/6 529/2/6
f 528/4/6 514/4/6 529/4/6
f 515/4/6 516/4/6 530/4/6
f 529/2/6 515/2/6 530/2/6
f 517/1/6 518/1/6 531/1/6
f 530/4/6 516/4/6 531/4/6
f 516/1/6 517/1/6 531/1/6
f 531/1/6 518/1/6 532/1/6
f 532/1/6 518/1/6 533/1/6
f 519/2/6 520/2/6 534/2/6
f 520/5/6 521/5/6 535/5/6
f 534/2/6 520/2/6 535/2/6
f 521/3/6 522/3/6 536/3/6
f 535/5/6 521/5/6 536/5/6
f 522/5/6 523/5/6 537/5/6
f 536/3/6 522/3/6 537/3/6
f 524/2/6 525/2/6 538/2/6
f 537/5/6 523/5/6 538/5/6
f 523/2/6 524/2/6 538/2/6
f 538/2/6 525/2/6 539/2/6
f 525/1/6 526/1/6 540/1/6
f 539/2/6 525/2/6 540/2/6
f 526/1/6 527/1/6 540/1/6
f 540/1/6 527/1/6 541/1/6
f 527/3/6 528/3/6 542/3/6
f 541/1/6 527/1/6 542/1/6
f 542/3/6 528/3/6 543/3/6
f 528/1/6 529/1/6 544/1/6
f 543/3/6 528/3/6 544/3/6
f 529/2/6 530/2/6 545/2/6
f 544/1/6 529/1/6 545/1/6
f 530/2/6 531/2/6 545/2/6
f 531/2/6 532/2/6 545/2/6
f 545/2/6 532/2/6 546/2/6
f 546/2/6 532/2/6 547/2/6
f 532/5/6 533/5/6 548/5/6
f 547/2/6 532/2/6 548/2/6
f 548/5/6 533/5/6 549/5/6
f 534/4/6 535/4/6 550/4/6
f 536/5/6 537/5/6 551/5/6
f 550/4/6 535/4/6 551/4/6
f 535/5/6 536/5/6 551/5/6
f 551/5/6 537/5/6 552/5/6
f 537/1/6 538/1/6 553/1/6
f 552/5/6 537/5/6 553/5/6
f 538/3/6 539/3/6 554/3/6
f 553/1/6 538/1/6 554/1/6
f 539/4/6 540/4/6 555/4/6
f 554/3/6 539/3/6 555/3/6
f 540/2/6 541/2/6 556/2/6
f 555/4/6 540/4/6 556/4/6
f 541/3/6 542/3/6 557/3/6
f 556/2/6 541/2/6 557/2/6
f 542/2/6 543/2/6 558/2/6
f 557/3/6 542/3/6 558/3/6
f 543/4/6 544/4/6 559/4/6
f 558/2/6 543/2/6 559/2/6
f 544/3/6 545/3/6 560/3/6
f 559/4/6 544/4/6 560/4/6
f 545/2/6 546/2/6 561/2/6
f 560/3/6 545/3/6 561/3/6
f 546/3/6 547/3/6 562/3/6
f 561/2/6 546/2/6 562/2/6
f 548/1/6 549/1/6 563/1/6
f 562/3/6 547/3/6 563/3/6
f 547/1/6 548/1/6 563/1/6
f 563/1/6 549/1/6 564/1/6
f 550/3/6 551/3/6 565/3/6
f 551/1/6 552/1/6 566/1/6
f 565/3/6 551/3/6 566/3/6
f 552/4/6 553/4/6 567/4/6
f 566/1/6 552/1/6 567/1/6
f 553/1/6 554/1/6 568/1/6
f 567/4/6 553/4/6 568/4/6
f 554/5/6 555/5/6 569/5/6
f 568/1/6 554/1/6 569/1/6
f 555/4/6 556/4/6 570/4/6
f 569/5/6 555/5/6 570/5/6
f 556/1/6 557/1/6 571/1/6
f 570/4/6 556/4/6 571/4/6
f 557/3/6 558/3/6 572/3/6
f 571/1/6 557/1/6 572/1/6
f 558/5/6 559/5/6 573/5/6
f 572/3/6 558/3/6 573/3/6
f 559/1/6 560/1/6 574/1/6
f 573/5/6 559/5/6 574/5/6
f 560/4/6 561/4/6 575/4/6
f 574/1/6 560/1/6 575/1/6
f 561/2/6 562/2/6 576/2/6
f 575/4/6 561/4/6 576/4/6
f 562/1/6 563/1/6 577/1/6
f 576/2/6 562/2/6 577/2/6
f 563/5/6 564/5/6 578/5/6
f 577/1/6 563/1/6 578/1/6
f 564/1/6 549/1/6 579/1/6
f 578/5/6 564/5/6 579/5/6
f 579/1/6 549/1/6 580/1/6
