# MagicaVoxel @ Ephtracy

# group
o 

# material
mtllib _chr_zombie1.mtl
usemtl palette

# normals
vn -1 0 0
vn 1 0 0
vn 0 0 1
vn 0 0 -1
vn 0 -1 0
vn 0 1 0

# texcoords
vt 0.00585938 0.5
vt 0.0332031 0.5
vt 0.197266 0.5
vt 0.341797 0.5
vt 0.396484 0.5
vt 0.857422 0.5
vt 0.990234 0.5
vt 0.994141 0.5

# verts
v -0.4 0.5 0.3
v -0.4 0.5 0.2
v -0.4 0.5 -0.1
v -0.4 0.6 0.3
v -0.4 0.6 0.2
v -0.4 0.6 -0.1
v -0.4 0.7 -2.98023e-008
v -0.4 0.7 -0.1
v -0.4 0.7 -0.2
v -0.4 0.8 0.1
v -0.4 0.8 -2.98023e-008
v -0.4 0.8 -0.1
v -0.4 1 0.1
v -0.4 1 -0.2
v -0.3 0.1 0.1
v -0.3 0.1 -0.2
v -0.3 0.2 0.2
v -0.3 0.2 0.1
v -0.3 0.2 -0.2
v -0.3 0.2 -0.3
v -0.3 0.3 0.2
v -0.3 0.3 -0.3
v -0.3 0.5 0.2
v -0.3 0.5 -0.1
v -0.3 0.6 0.1
v -0.3 0.6 -0.1
v -0.3 0.6 -0.2
v -0.3 0.6 -0.3
v -0.3 0.7 -2.98023e-008
v -0.3 0.7 -0.1
v -0.3 0.7 -0.2
v -0.3 0.8 0.1
v -0.3 0.8 -2.98023e-008
v -0.3 0.9 0.2
v -0.3 0.9 0.1
v -0.3 1 0.2
v -0.3 1 0.1
v -0.3 1 -0.2
v -0.3 1 -0.3
v -0.3 1.1 0.1
v -0.3 1.1 -0.2
v -0.2 0 -2.98023e-008
v -0.2 0 -0.1
v -0.2 0.1 -2.98023e-008
v -0.2 0.1 -0.1
v -0.2 0.6 -0.3
v -0.2 0.6 -0.4
v -0.2 1 -0.2
v -0.2 1 -0.3
v -0.2 1 -0.4
v -0.2 1.1 -0.2
v -0.2 1.1 -0.3
v 0.1 0 -2.98023e-008
v 0.1 0 -0.1
v 0.1 0.1 0.1
v 0.1 0.1 -2.98023e-008
v 0.1 0.1 -0.1
v 0.1 0.1 -0.2
v 0.1 0.2 0.1
v 0.1 0.2 -0.2
v 0.2 0.9 0.2
v 0.2 0.9 0.1
v 0.2 1 0.2
v 0.2 1 0.1
v 0.3 0.8 0.2
v 0.3 0.8 0.1
v 0.3 0.9 0.2
v 0.3 0.9 0.1
v -0.3 0.5 0.3
v -0.3 0.5 0.2
v -0.3 0.6 0.3
v -0.3 0.6 0.2
v -0.1 0 -2.98023e-008
v -0.1 0 -0.1
v -0.1 0.1 0.1
v -0.1 0.1 -2.98023e-008
v -0.1 0.1 -0.1
v -0.1 0.1 -0.2
v -0.1 0.2 0.1
v -0.1 0.2 -0.2
v 0 0.9 0.2
v 0 0.9 0.1
v 0 1 0.2
v 0 1 0.1
v 0.2 0 -2.98023e-008
v 0.2 0 -0.1
v 0.2 0.1 -2.98023e-008
v 0.2 0.1 -0.1
v 0.2 0.6 0.1
v 0.2 0.6 -2.98023e-008
v 0.2 0.6 -0.3
v 0.2 0.6 -0.4
v 0.2 0.7 0.1
v 0.2 0.7 -2.98023e-008
v 0.2 1 -0.2
v 0.2 1 -0.3
v 0.2 1 -0.4
v 0.2 1.1 -0.2
v 0.2 1.1 -0.3
v 0.3 0.1 0.1
v 0.3 0.1 -2.98023e-008
v 0.3 0.1 -0.1
v 0.3 0.1 -0.2
v 0.3 0.2 0.2
v 0.3 0.2 0.1
v 0.3 0.2 -0.2
v 0.3 0.2 -0.3
v 0.3 0.3 0.2
v 0.3 0.3 -2.98023e-008
v 0.3 0.3 -0.1
v 0.3 0.3 -0.3
v 0.3 0.4 0.1
v 0.3 0.4 -2.98023e-008
v 0.3 0.4 -0.1
v 0.3 0.4 -0.3
v 0.3 0.5 0.2
v 0.3 0.5 0.1
v 0.3 0.5 -2.98023e-008
v 0.3 0.5 -0.1
v 0.3 0.6 0.2
v 0.3 0.6 -2.98023e-008
v 0.3 0.6 -0.1
v 0.3 0.6 -0.2
v 0.3 0.6 -0.3
v 0.3 0.7 0.1
v 0.3 0.7 -2.98023e-008
v 0.3 0.7 -0.1
v 0.3 0.7 -0.2
v 0.3 0.8 0.1
v 0.3 0.8 -2.98023e-008
v 0.3 1 0.1
v 0.3 1 -0.2
v 0.3 1 -0.3
v 0.3 1.1 0.1
v 0.3 1.1 -0.2
v 0.4 0.1 -2.98023e-008
v 0.4 0.1 -0.1
v 0.4 0.5 -2.98023e-008
v 0.4 0.5 -0.1
v 0.4 0.7 -2.98023e-008
v 0.4 0.7 -0.1
v 0.4 0.7 -0.2
v 0.4 0.8 0.2
v 0.4 0.8 -2.98023e-008
v 0.4 0.8 -0.1
v 0.4 1 0.2
v 0.4 1 -0.2
v -0.4 0.5 0.3
v -0.4 0.6 0.3
v -0.3 0.5 0.3
v -0.3 0.6 0.3
v -0.3 0.2 0.2
v -0.3 0.3 0.2
v -0.3 0.5 0.2
v -0.3 0.6 0.2
v -0.3 0.9 0.2
v -0.3 1 0.2
v -0.1 0.5 0.2
v -0.1 0.6 0.2
v 0 0.4 0.2
v 0 0.5 0.2
v 0 0.9 0.2
v 0 1 0.2
v 0.1 0.5 0.2
v 0.1 0.6 0.2
v 0.2 0.4 0.2
v 0.2 0.5 0.2
v 0.2 0.9 0.2
v 0.2 1 0.2
v 0.3 0.2 0.2
v 0.3 0.3 0.2
v 0.3 0.5 0.2
v 0.3 0.6 0.2
v 0.3 0.8 0.2
v 0.3 0.9 0.2
v 0.4 0.8 0.2
v 0.4 1 0.2
v -0.4 0.8 0.1
v -0.4 1 0.1
v -0.3 0.1 0.1
v -0.3 0.2 0.1
v -0.3 0.6 0.1
v -0.3 0.8 0.1
v -0.3 0.9 0.1
v -0.3 1 0.1
v -0.3 1.1 0.1
v -0.2 0.7 0.1
v -0.2 0.8 0.1
v -0.1 0.1 0.1
v -0.1 0.2 0.1
v -0.1 0.6 0.1
v -0.1 0.7 0.1
v -0.1 0.8 0.1
v 0 0.9 0.1
v 0 1 0.1
v 0.1 0.1 0.1
v 0.1 0.2 0.1
v 0.1 0.6 0.1
v 0.1 0.8 0.1
v 0.2 0.6 0.1
v 0.2 0.7 0.1
v 0.2 0.8 0.1
v 0.2 0.9 0.1
v 0.2 1 0.1
v 0.3 0.1 0.1
v 0.3 0.2 0.1
v 0.3 0.7 0.1
v 0.3 0.8 0.1
v 0.3 0.9 0.1
v 0.3 1 0.1
v 0.3 1.1 0.1
v -0.4 0.7 -2.98023e-008
v -0.4 0.8 -2.98023e-008
v -0.3 0.7 -2.98023e-008
v -0.3 0.8 -2.98023e-008
v -0.2 0 -2.98023e-008
v -0.2 0.1 -2.98023e-008
v -0.1 0 -2.98023e-008
v -0.1 0.1 -2.98023e-008
v 0.1 0 -2.98023e-008
v 0.1 0.1 -2.98023e-008
v 0.2 0 -2.98023e-008
v 0.2 0.1 -2.98023e-008
v 0.2 0.6 -2.98023e-008
v 0.2 0.7 -2.98023e-008
v 0.3 0.1 -2.98023e-008
v 0.3 0.3 -2.98023e-008
v 0.3 0.4 -2.98023e-008
v 0.3 0.5 -2.98023e-008
v 0.3 0.6 -2.98023e-008
v 0.3 0.7 -2.98023e-008
v 0.3 0.8 -2.98023e-008
v 0.4 0.1 -2.98023e-008
v 0.4 0.5 -2.98023e-008
v 0.4 0.7 -2.98023e-008
v 0.4 0.8 -2.98023e-008
v -0.4 0.5 -0.1
v -0.4 0.6 -0.1
v -0.3 0.5 -0.1
v -0.3 0.6 -0.1
v -0.2 0 -0.1
v -0.2 0.1 -0.1
v -0.1 0 -0.1
v -0.1 0.1 -0.1
v 0.1 0 -0.1
v 0.1 0.1 -0.1
v 0.2 0 -0.1
v 0.2 0.1 -0.1
v 0.3 0.1 -0.1
v 0.3 0.3 -0.1
v 0.3 0.4 -0.1
v 0.3 0.5 -0.1
v 0.4 0.1 -0.1
v 0.4 0.5 -0.1
v -0.4 0.7 -0.2
v -0.4 1 -0.2
v -0.3 0.1 -0.2
v -0.3 0.2 -0.2
v -0.3 0.7 -0.2
v -0.3 1 -0.2
v -0.3 1.1 -0.2
v -0.2 1 -0.2
v -0.2 1.1 -0.2
v -0.1 0.1 -0.2
v -0.1 0.2 -0.2
v 0.1 0.1 -0.2
v 0.1 0.2 -0.2
v 0.2 1 -0.2
v 0.2 1.1 -0.2
v 0.3 0.1 -0.2
v 0.3 0.2 -0.2
v 0.3 0.7 -0.2
v 0.3 1 -0.2
v 0.3 1.1 -0.2
v 0.4 0.7 -0.2
v 0.4 1 -0.2
v -0.3 0.2 -0.3
v -0.3 0.3 -0.3
v -0.3 0.6 -0.3
v -0.3 1 -0.3
v -0.2 0.6 -0.3
v -0.2 1 -0.3
v -0.2 1.1 -0.3
v 0.2 0.4 -0.3
v 0.2 0.6 -0.3
v 0.2 1 -0.3
v 0.2 1.1 -0.3
v 0.3 0.2 -0.3
v 0.3 0.3 -0.3
v 0.3 0.4 -0.3
v 0.3 0.6 -0.3
v 0.3 1 -0.3
v -0.2 0.6 -0.4
v -0.2 1 -0.4
v 0.2 0.6 -0.4
v 0.2 1 -0.4
v -0.2 0 -2.98023e-008
v -0.1 0 -2.98023e-008
v 0.1 0 -2.98023e-008
v 0.2 0 -2.98023e-008
v -0.2 0 -0.1
v -0.1 0 -0.1
v 0.1 0 -0.1
v 0.2 0 -0.1
v -0.3 0.1 0.1
v -0.1 0.1 0.1
v 0.1 0.1 0.1
v 0.3 0.1 0.1
v -0.2 0.1 -2.98023e-008
v -0.1 0.1 -2.98023e-008
v 0.1 0.1 -2.98023e-008
v 0.2 0.1 -2.98023e-008
v 0.3 0.1 -2.98023e-008
v 0.4 0.1 -2.98023e-008
v -0.2 0.1 -0.1
v -0.1 0.1 -0.1
v 0.1 0.1 -0.1
v 0.2 0.1 -0.1
v 0.3 0.1 -0.1
v 0.4 0.1 -0.1
v -0.3 0.1 -0.2
v -0.1 0.1 -0.2
v 0.1 0.1 -0.2
v 0.3 0.1 -0.2
v -0.3 0.2 0.2
v 0.3 0.2 0.2
v -0.3 0.2 0.1
v -0.1 0.2 0.1
v 0.1 0.2 0.1
v 0.3 0.2 0.1
v -0.3 0.2 -0.2
v -0.1 0.2 -0.2
v 0.1 0.2 -0.2
v 0.3 0.2 -0.2
v -0.3 0.2 -0.3
v 0.3 0.2 -0.3
v -0.4 0.5 0.3
v -0.3 0.5 0.3
v -0.4 0.5 0.2
v -0.3 0.5 0.2
v -0.4 0.5 -0.1
v -0.3 0.5 -0.1
v -0.2 0.6 -0.3
v 0.2 0.6 -0.3
v -0.2 0.6 -0.4
v 0.2 0.6 -0.4
v 0.2 0.7 0.1
v 0.3 0.7 0.1
v -0.4 0.7 -2.98023e-008
v -0.3 0.7 -2.98023e-008
v 0.2 0.7 -2.98023e-008
v 0.3 0.7 -2.98023e-008
v 0.4 0.7 -2.98023e-008
v -0.4 0.7 -0.1
v -0.3 0.7 -0.1
v 0.3 0.7 -0.1
v 0.4 0.7 -0.1
v -0.4 0.7 -0.2
v -0.3 0.7 -0.2
v 0.3 0.7 -0.2
v 0.4 0.7 -0.2
v 0.3 0.8 0.2
v 0.4 0.8 0.2
v -0.4 0.8 0.1
v -0.3 0.8 0.1
v 0.3 0.8 0.1
v -0.4 0.8 -2.98023e-008
v -0.3 0.8 -2.98023e-008
v 0.3 0.8 -2.98023e-008
v 0.4 0.8 -2.98023e-008
v -0.3 0.9 0.2
v 0 0.9 0.2
v 0.2 0.9 0.2
v 0.3 0.9 0.2
v -0.3 0.9 0.1
v 0 0.9 0.1
v 0.2 0.9 0.1
v 0.3 0.9 0.1
v 0.3 0.5 -2.98023e-008
v 0.4 0.5 -2.98023e-008
v 0.3 0.5 -0.1
v 0.4 0.5 -0.1
v -0.4 0.6 0.3
v -0.3 0.6 0.3
v -0.4 0.6 0.2
v -0.3 0.6 0.2
v -0.1 0.6 0.2
v 0.1 0.6 0.2
v 0.3 0.6 0.2
v -0.3 0.6 0.1
v -0.1 0.6 0.1
v 0.1 0.6 0.1
v 0.2 0.6 0.1
v 0.2 0.6 -2.98023e-008
v 0.3 0.6 -2.98023e-008
v -0.4 0.6 -0.1
v -0.3 0.6 -0.1
v -0.3 1 0.2
v 0 1 0.2
v 0.2 1 0.2
v 0.4 1 0.2
v -0.4 1 0.1
v -0.3 1 0.1
v 0 1 0.1
v 0.2 1 0.1
v 0.3 1 0.1
v -0.4 1 -0.2
v -0.3 1 -0.2
v -0.2 1 -0.2
v 0.2 1 -0.2
v 0.3 1 -0.2
v 0.4 1 -0.2
v -0.3 1 -0.3
v -0.2 1 -0.3
v 0.2 1 -0.3
v 0.3 1 -0.3
v -0.2 1 -0.4
v 0.2 1 -0.4
v -0.3 1.1 0.1
v 0.3 1.1 0.1
v -0.3 1.1 -0.2
v -0.2 1.1 -0.2
v 0.2 1.1 -0.2
v 0.3 1.1 -0.2
v -0.2 1.1 -0.3
v 0.2 1.1 -0.3

# faces
f 4/1/1 2/1/1 1/1/1
f 5/3/1 3/3/1 2/3/1
f 5/1/1 2/1/1 4/1/1
f 6/3/1 3/3/1 5/3/1
f 11/2/1 8/2/1 7/2/1
f 12/5/1 9/5/1 8/5/1
f 12/2/1 8/2/1 11/2/1
f 13/5/1 11/5/1 10/5/1
f 13/5/1 12/5/1 11/5/1
f 14/5/1 9/5/1 12/5/1
f 14/5/1 12/5/1 13/5/1
f 18/4/1 16/4/1 15/4/1
f 19/4/1 16/4/1 18/4/1
f 21/4/1 18/4/1 17/4/1
f 21/4/1 20/4/1 19/4/1
f 21/4/1 19/4/1 18/4/1
f 22/4/1 20/4/1 21/4/1
f 23/3/1 22/3/1 21/3/1
f 24/3/1 22/3/1 23/3/1
f 26/3/1 22/3/1 24/3/1
f 27/3/1 22/3/1 26/3/1
f 28/3/1 22/3/1 27/3/1
f 29/1/1 26/1/1 25/1/1
f 29/1/1 27/1/1 26/1/1
f 30/1/1 27/1/1 29/1/1
f 31/5/1 28/5/1 27/5/1
f 31/1/1 27/1/1 30/1/1
f 32/1/1 29/1/1 25/1/1
f 33/1/1 29/1/1 32/1/1
f 36/5/1 35/5/1 34/5/1
f 37/5/1 35/5/1 36/5/1
f 38/5/1 28/5/1 31/5/1
f 39/5/1 28/5/1 38/5/1
f 40/5/1 38/5/1 37/5/1
f 41/5/1 38/5/1 40/5/1
f 44/7/1 43/7/1 42/7/1
f 45/7/1 43/7/1 44/7/1
f 49/5/1 47/5/1 46/5/1
f 50/5/1 47/5/1 49/5/1
f 51/5/1 49/5/1 48/5/1
f 52/5/1 49/5/1 51/5/1
f 56/7/1 54/7/1 53/7/1
f 57/7/1 54/7/1 56/7/1
f 59/4/1 56/4/1 55/4/1
f 59/4/1 58/4/1 57/4/1
f 59/4/1 57/4/1 56/4/1
f 60/4/1 58/4/1 59/4/1
f 63/5/1 62/5/1 61/5/1
f 64/5/1 62/5/1 63/5/1
f 67/5/1 66/5/1 65/5/1
f 68/5/1 66/5/1 67/5/1
f 69/1/2 70/1/2 71/1/2
f 71/1/2 70/1/2 72/1/2
f 73/7/2 74/7/2 76/7/2
f 76/7/2 74/7/2 77/7/2
f 75/4/2 76/4/2 79/4/2
f 77/4/2 78/4/2 79/4/2
f 76/4/2 77/4/2 79/4/2
f 79/4/2 78/4/2 80/4/2
f 81/5/2 82/5/2 83/5/2
f 83/5/2 82/5/2 84/5/2
f 85/7/2 86/7/2 87/7/2
f 87/7/2 86/7/2 88/7/2
f 89/6/2 90/6/2 93/6/2
f 93/6/2 90/6/2 94/6/2
f 91/5/2 92/5/2 96/5/2
f 96/5/2 92/5/2 97/5/2
f 95/5/2 96/5/2 98/5/2
f 98/5/2 96/5/2 99/5/2
f 100/4/2 101/4/2 105/4/2
f 102/4/2 103/4/2 106/4/2
f 104/4/2 105/4/2 108/4/2
f 105/4/2 101/4/2 109/4/2
f 108/4/2 105/4/2 109/4/2
f 106/4/2 107/4/2 110/4/2
f 102/4/2 106/4/2 110/4/2
f 110/4/2 107/4/2 111/4/2
f 108/3/2 109/3/2 112/3/2
f 112/3/2 109/3/2 113/3/2
f 110/3/2 111/3/2 114/3/2
f 114/3/2 111/3/2 115/3/2
f 108/3/2 112/3/2 116/3/2
f 112/1/2 113/1/2 117/1/2
f 116/3/2 112/3/2 117/3/2
f 117/1/2 113/1/2 118/1/2
f 114/1/2 115/1/2 119/1/2
f 117/6/2 118/6/2 120/6/2
f 116/6/2 117/6/2 120/6/2
f 118/1/2 119/1/2 121/1/2
f 120/6/2 118/6/2 121/6/2
f 119/1/2 115/1/2 122/1/2
f 121/1/2 119/1/2 122/1/2
f 122/1/2 115/1/2 123/1/2
f 123/1/2 115/1/2 124/1/2
f 121/6/2 122/6/2 126/6/2
f 122/1/2 123/1/2 127/1/2
f 126/6/2 122/6/2 127/6/2
f 123/5/2 124/5/2 128/5/2
f 127/1/2 123/1/2 128/1/2
f 125/1/2 126/1/2 129/1/2
f 129/1/2 126/1/2 130/1/2
f 128/5/2 124/5/2 132/5/2
f 132/5/2 124/5/2 133/5/2
f 131/5/2 132/5/2 134/5/2
f 134/5/2 132/5/2 135/5/2
f 136/1/2 137/1/2 138/1/2
f 138/1/2 137/1/2 139/1/2
f 140/2/2 141/2/2 144/2/2
f 141/5/2 142/5/2 145/5/2
f 144/2/2 141/2/2 145/2/2
f 143/5/2 144/5/2 146/5/2
f 144/5/2 145/5/2 146/5/2
f 145/5/2 142/5/2 147/5/2
f 146/5/2 145/5/2 147/5/2
f 150/1/3 149/1/3 148/1/3
f 151/1/3 149/1/3 150/1/3
f 158/3/3 154/3/3 153/3/3
f 158/3/3 155/3/3 154/3/3
f 159/3/3 155/3/3 158/3/3
f 160/3/3 158/3/3 153/3/3
f 161/1/3 159/1/3 158/1/3
f 161/3/3 158/3/3 160/3/3
f 162/5/3 157/5/3 156/5/3
f 163/5/3 157/5/3 162/5/3
f 164/1/3 159/1/3 161/1/3
f 164/6/3 161/6/3 160/6/3
f 165/1/3 159/1/3 164/1/3
f 166/3/3 160/3/3 153/3/3
f 166/6/3 164/6/3 160/6/3
f 166/6/3 165/6/3 164/6/3
f 167/6/3 165/6/3 166/6/3
f 170/4/3 153/4/3 152/4/3
f 171/3/3 166/3/3 153/3/3
f 171/4/3 153/4/3 170/4/3
f 171/3/3 167/3/3 166/3/3
f 172/6/3 165/6/3 167/6/3
f 172/3/3 167/3/3 171/3/3
f 173/6/3 165/6/3 172/6/3
f 175/5/3 169/5/3 168/5/3
f 176/5/3 175/5/3 174/5/3
f 177/5/3 169/5/3 175/5/3
f 177/5/3 175/5/3 176/5/3
f 183/5/3 179/5/3 178/5/3
f 184/5/3 179/5/3 183/5/3
f 185/5/3 179/5/3 184/5/3
f 187/1/3 183/1/3 182/1/3
f 187/1/3 184/1/3 183/1/3
f 188/1/3 184/1/3 187/1/3
f 189/4/3 181/4/3 180/4/3
f 190/4/3 181/4/3 189/4/3
f 191/1/3 187/1/3 182/1/3
f 192/8/3 188/8/3 187/8/3
f 192/1/3 187/1/3 191/1/3
f 193/1/3 184/1/3 188/1/3
f 193/8/3 188/8/3 192/8/3
f 194/1/3 192/1/3 191/1/3
f 194/1/3 184/1/3 193/1/3
f 194/1/3 193/1/3 192/1/3
f 195/5/3 186/5/3 185/5/3
f 198/1/3 194/1/3 191/1/3
f 198/1/3 195/1/3 194/1/3
f 199/1/3 195/1/3 198/1/3
f 200/6/3 199/6/3 198/6/3
f 201/6/3 199/6/3 200/6/3
f 202/1/3 195/1/3 199/1/3
f 202/6/3 199/6/3 201/6/3
f 203/1/3 195/1/3 202/1/3
f 204/5/3 186/5/3 195/5/3
f 204/1/3 195/1/3 203/1/3
f 205/4/3 197/4/3 196/4/3
f 206/4/3 197/4/3 205/4/3
f 207/1/3 203/1/3 202/1/3
f 207/1/3 202/1/3 201/1/3
f 208/1/3 203/1/3 207/1/3
f 209/1/3 203/1/3 208/1/3
f 210/5/3 186/5/3 204/5/3
f 211/5/3 186/5/3 210/5/3
f 214/2/3 213/2/3 212/2/3
f 215/2/3 213/2/3 214/2/3
f 218/7/3 217/7/3 216/7/3
f 219/7/3 217/7/3 218/7/3
f 222/7/3 221/7/3 220/7/3
f 223/7/3 221/7/3 222/7/3
f 230/6/3 225/6/3 224/6/3
f 231/6/3 225/6/3 230/6/3
f 233/1/3 229/1/3 228/1/3
f 233/1/3 227/1/3 226/1/3
f 233/1/3 228/1/3 227/1/3
f 234/1/3 229/1/3 233/1/3
f 235/2/3 232/2/3 231/2/3
f 236/2/3 232/2/3 235/2/3
f 237/3/4 238/3/4 239/3/4
f 239/3/4 238/3/4 240/3/4
f 241/7/4 242/7/4 243/7/4
f 243/7/4 242/7/4 244/7/4
f 245/7/4 246/7/4 247/7/4
f 247/7/4 246/7/4 248/7/4
f 249/1/4 250/1/4 253/1/4
f 251/1/4 252/1/4 253/1/4
f 250/1/4 251/1/4 253/1/4
f 253/1/4 252/1/4 254/1/4
f 255/5/4 256/5/4 259/5/4
f 259/5/4 256/5/4 260/5/4
f 260/5/4 261/5/4 262/5/4
f 262/5/4 261/5/4 263/5/4
f 257/4/4 258/4/4 264/4/4
f 264/4/4 258/4/4 265/4/4
f 266/4/4 267/4/4 270/4/4
f 270/4/4 267/4/4 271/4/4
f 268/5/4 269/5/4 273/5/4
f 273/5/4 269/5/4 274/5/4
f 272/5/4 273/5/4 275/5/4
f 275/5/4 273/5/4 276/5/4
f 278/3/4 279/3/4 281/3/4
f 279/5/4 280/5/4 281/5/4
f 281/5/4 280/5/4 282/5/4
f 278/3/4 281/3/4 284/3/4
f 284/3/4 281/3/4 285/3/4
f 282/5/4 283/5/4 286/5/4
f 286/5/4 283/5/4 287/5/4
f 277/4/4 278/4/4 288/4/4
f 278/3/4 284/3/4 289/3/4
f 288/4/4 278/4/4 289/4/4
f 284/1/4 285/1/4 290/1/4
f 289/3/4 284/3/4 290/3/4
f 285/5/4 286/5/4 291/5/4
f 290/1/4 285/1/4 291/1/4
f 291/5/4 286/5/4 292/5/4
f 293/5/4 294/5/4 295/5/4
f 295/5/4 294/5/4 296/5/4
f 301/7/5 298/7/5 297/7/5
f 302/7/5 298/7/5 301/7/5
f 303/7/5 300/7/5 299/7/5
f 304/7/5 300/7/5 303/7/5
f 309/4/5 306/4/5 305/4/5
f 310/4/5 306/4/5 309/4/5
f 311/4/5 308/4/5 307/4/5
f 312/4/5 308/4/5 311/4/5
f 313/4/5 308/4/5 312/4/5
f 315/4/5 309/4/5 305/4/5
f 318/4/5 313/4/5 312/4/5
f 319/1/5 314/1/5 313/1/5
f 319/4/5 313/4/5 318/4/5
f 320/1/5 314/1/5 319/1/5
f 321/4/5 316/4/5 315/4/5
f 321/4/5 315/4/5 305/4/5
f 322/4/5 316/4/5 321/4/5
f 323/4/5 318/4/5 317/4/5
f 323/4/5 319/4/5 318/4/5
f 324/4/5 319/4/5 323/4/5
f 327/4/5 326/4/5 325/4/5
f 328/4/5 326/4/5 327/4/5
f 329/4/5 326/4/5 328/4/5
f 330/4/5 326/4/5 329/4/5
f 332/4/5 329/4/5 328/4/5
f 333/4/5 329/4/5 332/4/5
f 335/4/5 332/4/5 331/4/5
f 335/4/5 334/4/5 333/4/5
f 335/4/5 333/4/5 332/4/5
f 336/4/5 334/4/5 335/4/5
f 339/1/5 338/1/5 337/1/5
f 340/1/5 338/1/5 339/1/5
f 341/3/5 340/3/5 339/3/5
f 342/3/5 340/3/5 341/3/5
f 345/5/5 344/5/5 343/5/5
f 346/5/5 344/5/5 345/5/5
f 351/1/5 348/1/5 347/1/5
f 352/1/5 348/1/5 351/1/5
f 354/2/5 350/2/5 349/2/5
f 355/2/5 350/2/5 354/2/5
f 356/2/5 353/2/5 352/2/5
f 357/2/5 353/2/5 356/2/5
f 358/5/5 355/5/5 354/5/5
f 359/5/5 355/5/5 358/5/5
f 360/5/5 357/5/5 356/5/5
f 361/5/5 357/5/5 360/5/5
f 366/5/5 363/5/5 362/5/5
f 367/5/5 365/5/5 364/5/5
f 368/5/5 365/5/5 367/5/5
f 369/5/5 363/5/5 366/5/5
f 370/5/5 363/5/5 369/5/5
f 375/5/5 372/5/5 371/5/5
f 376/5/5 372/5/5 375/5/5
f 377/5/5 374/5/5 373/5/5
f 378/5/5 374/5/5 377/5/5
f 379/1/6 380/1/6 381/1/6
f 381/1/6 380/1/6 382/1/6
f 383/1/6 384/1/6 385/1/6
f 385/1/6 384/1/6 386/1/6
f 385/3/6 386/3/6 390/3/6
f 386/3/6 387/3/6 390/3/6
f 387/1/6 388/1/6 391/1/6
f 390/3/6 387/3/6 391/3/6
f 388/6/6 389/6/6 392/6/6
f 391/1/6 388/1/6 392/1/6
f 392/6/6 389/6/6 393/6/6
f 393/6/6 389/6/6 394/6/6
f 394/6/6 389/6/6 395/6/6
f 385/3/6 390/3/6 396/3/6
f 396/3/6 390/3/6 397/3/6
f 398/5/6 399/5/6 403/5/6
f 403/5/6 399/5/6 404/5/6
f 400/5/6 401/5/6 405/5/6
f 405/5/6 401/5/6 406/5/6
f 402/5/6 403/5/6 407/5/6
f 407/5/6 403/5/6 408/5/6
f 406/5/6 401/5/6 411/5/6
f 411/5/6 401/5/6 412/5/6
f 408/5/6 409/5/6 413/5/6
f 413/5/6 409/5/6 414/5/6
f 410/5/6 411/5/6 415/5/6
f 415/5/6 411/5/6 416/5/6
f 414/5/6 415/5/6 417/5/6
f 417/5/6 415/5/6 418/5/6
f 419/5/6 420/5/6 421/5/6
f 421/5/6 420/5/6 422/5/6
f 422/5/6 420/5/6 423/5/6
f 423/5/6 420/5/6 424/5/6
f 422/5/6 423/5/6 425/5/6
f 425/5/6 423/5/6 426/5/6
