# MagicaVoxel @ Ephtracy

# group
o 

# material
mtllib _chr_zombie3.mtl
usemtl palette

# normals
vn -1 0 0
vn 1 0 0
vn 0 0 1
vn 0 0 -1
vn 0 -1 0
vn 0 1 0

# texcoords
vt 0.00585938 0.5
vt 0.279297 0.5
vt 0.341797 0.5
vt 0.513672 0.5
vt 0.642578 0.5
vt 0.857422 0.5
vt 0.986328 0.5
vt 0.990234 0.5
vt 0.994141 0.5

# verts
v -0.4 0.5 0.3
v -0.4 0.5 0.1
v -0.4 0.5 -2.98023e-008
v -0.4 0.5 -0.1
v -0.4 0.6 0.3
v -0.4 0.6 0.1
v -0.4 0.6 -2.98023e-008
v -0.4 0.6 -0.1
v -0.4 0.7 -2.98023e-008
v -0.4 0.7 -0.1
v -0.4 0.8 -2.98023e-008
v -0.4 0.8 -0.1
v -0.4 0.8 -0.2
v -0.4 0.9 0.1
v -0.4 0.9 -2.98023e-008
v -0.4 1 0.1
v -0.4 1 -0.2
v -0.3 0.1 0.1
v -0.3 0.1 -0.2
v -0.3 0.2 0.2
v -0.3 0.2 0.1
v -0.3 0.2 -0.2
v -0.3 0.2 -0.3
v -0.3 0.3 0.2
v -0.3 0.3 -0.3
v -0.3 0.5 0.2
v -0.3 0.5 0.1
v -0.3 0.5 -2.98023e-008
v -0.3 0.5 -0.1
v -0.3 0.6 0.1
v -0.3 0.6 -2.98023e-008
v -0.3 0.6 -0.1
v -0.3 0.6 -0.2
v -0.3 0.6 -0.3
v -0.3 0.7 -2.98023e-008
v -0.3 0.7 -0.1
v -0.3 0.7 -0.2
v -0.3 0.7 -0.3
v -0.3 0.8 -2.98023e-008
v -0.3 0.8 -0.1
v -0.3 0.8 -0.2
v -0.3 0.9 0.2
v -0.3 0.9 0.1
v -0.3 0.9 -2.98023e-008
v -0.3 1 0.2
v -0.3 1 0.1
v -0.3 1 -0.2
v -0.3 1 -0.3
v -0.2 0 -2.98023e-008
v -0.2 0 -0.1
v -0.2 0.1 -2.98023e-008
v -0.2 0.1 -0.1
v -0.2 0.6 -0.2
v -0.2 0.6 -0.3
v -0.2 0.7 -0.2
v -0.2 0.7 -0.3
v -0.2 0.7 -0.4
v -0.2 1 -0.3
v -0.2 1 -0.4
v -0.1 1 0.1
v -0.1 1 -0.1
v -0.1 1 -0.3
v -0.1 1.1 0.1
v -0.1 1.1 -0.3
v 0.1 0 -2.98023e-008
v 0.1 0 -0.1
v 0.1 0.1 0.1
v 0.1 0.1 -2.98023e-008
v 0.1 0.1 -0.1
v 0.1 0.1 -0.2
v 0.1 0.2 0.1
v 0.1 0.2 -0.2
v 0.1 0.3 0.2
v 0.1 0.3 0.1
v 0.1 0.4 0.2
v 0.1 0.4 0.1
v 0.2 0.7 0.1
v 0.2 0.7 -2.98023e-008
v 0.2 0.8 0.1
v 0.2 0.8 -2.98023e-008
v 0.2 0.9 0.2
v 0.2 0.9 0.1
v 0.2 1 0.2
v 0.2 1 0.1
v 0.3 0.5 0.3
v 0.3 0.5 0.2
v 0.3 0.6 0.3
v 0.3 0.6 0.2
v -0.3 0.5 0.3
v -0.3 0.5 0.2
v -0.3 0.6 0.3
v -0.3 0.6 0.2
v -0.2 0.9 0.2
v -0.2 0.9 0.1
v -0.2 1 0.2
v -0.2 1 0.1
v -0.1 0 -2.98023e-008
v -0.1 0 -0.1
v -0.1 0.1 0.1
v -0.1 0.1 -2.98023e-008
v -0.1 0.1 -0.1
v -0.1 0.1 -0.2
v -0.1 0.2 0.1
v -0.1 0.2 -2.98023e-008
v -0.1 0.2 -0.2
v 0 0.3 0.2
v 0 0.3 0.1
v 0 0.4 0.2
v 0 0.4 0.1
v 0.1 0.7 0.1
v 0.1 0.7 -2.98023e-008
v 0.1 0.8 0.1
v 0.1 0.8 -2.98023e-008
v 0.2 0 -2.98023e-008
v 0.2 0 -0.1
v 0.2 0.1 -2.98023e-008
v 0.2 0.1 -0.1
v 0.2 0.6 -0.2
v 0.2 0.6 -0.3
v 0.2 0.7 -0.2
v 0.2 0.7 -0.3
v 0.2 0.7 -0.4
v 0.2 1 -0.2
v 0.2 1 -0.3
v 0.2 1 -0.4
v 0.2 1.1 -0.2
v 0.2 1.1 -0.3
v 0.3 0.1 0.1
v 0.3 0.1 -0.2
v 0.3 0.2 0.2
v 0.3 0.2 0.1
v 0.3 0.2 -0.2
v 0.3 0.2 -0.3
v 0.3 0.3 0.2
v 0.3 0.3 -0.3
v 0.3 0.5 0.2
v 0.3 0.5 -0.1
v 0.3 0.6 0.1
v 0.3 0.6 -0.1
v 0.3 0.6 -0.2
v 0.3 0.6 -0.3
v 0.3 0.7 -2.98023e-008
v 0.3 0.7 -0.1
v 0.3 0.7 -0.2
v 0.3 0.7 -0.3
v 0.3 0.8 -2.98023e-008
v 0.3 0.8 -0.1
v 0.3 0.8 -0.2
v 0.3 0.9 0.2
v 0.3 0.9 0.1
v 0.3 0.9 -2.98023e-008
v 0.3 1 0.2
v 0.3 1 0.1
v 0.3 1 -0.2
v 0.3 1 -0.3
v 0.3 1.1 0.1
v 0.3 1.1 -0.2
v 0.4 0.5 0.3
v 0.4 0.5 0.2
v 0.4 0.5 -0.1
v 0.4 0.6 0.3
v 0.4 0.6 0.2
v 0.4 0.6 -0.1
v 0.4 0.7 -2.98023e-008
v 0.4 0.7 -0.1
v 0.4 0.8 -2.98023e-008
v 0.4 0.8 -0.1
v 0.4 0.8 -0.2
v 0.4 0.9 0.1
v 0.4 0.9 -2.98023e-008
v 0.4 1 0.1
v 0.4 1 -0.2
v -0.4 0.5 0.3
v -0.4 0.6 0.3
v -0.3 0.5 0.3
v -0.3 0.6 0.3
v 0.3 0.5 0.3
v 0.3 0.6 0.3
v 0.4 0.5 0.3
v 0.4 0.6 0.3
v -0.3 0.2 0.2
v -0.3 0.3 0.2
v -0.3 0.5 0.2
v -0.3 0.6 0.2
v -0.3 0.9 0.2
v -0.3 1 0.2
v -0.2 0.2 0.2
v -0.2 0.3 0.2
v -0.2 0.4 0.2
v -0.2 0.9 0.2
v -0.2 1 0.2
v -0.1 0.4 0.2
v -0.1 0.5 0.2
v 0 0.3 0.2
v 0 0.4 0.2
v 0.1 0.2 0.2
v 0.1 0.3 0.2
v 0.1 0.4 0.2
v 0.1 0.5 0.2
v 0.2 0.3 0.2
v 0.2 0.4 0.2
v 0.2 0.9 0.2
v 0.2 1 0.2
v 0.3 0.2 0.2
v 0.3 0.3 0.2
v 0.3 0.5 0.2
v 0.3 0.6 0.2
v 0.3 0.9 0.2
v 0.3 1 0.2
v -0.4 0.9 0.1
v -0.4 1 0.1
v -0.3 0.1 0.1
v -0.3 0.2 0.1
v -0.3 0.6 0.1
v -0.3 0.9 0.1
v -0.3 1 0.1
v -0.2 0.1 0.1
v -0.2 0.2 0.1
v -0.2 0.7 0.1
v -0.2 0.8 0.1
v -0.2 0.9 0.1
v -0.2 1 0.1
v -0.1 0.1 0.1
v -0.1 0.2 0.1
v -0.1 0.7 0.1
v -0.1 0.8 0.1
v -0.1 0.9 0.1
v -0.1 1 0.1
v -0.1 1.1 0.1
v 0 0.3 0.1
v 0 0.4 0.1
v 0.1 0.1 0.1
v 0.1 0.2 0.1
v 0.1 0.3 0.1
v 0.1 0.4 0.1
v 0.1 0.6 0.1
v 0.1 0.7 0.1
v 0.1 0.8 0.1
v 0.2 0.6 0.1
v 0.2 0.7 0.1
v 0.2 0.8 0.1
v 0.2 0.9 0.1
v 0.2 1 0.1
v 0.3 0.1 0.1
v 0.3 0.2 0.1
v 0.3 0.6 0.1
v 0.3 0.9 0.1
v 0.3 1 0.1
v 0.3 1.1 0.1
v 0.4 0.9 0.1
v 0.4 1 0.1
v -0.4 0.7 -2.98023e-008
v -0.4 0.8 -2.98023e-008
v -0.4 0.9 -2.98023e-008
v -0.3 0.7 -2.98023e-008
v -0.3 0.8 -2.98023e-008
v -0.3 0.9 -2.98023e-008
v -0.2 0 -2.98023e-008
v -0.2 0.1 -2.98023e-008
v -0.1 0 -2.98023e-008
v -0.1 0.1 -2.98023e-008
v 0.1 0 -2.98023e-008
v 0.1 0.1 -2.98023e-008
v 0.1 0.7 -2.98023e-008
v 0.1 0.8 -2.98023e-008
v 0.2 0 -2.98023e-008
v 0.2 0.1 -2.98023e-008
v 0.2 0.7 -2.98023e-008
v 0.2 0.8 -2.98023e-008
v 0.3 0.7 -2.98023e-008
v 0.3 0.8 -2.98023e-008
v 0.3 0.9 -2.98023e-008
v 0.4 0.7 -2.98023e-008
v 0.4 0.8 -2.98023e-008
v 0.4 0.9 -2.98023e-008
v -0.4 0.5 -0.1
v -0.4 0.6 -0.1
v -0.4 0.7 -0.1
v -0.4 0.8 -0.1
v -0.3 0.5 -0.1
v -0.3 0.6 -0.1
v -0.3 0.7 -0.1
v -0.3 0.8 -0.1
v -0.2 0 -0.1
v -0.2 0.1 -0.1
v -0.1 0 -0.1
v -0.1 0.1 -0.1
v 0.1 0 -0.1
v 0.1 0.1 -0.1
v 0.2 0 -0.1
v 0.2 0.1 -0.1
v 0.3 0.5 -0.1
v 0.3 0.6 -0.1
v 0.3 0.7 -0.1
v 0.3 0.8 -0.1
v 0.4 0.5 -0.1
v 0.4 0.6 -0.1
v 0.4 0.7 -0.1
v 0.4 0.8 -0.1
v -0.4 0.8 -0.2
v -0.4 1 -0.2
v -0.3 0.1 -0.2
v -0.3 0.2 -0.2
v -0.3 0.6 -0.2
v -0.3 0.7 -0.2
v -0.3 0.8 -0.2
v -0.3 1 -0.2
v -0.2 0.6 -0.2
v -0.2 0.7 -0.2
v -0.1 0.1 -0.2
v -0.1 0.2 -0.2
v 0.1 0.1 -0.2
v 0.1 0.2 -0.2
v 0.2 0.6 -0.2
v 0.2 0.7 -0.2
v 0.2 1 -0.2
v 0.2 1.1 -0.2
v 0.3 0.1 -0.2
v 0.3 0.2 -0.2
v 0.3 0.6 -0.2
v 0.3 0.7 -0.2
v 0.3 0.8 -0.2
v 0.3 1 -0.2
v 0.3 1.1 -0.2
v 0.4 0.8 -0.2
v 0.4 1 -0.2
v -0.3 0.2 -0.3
v -0.3 0.3 -0.3
v -0.3 0.6 -0.3
v -0.3 0.7 -0.3
v -0.3 1 -0.3
v -0.2 0.6 -0.3
v -0.2 0.7 -0.3
v -0.2 1 -0.3
v -0.1 1 -0.3
v -0.1 1.1 -0.3
v 0.2 0.6 -0.3
v 0.2 0.7 -0.3
v 0.2 1 -0.3
v 0.2 1.1 -0.3
v 0.3 0.2 -0.3
v 0.3 0.3 -0.3
v 0.3 0.6 -0.3
v 0.3 0.7 -0.3
v 0.3 1 -0.3
v -0.2 0.7 -0.4
v -0.2 1 -0.4
v 0.2 0.7 -0.4
v 0.2 1 -0.4
v -0.2 0 -2.98023e-008
v -0.1 0 -2.98023e-008
v 0.1 0 -2.98023e-008
v 0.2 0 -2.98023e-008
v -0.2 0 -0.1
v -0.1 0 -0.1
v 0.1 0 -0.1
v 0.2 0 -0.1
v -0.3 0.1 0.1
v -0.2 0.1 0.1
v -0.1 0.1 0.1
v 0.1 0.1 0.1
v 0.3 0.1 0.1
v -0.2 0.1 -2.98023e-008
v -0.1 0.1 -2.98023e-008
v 0.1 0.1 -2.98023e-008
v 0.2 0.1 -2.98023e-008
v -0.2 0.1 -0.1
v -0.1 0.1 -0.1
v 0.1 0.1 -0.1
v 0.2 0.1 -0.1
v -0.3 0.1 -0.2
v -0.1 0.1 -0.2
v 0.1 0.1 -0.2
v 0.3 0.1 -0.2
v -0.3 0.2 0.2
v -0.2 0.2 0.2
v 0.1 0.2 0.2
v 0.3 0.2 0.2
v -0.3 0.2 0.1
v -0.2 0.2 0.1
v -0.1 0.2 0.1
v 0.1 0.2 0.1
v 0.3 0.2 0.1
v -0.1 0.2 -2.98023e-008
v -0.3 0.2 -0.2
v -0.1 0.2 -0.2
v 0.1 0.2 -0.2
v 0.3 0.2 -0.2
v -0.3 0.2 -0.3
v 0.3 0.2 -0.3
v 0 0.4 0.2
v 0.1 0.4 0.2
v 0 0.4 0.1
v 0.1 0.4 0.1
v -0.4 0.5 0.3
v -0.3 0.5 0.3
v 0.3 0.5 0.3
v 0.4 0.5 0.3
v -0.3 0.5 0.2
v 0.3 0.5 0.2
v 0.4 0.5 0.2
v -0.4 0.5 0.1
v -0.3 0.5 0.1
v -0.4 0.5 -2.98023e-008
v -0.3 0.5 -2.98023e-008
v -0.4 0.5 -0.1
v -0.3 0.5 -0.1
v 0.3 0.5 -0.1
v 0.4 0.5 -0.1
v -0.4 0.7 -2.98023e-008
v -0.3 0.7 -2.98023e-008
v 0.3 0.7 -2.98023e-008
v 0.4 0.7 -2.98023e-008
v -0.4 0.7 -0.1
v -0.3 0.7 -0.1
v 0.3 0.7 -0.1
v 0.4 0.7 -0.1
v -0.3 0.7 -0.2
v -0.2 0.7 -0.2
v 0.2 0.7 -0.2
v 0.3 0.7 -0.2
v -0.3 0.7 -0.3
v -0.2 0.7 -0.3
v 0.2 0.7 -0.3
v 0.3 0.7 -0.3
v -0.2 0.7 -0.4
v 0.2 0.7 -0.4
v 0.1 0.8 0.1
v 0.2 0.8 0.1
v 0.1 0.8 -2.98023e-008
v 0.2 0.8 -2.98023e-008
v -0.4 0.8 -0.1
v -0.3 0.8 -0.1
v 0.3 0.8 -0.1
v 0.4 0.8 -0.1
v -0.4 0.8 -0.2
v -0.3 0.8 -0.2
v 0.3 0.8 -0.2
v 0.4 0.8 -0.2
v -0.3 0.9 0.2
v -0.2 0.9 0.2
v 0.2 0.9 0.2
v 0.3 0.9 0.2
v -0.4 0.9 0.1
v -0.3 0.9 0.1
v -0.2 0.9 0.1
v 0.2 0.9 0.1
v 0.3 0.9 0.1
v 0.4 0.9 0.1
v -0.4 0.9 -2.98023e-008
v -0.3 0.9 -2.98023e-008
v 0.3 0.9 -2.98023e-008
v 0.4 0.9 -2.98023e-008
v 0 0.3 0.2
v 0.1 0.3 0.2
v 0 0.3 0.1
v 0.1 0.3 0.1
v -0.4 0.6 0.3
v -0.3 0.6 0.3
v 0.3 0.6 0.3
v 0.4 0.6 0.3
v -0.3 0.6 0.2
v 0.3 0.6 0.2
v 0.4 0.6 0.2
v -0.4 0.6 0.1
v -0.3 0.6 0.1
v 0.1 0.6 0.1
v 0.2 0.6 0.1
v 0.3 0.6 0.1
v -0.4 0.6 -2.98023e-008
v -0.3 0.6 -2.98023e-008
v -0.4 0.6 -0.1
v -0.3 0.6 -0.1
v 0.3 0.6 -0.1
v 0.4 0.6 -0.1
v -0.3 0.6 -0.2
v -0.2 0.6 -0.2
v 0.2 0.6 -0.2
v 0.3 0.6 -0.2
v -0.3 0.6 -0.3
v -0.2 0.6 -0.3
v 0.2 0.6 -0.3
v 0.3 0.6 -0.3
v 0.1 0.7 0.1
v 0.2 0.7 0.1
v 0.1 0.7 -2.98023e-008
v 0.2 0.7 -2.98023e-008
v -0.3 1 0.2
v -0.2 1 0.2
v 0.2 1 0.2
v 0.3 1 0.2
v -0.4 1 0.1
v -0.3 1 0.1
v -0.2 1 0.1
v -0.1 1 0.1
v 0.2 1 0.1
v 0.3 1 0.1
v 0.4 1 0.1
v -0.3 1 -0.1
v -0.2 1 -0.1
v -0.1 1 -0.1
v -0.4 1 -0.2
v -0.3 1 -0.2
v -0.2 1 -0.2
v 0.2 1 -0.2
v 0.3 1 -0.2
v 0.4 1 -0.2
v -0.3 1 -0.3
v -0.2 1 -0.3
v -0.1 1 -0.3
v 0.2 1 -0.3
v 0.3 1 -0.3
v -0.2 1 -0.4
v 0.2 1 -0.4
v -0.1 1.1 0.1
v 0.3 1.1 0.1
v 0.2 1.1 -0.2
v 0.3 1.1 -0.2
v -0.1 1.1 -0.3
v 0.2 1.1 -0.3

# faces
f 5/2/1 2/2/1 1/2/1
f 6/1/1 3/1/1 2/1/1
f 6/2/1 2/2/1 5/2/1
f 7/7/1 4/7/1 3/7/1
f 7/1/1 3/1/1 6/1/1
f 8/7/1 4/7/1 7/7/1
f 11/1/1 10/1/1 9/1/1
f 12/1/1 10/1/1 11/1/1
f 15/5/1 12/5/1 11/5/1
f 15/5/1 13/5/1 12/5/1
f 16/5/1 15/5/1 14/5/1
f 17/5/1 13/5/1 15/5/1
f 17/5/1 15/5/1 16/5/1
f 21/4/1 19/4/1 18/4/1
f 22/4/1 19/4/1 21/4/1
f 24/4/1 21/4/1 20/4/1
f 24/4/1 23/4/1 22/4/1
f 24/4/1 22/4/1 21/4/1
f 25/4/1 23/4/1 24/4/1
f 26/3/1 25/3/1 24/3/1
f 27/3/1 25/3/1 26/3/1
f 28/3/1 25/3/1 27/3/1
f 29/3/1 25/3/1 28/3/1
f 32/3/1 25/3/1 29/3/1
f 33/3/1 25/3/1 32/3/1
f 34/3/1 25/3/1 33/3/1
f 35/1/1 31/1/1 30/1/1
f 35/1/1 32/1/1 31/1/1
f 35/1/1 33/1/1 32/1/1
f 36/1/1 33/1/1 35/1/1
f 37/1/1 33/1/1 36/1/1
f 39/1/1 35/1/1 30/1/1
f 40/1/1 37/1/1 36/1/1
f 41/5/1 38/5/1 37/5/1
f 41/1/1 37/1/1 40/1/1
f 43/1/1 39/1/1 30/1/1
f 44/1/1 39/1/1 43/1/1
f 45/5/1 43/5/1 42/5/1
f 46/5/1 43/5/1 45/5/1
f 47/5/1 38/5/1 41/5/1
f 48/5/1 38/5/1 47/5/1
f 51/8/1 50/8/1 49/8/1
f 52/8/1 50/8/1 51/8/1
f 55/1/1 54/1/1 53/1/1
f 56/1/1 54/1/1 55/1/1
f 58/5/1 57/5/1 56/5/1
f 59/5/1 57/5/1 58/5/1
f 63/5/1 61/5/1 60/5/1
f 63/5/1 62/5/1 61/5/1
f 64/5/1 62/5/1 63/5/1
f 68/8/1 66/8/1 65/8/1
f 69/8/1 66/8/1 68/8/1
f 71/4/1 68/4/1 67/4/1
f 71/4/1 70/4/1 69/4/1
f 71/4/1 69/4/1 68/4/1
f 72/4/1 70/4/1 71/4/1
f 75/2/1 74/2/1 73/2/1
f 76/2/1 74/2/1 75/2/1
f 79/1/1 78/1/1 77/1/1
f 80/1/1 78/1/1 79/1/1
f 83/5/1 82/5/1 81/5/1
f 84/5/1 82/5/1 83/5/1
f 87/2/1 86/2/1 85/2/1
f 88/2/1 86/2/1 87/2/1
f 89/2/2 90/2/2 91/2/2
f 91/2/2 90/2/2 92/2/2
f 93/5/2 94/5/2 95/5/2
f 95/5/2 94/5/2 96/5/2
f 97/8/2 98/8/2 100/8/2
f 100/8/2 98/8/2 101/8/2
f 99/6/2 100/6/2 103/6/2
f 101/4/2 102/4/2 104/4/2
f 103/6/2 100/6/2 104/6/2
f 100/4/2 101/4/2 104/4/2
f 104/4/2 102/4/2 105/4/2
f 106/2/2 107/2/2 108/2/2
f 108/2/2 107/2/2 109/2/2
f 110/1/2 111/1/2 112/1/2
f 112/1/2 111/1/2 113/1/2
f 114/8/2 115/8/2 116/8/2
f 116/8/2 115/8/2 117/8/2
f 118/1/2 119/1/2 120/1/2
f 120/1/2 119/1/2 121/1/2
f 121/5/2 122/5/2 124/5/2
f 124/5/2 122/5/2 125/5/2
f 123/5/2 124/5/2 126/5/2
f 126/5/2 124/5/2 127/5/2
f 128/4/2 129/4/2 131/4/2
f 131/4/2 129/4/2 132/4/2
f 130/4/2 131/4/2 134/4/2
f 132/4/2 133/4/2 134/4/2
f 131/4/2 132/4/2 134/4/2
f 134/4/2 133/4/2 135/4/2
f 134/3/2 135/3/2 136/3/2
f 136/3/2 135/3/2 137/3/2
f 137/3/2 135/3/2 139/3/2
f 139/3/2 135/3/2 140/3/2
f 140/3/2 135/3/2 141/3/2
f 138/1/2 139/1/2 142/1/2
f 139/1/2 140/1/2 142/1/2
f 142/1/2 140/1/2 143/1/2
f 143/1/2 140/1/2 144/1/2
f 138/1/2 142/1/2 146/1/2
f 143/1/2 144/1/2 147/1/2
f 144/5/2 145/5/2 148/5/2
f 147/1/2 144/1/2 148/1/2
f 138/1/2 146/1/2 150/1/2
f 150/1/2 146/1/2 151/1/2
f 149/5/2 150/5/2 152/5/2
f 152/5/2 150/5/2 153/5/2
f 148/5/2 145/5/2 154/5/2
f 154/5/2 145/5/2 155/5/2
f 153/5/2 154/5/2 156/5/2
f 156/5/2 154/5/2 157/5/2
f 158/2/2 159/2/2 161/2/2
f 159/7/2 160/7/2 162/7/2
f 161/2/2 159/2/2 162/2/2
f 162/7/2 160/7/2 163/7/2
f 164/1/2 165/1/2 166/1/2
f 166/1/2 165/1/2 167/1/2
f 166/5/2 167/5/2 170/5/2
f 167/5/2 168/5/2 170/5/2
f 169/5/2 170/5/2 171/5/2
f 170/5/2 168/5/2 172/5/2
f 171/5/2 170/5/2 172/5/2
f 175/2/3 174/2/3 173/2/3
f 176/2/3 174/2/3 175/2/3
f 179/2/3 178/2/3 177/2/3
f 180/2/3 178/2/3 179/2/3
f 187/4/3 182/4/3 181/4/3
f 188/3/3 183/3/3 182/3/3
f 188/4/3 182/4/3 187/4/3
f 188/3/3 184/3/3 183/3/3
f 189/3/3 184/3/3 188/3/3
f 190/5/3 186/5/3 185/5/3
f 191/5/3 186/5/3 190/5/3
f 192/3/3 184/3/3 189/3/3
f 192/2/3 189/2/3 188/2/3
f 193/3/3 184/3/3 192/3/3
f 194/6/3 188/6/3 187/6/3
f 194/2/3 192/2/3 188/2/3
f 194/2/3 193/2/3 192/2/3
f 195/2/3 193/2/3 194/2/3
f 196/6/3 194/6/3 187/6/3
f 197/6/3 194/6/3 196/6/3
f 198/2/3 193/2/3 195/2/3
f 199/3/3 184/3/3 193/3/3
f 199/2/3 193/2/3 198/2/3
f 200/2/3 198/2/3 197/2/3
f 200/4/3 197/4/3 196/4/3
f 201/3/3 199/3/3 198/3/3
f 201/2/3 198/2/3 200/2/3
f 204/4/3 200/4/3 196/4/3
f 205/3/3 201/3/3 200/3/3
f 205/4/3 200/4/3 204/4/3
f 206/3/3 184/3/3 199/3/3
f 206/3/3 201/3/3 205/3/3
f 206/3/3 199/3/3 201/3/3
f 207/3/3 184/3/3 206/3/3
f 208/5/3 203/5/3 202/5/3
f 209/5/3 203/5/3 208/5/3
f 215/5/3 211/5/3 210/5/3
f 216/5/3 211/5/3 215/5/3
f 217/4/3 213/4/3 212/4/3
f 218/4/3 213/4/3 217/4/3
f 219/1/3 215/1/3 214/1/3
f 220/1/3 215/1/3 219/1/3
f 221/1/3 215/1/3 220/1/3
f 223/6/3 218/6/3 217/6/3
f 224/6/3 218/6/3 223/6/3
f 225/1/3 219/1/3 214/1/3
f 225/9/3 220/9/3 219/9/3
f 226/1/3 221/1/3 220/1/3
f 226/9/3 220/9/3 225/9/3
f 227/6/3 222/6/3 221/6/3
f 227/1/3 221/1/3 226/1/3
f 228/6/3 222/6/3 227/6/3
f 234/2/3 231/2/3 230/2/3
f 235/2/3 231/2/3 234/2/3
f 236/1/3 228/1/3 227/1/3
f 236/1/3 226/1/3 225/1/3
f 236/1/3 225/1/3 214/1/3
f 236/1/3 227/1/3 226/1/3
f 237/1/3 228/1/3 236/1/3
f 238/1/3 228/1/3 237/1/3
f 239/6/3 237/6/3 236/6/3
f 240/6/3 237/6/3 239/6/3
f 241/1/3 228/1/3 238/1/3
f 242/1/3 228/1/3 241/1/3
f 243/5/3 229/5/3 228/5/3
f 243/1/3 228/1/3 242/1/3
f 244/4/3 233/4/3 232/4/3
f 245/4/3 233/4/3 244/4/3
f 246/1/3 240/1/3 239/1/3
f 246/1/3 242/1/3 241/1/3
f 246/1/3 241/1/3 240/1/3
f 247/1/3 242/1/3 246/1/3
f 248/5/3 229/5/3 243/5/3
f 249/5/3 229/5/3 248/5/3
f 250/5/3 248/5/3 247/5/3
f 251/5/3 248/5/3 250/5/3
f 255/1/3 253/1/3 252/1/3
f 256/5/3 254/5/3 253/5/3
f 256/1/3 253/1/3 255/1/3
f 257/5/3 254/5/3 256/5/3
f 260/8/3 259/8/3 258/8/3
f 261/8/3 259/8/3 260/8/3
f 266/8/3 263/8/3 262/8/3
f 267/8/3 263/8/3 266/8/3
f 268/7/3 265/7/3 264/7/3
f 269/7/3 265/7/3 268/7/3
f 273/1/3 271/1/3 270/1/3
f 274/5/3 272/5/3 271/5/3
f 274/1/3 271/1/3 273/1/3
f 275/5/3 272/5/3 274/5/3
f 276/7/4 277/7/4 280/7/4
f 280/7/4 277/7/4 281/7/4
f 278/1/4 279/1/4 282/1/4
f 282/1/4 279/1/4 283/1/4
f 284/8/4 285/8/4 286/8/4
f 286/8/4 285/8/4 287/8/4
f 288/8/4 289/8/4 290/8/4
f 290/8/4 289/8/4 291/8/4
f 292/7/4 293/7/4 296/7/4
f 296/7/4 293/7/4 297/7/4
f 294/1/4 295/1/4 298/1/4
f 298/1/4 295/1/4 299/1/4
f 300/5/4 301/5/4 306/5/4
f 306/5/4 301/5/4 307/5/4
f 304/1/4 305/1/4 308/1/4
f 308/1/4 305/1/4 309/1/4
f 302/4/4 303/4/4 310/4/4
f 310/4/4 303/4/4 311/4/4
f 312/4/4 313/4/4 318/4/4
f 318/4/4 313/4/4 319/4/4
f 314/1/4 315/1/4 320/1/4
f 320/1/4 315/1/4 321/1/4
f 316/5/4 317/5/4 323/5/4
f 323/5/4 317/5/4 324/5/4
f 322/5/4 323/5/4 325/5/4
f 325/5/4 323/5/4 326/5/4
f 328/3/4 329/3/4 332/3/4
f 330/5/4 331/5/4 333/5/4
f 333/5/4 331/5/4 334/5/4
f 328/3/4 332/3/4 337/3/4
f 332/1/4 333/1/4 337/1/4
f 337/1/4 333/1/4 338/1/4
f 335/5/4 336/5/4 339/5/4
f 339/5/4 336/5/4 340/5/4
f 327/4/4 328/4/4 341/4/4
f 328/3/4 337/3/4 342/3/4
f 341/4/4 328/4/4 342/4/4
f 342/3/4 337/3/4 343/3/4
f 338/5/4 339/5/4 344/5/4
f 344/5/4 339/5/4 345/5/4
f 346/5/4 347/5/4 348/5/4
f 348/5/4 347/5/4 349/5/4
f 354/8/5 351/8/5 350/8/5
f 355/8/5 351/8/5 354/8/5
f 356/8/5 353/8/5 352/8/5
f 357/8/5 353/8/5 356/8/5
f 363/4/5 359/4/5 358/4/5
f 363/6/5 360/6/5 359/6/5
f 364/6/5 360/6/5 363/6/5
f 365/4/5 362/4/5 361/4/5
f 366/4/5 362/4/5 365/4/5
f 367/4/5 363/4/5 358/4/5
f 370/4/5 362/4/5 366/4/5
f 371/4/5 368/4/5 367/4/5
f 371/4/5 367/4/5 358/4/5
f 372/4/5 368/4/5 371/4/5
f 373/4/5 370/4/5 369/4/5
f 374/4/5 362/4/5 370/4/5
f 374/4/5 370/4/5 373/4/5
f 379/4/5 376/4/5 375/4/5
f 380/6/5 377/6/5 376/6/5
f 380/4/5 376/4/5 379/4/5
f 381/6/5 377/6/5 380/6/5
f 382/4/5 378/4/5 377/4/5
f 382/6/5 377/6/5 381/6/5
f 383/4/5 378/4/5 382/4/5
f 384/4/5 382/4/5 381/4/5
f 386/4/5 382/4/5 384/4/5
f 387/4/5 382/4/5 386/4/5
f 389/4/5 386/4/5 385/4/5
f 389/4/5 388/4/5 387/4/5
f 389/4/5 387/4/5 386/4/5
f 390/4/5 388/4/5 389/4/5
f 393/2/5 392/2/5 391/2/5
f 394/2/5 392/2/5 393/2/5
f 399/2/5 396/2/5 395/2/5
f 400/2/5 398/2/5 397/2/5
f 401/2/5 398/2/5 400/2/5
f 402/2/5 399/2/5 395/2/5
f 403/2/5 399/2/5 402/2/5
f 404/1/5 403/1/5 402/1/5
f 405/1/5 403/1/5 404/1/5
f 406/7/5 405/7/5 404/7/5
f 407/7/5 405/7/5 406/7/5
f 408/7/5 401/7/5 400/7/5
f 409/7/5 401/7/5 408/7/5
f 414/1/5 411/1/5 410/1/5
f 415/1/5 411/1/5 414/1/5
f 416/1/5 413/1/5 412/1/5
f 417/1/5 413/1/5 416/1/5
f 422/5/5 419/5/5 418/5/5
f 423/5/5 419/5/5 422/5/5
f 424/5/5 421/5/5 420/5/5
f 425/5/5 421/5/5 424/5/5
f 426/5/5 424/5/5 423/5/5
f 427/5/5 424/5/5 426/5/5
f 430/1/5 429/1/5 428/1/5
f 431/1/5 429/1/5 430/1/5
f 436/5/5 433/5/5 432/5/5
f 437/5/5 433/5/5 436/5/5
f 438/5/5 435/5/5 434/5/5
f 439/5/5 435/5/5 438/5/5
f 445/5/5 441/5/5 440/5/5
f 446/5/5 441/5/5 445/5/5
f 447/5/5 443/5/5 442/5/5
f 448/5/5 443/5/5 447/5/5
f 450/5/5 445/5/5 444/5/5
f 451/5/5 445/5/5 450/5/5
f 452/5/5 449/5/5 448/5/5
f 453/5/5 449/5/5 452/5/5
f 454/6/6 455/6/6 456/6/6
f 456/6/6 455/6/6 457/6/6
f 458/2/6 459/2/6 462/2/6
f 460/2/6 461/2/6 463/2/6
f 463/2/6 461/2/6 464/2/6
f 458/2/6 462/2/6 465/2/6
f 462/3/6 463/3/6 466/3/6
f 465/2/6 462/2/6 466/2/6
f 466/3/6 463/3/6 467/3/6
f 467/3/6 463/3/6 468/3/6
f 463/7/6 464/7/6 469/7/6
f 468/3/6 463/3/6 469/3/6
f 465/1/6 466/1/6 470/1/6
f 470/1/6 466/1/6 471/1/6
f 470/7/6 471/7/6 472/7/6
f 472/7/6 471/7/6 473/7/6
f 469/7/6 464/7/6 474/7/6
f 474/7/6 464/7/6 475/7/6
f 476/3/6 477/3/6 480/3/6
f 480/3/6 477/3/6 481/3/6
f 478/3/6 479/3/6 482/3/6
f 482/3/6 479/3/6 483/3/6
f 484/6/6 485/6/6 486/6/6
f 486/6/6 485/6/6 487/6/6
f 488/5/6 489/5/6 493/5/6
f 493/5/6 489/5/6 494/5/6
f 490/5/6 491/5/6 496/5/6
f 496/5/6 491/5/6 497/5/6
f 492/5/6 493/5/6 499/5/6
f 493/1/6 494/1/6 499/1/6
f 494/6/6 495/6/6 500/6/6
f 499/1/6 494/1/6 500/1/6
f 500/6/6 495/6/6 501/6/6
f 492/5/6 499/5/6 502/5/6
f 499/6/6 500/6/6 503/6/6
f 502/5/6 499/5/6 503/5/6
f 500/1/6 501/1/6 504/1/6
f 503/6/6 500/6/6 504/6/6
f 497/5/6 498/5/6 506/5/6
f 506/5/6 498/5/6 507/5/6
f 503/5/6 504/5/6 508/5/6
f 504/1/6 501/1/6 509/1/6
f 508/5/6 504/5/6 509/5/6
f 509/1/6 501/1/6 510/1/6
f 505/5/6 506/5/6 511/5/6
f 511/5/6 506/5/6 512/5/6
f 509/5/6 510/5/6 513/5/6
f 510/5/6 511/5/6 513/5/6
f 513/5/6 511/5/6 514/5/6
f 515/5/6 516/5/6 517/5/6
f 517/5/6 516/5/6 518/5/6
f 515/5/6 517/5/6 519/5/6
f 519/5/6 517/5/6 520/5/6
