# MagicaVoxel @ Ephtracy

# group
o 

# material
mtllib _obj_curb1.mtl
usemtl palette

# normals
vn -1 0 0
vn 1 0 0
vn 0 0 1
vn 0 0 -1
vn 0 -1 0
vn 0 1 0

# texcoords
vt 0.767578 0.5
vt 0.794922 0.5
vt 0.974609 0.5
vt 0.978516 0.5

# verts
v -0.8 0 0.6
v -0.8 0 0.5
v -0.8 0 -0.8
v -0.8 0.1 0.6
v -0.8 0.1 0.5
v -0.8 0.1 -0.8
v -0.6 0.1 0.4
v -0.6 0.1 0.3
v -0.6 0.1 -0.1
v -0.6 0.1 -0.2
v -0.6 0.2 0.4
v -0.6 0.2 0.3
v -0.6 0.2 -0.1
v -0.6 0.2 -0.2
v -0.4 0.1 0.5
v -0.4 0.1 0.4
v -0.4 0.1 0.1
v -0.4 0.1 0
v -0.4 0.1 -0.4
v -0.4 0.1 -0.5
v -0.4 0.2 0.5
v -0.4 0.2 0.4
v -0.4 0.2 0.1
v -0.4 0.2 0
v -0.4 0.2 -0.4
v -0.4 0.2 -0.5
v -0.1 0.1 0.2
v -0.1 0.1 0.1
v -0.1 0.1 -0.2
v -0.1 0.1 -0.3
v -0.1 0.1 -0.5
v -0.1 0.1 -0.6
v -0.1 0.2 0.2
v -0.1 0.2 0.1
v -0.1 0.2 -0.2
v -0.1 0.2 -0.3
v -0.1 0.2 -0.5
v -0.1 0.2 -0.6
v 0.1 0.1 0.4
v 0.1 0.1 0.3
v 0.1 0.1 -0.1
v 0.1 0.1 -0.2
v 0.1 0.2 0.4
v 0.1 0.2 0.3
v 0.1 0.2 -0.1
v 0.1 0.2 -0.2
v 0.4 0.1 0.3
v 0.4 0.1 0.2
v 0.4 0.1 0.1
v 0.4 0.1 0
v 0.4 0.1 -0.4
v 0.4 0.1 -0.5
v 0.4 0.2 0.3
v 0.4 0.2 0.2
v 0.4 0.2 0.1
v 0.4 0.2 0
v 0.4 0.2 -0.4
v 0.4 0.2 -0.5
v 0.5 0.1 -0.1
v 0.5 0.1 -0.2
v 0.5 0.2 -0.1
v 0.5 0.2 -0.2
v 0.7 0.1 0.5
v 0.7 0.1 0.4
v 0.7 0.2 0.5
v 0.7 0.2 0.4
v -0.5 0.1 0.4
v -0.5 0.1 0.3
v -0.5 0.1 -0.1
v -0.5 0.1 -0.2
v -0.5 0.2 0.4
v -0.5 0.2 0.3
v -0.5 0.2 -0.1
v -0.5 0.2 -0.2
v -0.3 0.1 0.5
v -0.3 0.1 0.4
v -0.3 0.1 0.1
v -0.3 0.1 0
v -0.3 0.1 -0.4
v -0.3 0.1 -0.5
v -0.3 0.2 0.5
v -0.3 0.2 0.4
v -0.3 0.2 0.1
v -0.3 0.2 0
v -0.3 0.2 -0.4
v -0.3 0.2 -0.5
v 0 0.1 0.2
v 0 0.1 0.1
v 0 0.1 -0.2
v 0 0.1 -0.3
v 0 0.1 -0.5
v 0 0.1 -0.6
v 0 0.2 0.2
v 0 0.2 0.1
v 0 0.2 -0.2
v 0 0.2 -0.3
v 0 0.2 -0.5
v 0 0.2 -0.6
v 0.2 0.1 0.4
v 0.2 0.1 0.3
v 0.2 0.1 -0.1
v 0.2 0.1 -0.2
v 0.2 0.2 0.4
v 0.2 0.2 0.3
v 0.2 0.2 -0.1
v 0.2 0.2 -0.2
v 0.5 0.1 0.3
v 0.5 0.1 0.2
v 0.5 0.1 0.1
v 0.5 0.1 0
v 0.5 0.1 -0.4
v 0.5 0.1 -0.5
v 0.5 0.2 0.3
v 0.5 0.2 0.2
v 0.5 0.2 0.1
v 0.5 0.2 0
v 0.5 0.2 -0.4
v 0.5 0.2 -0.5
v 0.6 0.1 -0.1
v 0.6 0.1 -0.2
v 0.6 0.2 -0.1
v 0.6 0.2 -0.2
v 0.8 0 0.6
v 0.8 0 0.5
v 0.8 0 0.3
v 0.8 0 -0.8
v 0.8 0.1 0.6
v 0.8 0.1 0.5
v 0.8 0.1 0.4
v 0.8 0.1 0.3
v 0.8 0.1 -0.8
v 0.8 0.2 0.5
v 0.8 0.2 0.4
v -0.8 0 0.6
v -0.8 0.1 0.6
v -0.5 0 0.6
v -0.5 0.1 0.6
v 0.5 0 0.6
v 0.5 0.1 0.6
v 0.8 0 0.6
v 0.8 0.1 0.6
v -0.4 0.1 0.5
v -0.4 0.2 0.5
v -0.3 0.1 0.5
v -0.3 0.2 0.5
v 0.7 0.1 0.5
v 0.7 0.2 0.5
v 0.8 0.1 0.5
v 0.8 0.2 0.5
v -0.6 0.1 0.4
v -0.6 0.2 0.4
v -0.5 0.1 0.4
v -0.5 0.2 0.4
v 0.1 0.1 0.4
v 0.1 0.2 0.4
v 0.2 0.1 0.4
v 0.2 0.2 0.4
v 0.4 0.1 0.3
v 0.4 0.2 0.3
v 0.5 0.1 0.3
v 0.5 0.2 0.3
v -0.1 0.1 0.2
v -0.1 0.2 0.2
v 0 0.1 0.2
v 0 0.2 0.2
v -0.4 0.1 0.1
v -0.4 0.2 0.1
v -0.3 0.1 0.1
v -0.3 0.2 0.1
v 0.4 0.1 0.1
v 0.4 0.2 0.1
v 0.5 0.1 0.1
v 0.5 0.2 0.1
v -0.6 0.1 -0.1
v -0.6 0.2 -0.1
v -0.5 0.1 -0.1
v -0.5 0.2 -0.1
v 0.1 0.1 -0.1
v 0.1 0.2 -0.1
v 0.2 0.1 -0.1
v 0.2 0.2 -0.1
v 0.5 0.1 -0.1
v 0.5 0.2 -0.1
v 0.6 0.1 -0.1
v 0.6 0.2 -0.1
v -0.1 0.1 -0.2
v -0.1 0.2 -0.2
v 0 0.1 -0.2
v 0 0.2 -0.2
v -0.4 0.1 -0.4
v -0.4 0.2 -0.4
v -0.3 0.1 -0.4
v -0.3 0.2 -0.4
v 0.4 0.1 -0.4
v 0.4 0.2 -0.4
v 0.5 0.1 -0.4
v 0.5 0.2 -0.4
v -0.1 0.1 -0.5
v -0.1 0.2 -0.5
v 0 0.1 -0.5
v 0 0.2 -0.5
v -0.4 0.1 0.4
v -0.4 0.2 0.4
v -0.3 0.1 0.4
v -0.3 0.2 0.4
v 0.7 0.1 0.4
v 0.7 0.2 0.4
v 0.8 0.1 0.4
v 0.8 0.2 0.4
v -0.6 0.1 0.3
v -0.6 0.2 0.3
v -0.5 0.1 0.3
v -0.5 0.2 0.3
v 0.1 0.1 0.3
v 0.1 0.2 0.3
v 0.2 0.1 0.3
v 0.2 0.2 0.3
v 0.4 0.1 0.2
v 0.4 0.2 0.2
v 0.5 0.1 0.2
v 0.5 0.2 0.2
v -0.1 0.1 0.1
v -0.1 0.2 0.1
v 0 0.1 0.1
v 0 0.2 0.1
v -0.4 0.1 0
v -0.4 0.2 0
v -0.3 0.1 0
v -0.3 0.2 0
v 0.4 0.1 0
v 0.4 0.2 0
v 0.5 0.1 0
v 0.5 0.2 0
v -0.6 0.1 -0.2
v -0.6 0.2 -0.2
v -0.5 0.1 -0.2
v -0.5 0.2 -0.2
v 0.1 0.1 -0.2
v 0.1 0.2 -0.2
v 0.2 0.1 -0.2
v 0.2 0.2 -0.2
v 0.5 0.1 -0.2
v 0.5 0.2 -0.2
v 0.6 0.1 -0.2
v 0.6 0.2 -0.2
v -0.1 0.1 -0.3
v -0.1 0.2 -0.3
v 0 0.1 -0.3
v 0 0.2 -0.3
v -0.4 0.1 -0.5
v -0.4 0.2 -0.5
v -0.3 0.1 -0.5
v -0.3 0.2 -0.5
v 0.4 0.1 -0.5
v 0.4 0.2 -0.5
v 0.5 0.1 -0.5
v 0.5 0.2 -0.5
v -0.1 0.1 -0.6
v -0.1 0.2 -0.6
v 0 0.1 -0.6
v 0 0.2 -0.6
v -0.8 0 -0.8
v -0.8 0.1 -0.8
v 0.8 0 -0.8
v 0.8 0.1 -0.8
v -0.8 0 0.6
v -0.5 0 0.6
v 0.5 0 0.6
v 0.8 0 0.6
v -0.8 0 0.5
v -0.7 0 0.5
v -0.5 0 0.5
v 0.2 0 0.5
v 0.3 0 0.5
v 0.5 0 0.5
v 0.8 0 0.5
v 0.1 0 0.4
v 0.2 0 0.4
v -0.7 0 0.3
v -0.6 0 0.3
v -0.1 0 0.3
v 0.1 0 0.3
v 0.3 0 0.3
v 0.4 0 0.3
v 0.7 0 0.3
v 0.8 0 0.3
v -0.6 0 0.2
v -0.5 0 0.2
v -0.2 0 0.2
v -0.1 0 0.2
v 0.4 0 0.2
v 0.7 0 0.2
v -0.2 0 -0.1
v -0.1 0 -0.1
v -0.1 0 -0.3
v 0.1 0 -0.3
v 0 0 -0.4
v 0.1 0 -0.4
v -0.1 0 -0.5
v 0 0 -0.5
v -0.5 0 -0.6
v -0.1 0 -0.6
v -0.8 0 -0.8
v 0.8 0 -0.8
v -0.8 0.1 0.6
v -0.5 0.1 0.6
v 0.5 0.1 0.6
v 0.8 0.1 0.6
v -0.8 0.1 0.5
v -0.7 0.1 0.5
v -0.5 0.1 0.5
v -0.4 0.1 0.5
v -0.3 0.1 0.5
v 0.2 0.1 0.5
v 0.3 0.1 0.5
v 0.5 0.1 0.5
v 0.7 0.1 0.5
v 0.8 0.1 0.5
v -0.6 0.1 0.4
v -0.5 0.1 0.4
v -0.4 0.1 0.4
v -0.3 0.1 0.4
v 0.1 0.1 0.4
v 0.2 0.1 0.4
v 0.7 0.1 0.4
v 0.8 0.1 0.4
v -0.7 0.1 0.3
v -0.6 0.1 0.3
v -0.5 0.1 0.3
v -0.1 0.1 0.3
v 0.1 0.1 0.3
v 0.2 0.1 0.3
v 0.3 0.1 0.3
v 0.4 0.1 0.3
v 0.5 0.1 0.3
v 0.7 0.1 0.3
v 0.8 0.1 0.3
v -0.6 0.1 0.2
v -0.5 0.1 0.2
v -0.2 0.1 0.2
v -0.1 0.1 0.2
v 0 0.1 0.2
v 0.4 0.1 0.2
v 0.5 0.1 0.2
v 0.7 0.1 0.2
v -0.4 0.1 0.1
v -0.3 0.1 0.1
v -0.1 0.1 0.1
v 0 0.1 0.1
v 0.4 0.1 0.1
v 0.5 0.1 0.1
v -0.4 0.1 0
v -0.3 0.1 0
v 0.4 0.1 0
v 0.5 0.1 0
v -0.6 0.1 -0.1
v -0.5 0.1 -0.1
v -0.2 0.1 -0.1
v -0.1 0.1 -0.1
v 0.1 0.1 -0.1
v 0.2 0.1 -0.1
v 0.5 0.1 -0.1
v 0.6 0.1 -0.1
v -0.6 0.1 -0.2
v -0.5 0.1 -0.2
v -0.1 0.1 -0.2
v 0 0.1 -0.2
v 0.1 0.1 -0.2
v 0.2 0.1 -0.2
v 0.5 0.1 -0.2
v 0.6 0.1 -0.2
v -0.1 0.1 -0.3
v 0 0.1 -0.3
v 0.1 0.1 -0.3
v -0.4 0.1 -0.4
v -0.3 0.1 -0.4
v 0 0.1 -0.4
v 0.1 0.1 -0.4
v 0.4 0.1 -0.4
v 0.5 0.1 -0.4
v -0.4 0.1 -0.5
v -0.3 0.1 -0.5
v -0.1 0.1 -0.5
v 0 0.1 -0.5
v 0.4 0.1 -0.5
v 0.5 0.1 -0.5
v -0.5 0.1 -0.6
v -0.1 0.1 -0.6
v 0 0.1 -0.6
v -0.8 0.1 -0.8
v 0.8 0.1 -0.8
v -0.4 0.2 0.5
v -0.3 0.2 0.5
v 0.7 0.2 0.5
v 0.8 0.2 0.5
v -0.6 0.2 0.4
v -0.5 0.2 0.4
v -0.4 0.2 0.4
v -0.3 0.2 0.4
v 0.1 0.2 0.4
v 0.2 0.2 0.4
v 0.7 0.2 0.4
v 0.8 0.2 0.4
v -0.6 0.2 0.3
v -0.5 0.2 0.3
v 0.1 0.2 0.3
v 0.2 0.2 0.3
v 0.4 0.2 0.3
v 0.5 0.2 0.3
v -0.1 0.2 0.2
v 0 0.2 0.2
v 0.4 0.2 0.2
v 0.5 0.2 0.2
v -0.4 0.2 0.1
v -0.3 0.2 0.1
v -0.1 0.2 0.1
v 0 0.2 0.1
v 0.4 0.2 0.1
v 0.5 0.2 0.1
v -0.4 0.2 0
v -0.3 0.2 0
v 0.4 0.2 0
v 0.5 0.2 0
v -0.6 0.2 -0.1
v -0.5 0.2 -0.1
v 0.1 0.2 -0.1
v 0.2 0.2 -0.1
v 0.5 0.2 -0.1
v 0.6 0.2 -0.1
v -0.6 0.2 -0.2
v -0.5 0.2 -0.2
v -0.1 0.2 -0.2
v 0 0.2 -0.2
v 0.1 0.2 -0.2
v 0.2 0.2 -0.2
v 0.5 0.2 -0.2
v 0.6 0.2 -0.2
v -0.1 0.2 -0.3
v 0 0.2 -0.3
v -0.4 0.2 -0.4
v -0.3 0.2 -0.4
v 0.4 0.2 -0.4
v 0.5 0.2 -0.4
v -0.4 0.2 -0.5
v -0.3 0.2 -0.5
v -0.1 0.2 -0.5
v 0 0.2 -0.5
v 0.4 0.2 -0.5
v 0.5 0.2 -0.5
v -0.1 0.2 -0.6
v 0 0.2 -0.6

# faces
f 4/4/1 2/4/1 1/4/1
f 5/2/1 3/2/1 2/2/1
f 5/4/1 2/4/1 4/4/1
f 6/2/1 3/2/1 5/2/1
f 11/2/1 8/2/1 7/2/1
f 12/2/1 8/2/1 11/2/1
f 13/2/1 10/2/1 9/2/1
f 14/2/1 10/2/1 13/2/1
f 21/1/1 16/1/1 15/1/1
f 22/1/1 16/1/1 21/1/1
f 23/1/1 18/1/1 17/1/1
f 24/1/1 18/1/1 23/1/1
f 25/1/1 20/1/1 19/1/1
f 26/1/1 20/1/1 25/1/1
f 33/2/1 28/2/1 27/2/1
f 34/2/1 28/2/1 33/2/1
f 35/1/1 30/1/1 29/1/1
f 36/1/1 30/1/1 35/1/1
f 37/1/1 32/1/1 31/1/1
f 38/1/1 32/1/1 37/1/1
f 43/2/1 40/2/1 39/2/1
f 44/2/1 40/2/1 43/2/1
f 45/2/1 42/2/1 41/2/1
f 46/2/1 42/2/1 45/2/1
f 53/1/1 48/1/1 47/1/1
f 54/1/1 48/1/1 53/1/1
f 55/2/1 50/2/1 49/2/1
f 56/2/1 50/2/1 55/2/1
f 57/2/1 52/2/1 51/2/1
f 58/2/1 52/2/1 57/2/1
f 61/2/1 60/2/1 59/2/1
f 62/2/1 60/2/1 61/2/1
f 65/1/1 64/1/1 63/1/1
f 66/1/1 64/1/1 65/1/1
f 67/2/2 68/2/2 71/2/2
f 71/2/2 68/2/2 72/2/2
f 69/2/2 70/2/2 73/2/2
f 73/2/2 70/2/2 74/2/2
f 75/1/2 76/1/2 81/1/2
f 81/1/2 76/1/2 82/1/2
f 77/1/2 78/1/2 83/1/2
f 83/1/2 78/1/2 84/1/2
f 79/1/2 80/1/2 85/1/2
f 85/1/2 80/1/2 86/1/2
f 87/2/2 88/2/2 93/2/2
f 93/2/2 88/2/2 94/2/2
f 89/1/2 90/1/2 95/1/2
f 95/1/2 90/1/2 96/1/2
f 91/1/2 92/1/2 97/1/2
f 97/1/2 92/1/2 98/1/2
f 99/2/2 100/2/2 103/2/2
f 103/2/2 100/2/2 104/2/2
f 101/2/2 102/2/2 105/2/2
f 105/2/2 102/2/2 106/2/2
f 107/1/2 108/1/2 113/1/2
f 113/1/2 108/1/2 114/1/2
f 109/2/2 110/2/2 115/2/2
f 115/2/2 110/2/2 116/2/2
f 111/2/2 112/2/2 117/2/2
f 117/2/2 112/2/2 118/2/2
f 119/2/2 120/2/2 121/2/2
f 121/2/2 120/2/2 122/2/2
f 123/4/2 124/4/2 127/4/2
f 124/1/2 125/1/2 128/1/2
f 127/4/2 124/4/2 128/4/2
f 128/1/2 125/1/2 129/1/2
f 125/2/2 126/2/2 130/2/2
f 129/1/2 125/1/2 130/1/2
f 130/2/2 126/2/2 131/2/2
f 128/1/2 129/1/2 132/1/2
f 132/1/2 129/1/2 133/1/2
f 136/4/3 135/4/3 134/4/3
f 137/4/3 135/4/3 136/4/3
f 138/3/3 137/3/3 136/3/3
f 139/3/3 137/3/3 138/3/3
f 140/4/3 139/4/3 138/4/3
f 141/4/3 139/4/3 140/4/3
f 144/1/3 143/1/3 142/1/3
f 145/1/3 143/1/3 144/1/3
f 148/1/3 147/1/3 146/1/3
f 149/1/3 147/1/3 148/1/3
f 152/2/3 151/2/3 150/2/3
f 153/2/3 151/2/3 152/2/3
f 156/2/3 155/2/3 154/2/3
f 157/2/3 155/2/3 156/2/3
f 160/1/3 159/1/3 158/1/3
f 161/1/3 159/1/3 160/1/3
f 164/2/3 163/2/3 162/2/3
f 165/2/3 163/2/3 164/2/3
f 168/1/3 167/1/3 166/1/3
f 169/1/3 167/1/3 168/1/3
f 172/2/3 171/2/3 170/2/3
f 173/2/3 171/2/3 172/2/3
f 176/2/3 175/2/3 174/2/3
f 177/2/3 175/2/3 176/2/3
f 180/2/3 179/2/3 178/2/3
f 181/2/3 179/2/3 180/2/3
f 184/2/3 183/2/3 182/2/3
f 185/2/3 183/2/3 184/2/3
f 188/1/3 187/1/3 186/1/3
f 189/1/3 187/1/3 188/1/3
f 192/1/3 191/1/3 190/1/3
f 193/1/3 191/1/3 192/1/3
f 196/2/3 195/2/3 194/2/3
f 197/2/3 195/2/3 196/2/3
f 200/1/3 199/1/3 198/1/3
f 201/1/3 199/1/3 200/1/3
f 202/1/4 203/1/4 204/1/4
f 204/1/4 203/1/4 205/1/4
f 206/1/4 207/1/4 208/1/4
f 208/1/4 207/1/4 209/1/4
f 210/2/4 211/2/4 212/2/4
f 212/2/4 211/2/4 213/2/4
f 214/2/4 215/2/4 216/2/4
f 216/2/4 215/2/4 217/2/4
f 218/1/4 219/1/4 220/1/4
f 220/1/4 219/1/4 221/1/4
f 222/2/4 223/2/4 224/2/4
f 224/2/4 223/2/4 225/2/4
f 226/1/4 227/1/4 228/1/4
f 228/1/4 227/1/4 229/1/4
f 230/2/4 231/2/4 232/2/4
f 232/2/4 231/2/4 233/2/4
f 234/2/4 235/2/4 236/2/4
f 236/2/4 235/2/4 237/2/4
f 238/2/4 239/2/4 240/2/4
f 240/2/4 239/2/4 241/2/4
f 242/2/4 243/2/4 244/2/4
f 244/2/4 243/2/4 245/2/4
f 246/1/4 247/1/4 248/1/4
f 248/1/4 247/1/4 249/1/4
f 250/1/4 251/1/4 252/1/4
f 252/1/4 251/1/4 253/1/4
f 254/2/4 255/2/4 256/2/4
f 256/2/4 255/2/4 257/2/4
f 258/1/4 259/1/4 260/1/4
f 260/1/4 259/1/4 261/1/4
f 262/2/4 263/2/4 264/2/4
f 264/2/4 263/2/4 265/2/4
f 270/4/5 267/4/5 266/4/5
f 271/4/5 267/4/5 270/4/5
f 272/3/5 268/3/5 267/3/5
f 272/4/5 267/4/5 271/4/5
f 273/3/5 268/3/5 272/3/5
f 274/3/5 268/3/5 273/3/5
f 275/4/5 269/4/5 268/4/5
f 275/3/5 268/3/5 274/3/5
f 276/4/5 269/4/5 275/4/5
f 277/1/5 272/1/5 271/1/5
f 277/1/5 273/1/5 272/1/5
f 278/2/5 274/2/5 273/2/5
f 278/1/5 273/1/5 277/1/5
f 279/1/5 277/1/5 271/1/5
f 279/2/5 271/2/5 270/2/5
f 280/1/5 277/1/5 279/1/5
f 281/1/5 277/1/5 280/1/5
f 282/2/5 278/2/5 277/2/5
f 282/1/5 277/1/5 281/1/5
f 283/2/5 274/2/5 278/2/5
f 283/2/5 278/2/5 282/2/5
f 283/1/5 276/1/5 275/1/5
f 283/1/5 275/1/5 274/1/5
f 284/1/5 276/1/5 283/1/5
f 285/1/5 276/1/5 284/1/5
f 286/1/5 276/1/5 285/1/5
f 287/1/5 281/1/5 280/1/5
f 287/2/5 280/2/5 279/2/5
f 288/1/5 281/1/5 287/1/5
f 289/1/5 281/1/5 288/1/5
f 290/2/5 282/2/5 281/2/5
f 290/1/5 281/1/5 289/1/5
f 290/2/5 283/2/5 282/2/5
f 290/2/5 284/2/5 283/2/5
f 291/1/5 285/1/5 284/1/5
f 291/2/5 284/2/5 290/2/5
f 292/2/5 286/2/5 285/2/5
f 292/1/5 285/1/5 291/1/5
f 293/1/5 289/1/5 288/1/5
f 293/2/5 291/2/5 290/2/5
f 293/2/5 292/2/5 291/2/5
f 293/2/5 290/2/5 289/2/5
f 294/2/5 292/2/5 293/2/5
f 295/1/5 294/1/5 293/1/5
f 295/2/5 292/2/5 294/2/5
f 296/2/5 292/2/5 295/2/5
f 297/1/5 296/1/5 295/1/5
f 298/2/5 292/2/5 296/2/5
f 298/1/5 296/1/5 297/1/5
f 299/1/5 295/1/5 293/1/5
f 299/1/5 297/1/5 295/1/5
f 300/2/5 298/2/5 297/2/5
f 300/1/5 297/1/5 299/1/5
f 301/2/5 288/2/5 287/2/5
f 301/1/5 293/1/5 288/1/5
f 301/1/5 299/1/5 293/1/5
f 302/2/5 300/2/5 299/2/5
f 302/1/5 299/1/5 301/1/5
f 303/2/5 287/2/5 279/2/5
f 303/2/5 279/2/5 270/2/5
f 303/2/5 302/2/5 301/2/5
f 303/2/5 301/2/5 287/2/5
f 304/2/5 286/2/5 292/2/5
f 304/2/5 302/2/5 303/2/5
f 304/2/5 300/2/5 302/2/5
f 304/2/5 298/2/5 300/2/5
f 304/2/5 292/2/5 298/2/5
f 305/4/6 306/4/6 309/4/6
f 309/4/6 306/4/6 310/4/6
f 306/3/6 307/3/6 311/3/6
f 310/4/6 306/4/6 311/4/6
f 311/3/6 307/3/6 312/3/6
f 312/3/6 307/3/6 313/3/6
f 313/3/6 307/3/6 314/3/6
f 314/3/6 307/3/6 315/3/6
f 307/4/6 308/4/6 316/4/6
f 315/3/6 307/3/6 316/3/6
f 316/4/6 308/4/6 317/4/6
f 317/4/6 308/4/6 318/4/6
f 310/1/6 311/1/6 319/1/6
f 311/1/6 312/1/6 319/1/6
f 319/1/6 312/1/6 320/1/6
f 320/1/6 312/1/6 321/1/6
f 313/1/6 314/1/6 322/1/6
f 322/1/6 314/1/6 323/1/6
f 314/2/6 315/2/6 324/2/6
f 323/1/6 314/1/6 324/1/6
f 316/1/6 317/1/6 325/1/6
f 315/1/6 316/1/6 325/1/6
f 309/2/6 310/2/6 327/2/6
f 310/1/6 319/1/6 327/1/6
f 327/1/6 319/1/6 328/1/6
f 322/1/6 323/1/6 329/1/6
f 320/1/6 321/1/6 329/1/6
f 321/1/6 322/1/6 329/1/6
f 329/1/6 323/1/6 330/1/6
f 330/1/6 323/1/6 331/1/6
f 324/2/6 315/2/6 332/2/6
f 325/1/6 326/1/6 333/1/6
f 315/1/6 325/1/6 333/1/6
f 332/2/6 315/2/6 333/2/6
f 333/1/6 326/1/6 334/1/6
f 334/1/6 326/1/6 335/1/6
f 335/1/6 326/1/6 336/1/6
f 336/1/6 326/1/6 337/1/6
f 327/2/6 328/2/6 338/2/6
f 328/1/6 329/1/6 338/1/6
f 329/1/6 330/1/6 338/1/6
f 338/1/6 330/1/6 339/1/6
f 339/1/6 330/1/6 340/1/6
f 331/2/6 332/2/6 341/2/6
f 340/1/6 330/1/6 341/1/6
f 330/2/6 331/2/6 341/2/6
f 332/2/6 333/2/6 341/2/6
f 333/2/6 334/2/6 341/2/6
f 341/2/6 334/2/6 342/2/6
f 342/2/6 334/2/6 343/2/6
f 335/1/6 336/1/6 344/1/6
f 336/2/6 337/2/6 345/2/6
f 344/1/6 336/1/6 345/1/6
f 339/1/6 340/1/6 346/1/6
f 346/1/6 340/1/6 347/1/6
f 340/2/6 341/2/6 348/2/6
f 343/2/6 344/2/6 349/2/6
f 342/2/6 343/2/6 349/2/6
f 344/2/6 345/2/6 349/2/6
f 349/2/6 345/2/6 350/2/6
f 350/2/6 345/2/6 351/2/6
f 339/1/6 346/1/6 352/1/6
f 347/1/6 340/1/6 353/1/6
f 349/2/6 350/2/6 354/2/6
f 348/2/6 349/2/6 354/2/6
f 351/2/6 345/2/6 355/2/6
f 338/2/6 339/2/6 356/2/6
f 327/2/6 338/2/6 356/2/6
f 339/1/6 352/1/6 357/1/6
f 356/2/6 339/2/6 357/2/6
f 352/1/6 353/1/6 357/1/6
f 354/2/6 355/2/6 358/2/6
f 357/1/6 353/1/6 358/1/6
f 340/2/6 348/2/6 358/2/6
f 348/2/6 354/2/6 358/2/6
f 353/1/6 340/1/6 358/1/6
f 358/2/6 355/2/6 359/2/6
f 359/2/6 355/2/6 360/2/6
f 360/2/6 355/2/6 361/2/6
f 355/2/6 345/2/6 362/2/6
f 361/2/6 355/2/6 362/2/6
f 362/2/6 345/2/6 363/2/6
f 327/2/6 356/2/6 364/2/6
f 357/1/6 358/1/6 365/1/6
f 358/1/6 359/1/6 365/1/6
f 359/2/6 360/2/6 366/2/6
f 365/1/6 359/1/6 366/1/6
f 366/2/6 360/2/6 367/2/6
f 367/2/6 360/2/6 368/2/6
f 361/2/6 362/2/6 369/2/6
f 369/2/6 362/2/6 370/2/6
f 363/2/6 345/2/6 371/2/6
f 365/1/6 366/1/6 372/1/6
f 369/2/6 370/2/6 373/2/6
f 367/2/6 368/2/6 373/2/6
f 370/2/6 371/2/6 373/2/6
f 368/2/6 369/2/6 373/2/6
f 373/2/6 371/2/6 374/2/6
f 365/1/6 372/1/6 375/1/6
f 372/1/6 373/1/6 375/1/6
f 373/1/6 374/1/6 375/1/6
f 375/1/6 374/1/6 376/1/6
f 376/1/6 374/1/6 377/1/6
f 374/2/6 371/2/6 378/2/6
f 377/1/6 374/1/6 378/1/6
f 378/2/6 371/2/6 379/2/6
f 379/2/6 371/2/6 380/2/6
f 365/1/6 375/1/6 381/1/6
f 376/1/6 377/1/6 382/1/6
f 382/1/6 377/1/6 383/1/6
f 378/2/6 379/2/6 384/2/6
f 383/1/6 377/1/6 384/1/6
f 377/2/6 378/2/6 384/2/6
f 384/2/6 379/2/6 385/2/6
f 380/2/6 371/2/6 386/2/6
f 365/1/6 381/1/6 387/1/6
f 364/2/6 365/2/6 387/2/6
f 382/1/6 383/1/6 387/1/6
f 381/1/6 382/1/6 387/1/6
f 387/1/6 383/1/6 388/1/6
f 385/2/6 386/2/6 389/2/6
f 384/2/6 385/2/6 389/2/6
f 387/2/6 388/2/6 390/2/6
f 388/2/6 389/2/6 390/2/6
f 309/2/6 327/2/6 390/2/6
f 327/2/6 364/2/6 390/2/6
f 364/2/6 387/2/6 390/2/6
f 345/2/6 337/2/6 391/2/6
f 390/2/6 389/2/6 391/2/6
f 389/2/6 386/2/6 391/2/6
f 386/2/6 371/2/6 391/2/6
f 371/2/6 345/2/6 391/2/6
f 392/1/6 393/1/6 398/1/6
f 398/1/6 393/1/6 399/1/6
f 394/1/6 395/1/6 402/1/6
f 402/1/6 395/1/6 403/1/6
f 396/2/6 397/2/6 404/2/6
f 404/2/6 397/2/6 405/2/6
f 400/2/6 401/2/6 406/2/6
f 406/2/6 401/2/6 407/2/6
f 408/1/6 409/1/6 412/1/6
f 412/1/6 409/1/6 413/1/6
f 410/2/6 411/2/6 416/2/6
f 416/2/6 411/2/6 417/2/6
f 414/1/6 415/1/6 420/1/6
f 420/1/6 415/1/6 421/1/6
f 418/2/6 419/2/6 422/2/6
f 422/2/6 419/2/6 423/2/6
f 424/2/6 425/2/6 430/2/6
f 430/2/6 425/2/6 431/2/6
f 426/2/6 427/2/6 434/2/6
f 434/2/6 427/2/6 435/2/6
f 428/2/6 429/2/6 436/2/6
f 436/2/6 429/2/6 437/2/6
f 432/1/6 433/1/6 438/1/6
f 438/1/6 433/1/6 439/1/6
f 440/1/6 441/1/6 444/1/6
f 444/1/6 441/1/6 445/1/6
f 442/2/6 443/2/6 448/2/6
f 448/2/6 443/2/6 449/2/6
f 446/1/6 447/1/6 450/1/6
f 450/1/6 447/1/6 451/1/6
