# MagicaVoxel @ Ephtracy

# group
o 

# material
mtllib _wall.mtl
usemtl palette

# normals
vn -1 0 0
vn 1 0 0
vn 0 0 1
vn 0 0 -1
vn 0 -1 0
vn 0 1 0

# texcoords
vt 0.966797 0.5
vt 0.970703 0.5

# verts
v -3.2 0 0.1
v -3.2 0 -0.2
v -3.2 0.2 0.1
v -3.2 0.2 -0.2
v -3.2 0.4 0.1
v -3.2 0.4 -0.2
v -3.2 0.8 0.1
v -3.2 0.8 -0.2
v -3.2 1 0.1
v -3.2 1 -0.2
v -3.2 1.4 0.1
v -3.2 1.4 -0.2
v -3.2 1.6 0.1
v -3.2 1.6 -0.2
v -3.2 2 0.1
v -3.2 2 -0.2
v 3.2 0 0.1
v 3.2 0 -0.2
v 3.2 0.5 0.1
v 3.2 0.5 -0.2
v 3.2 0.7 0.1
v 3.2 0.7 -0.2
v 3.2 1.1 0.1
v 3.2 1.1 -0.2
v 3.2 1.3 0.1
v 3.2 1.3 -0.2
v 3.2 1.7 0.1
v 3.2 1.7 -0.2
v 3.2 1.9 0.1
v 3.2 1.9 -0.2
v 3.2 2 0.1
v 3.2 2 -0.2
v -3.2 0 0.1
v -3.2 0.2 0.1
v -3.2 0.4 0.1
v -3.2 0.8 0.1
v -3.2 1 0.1
v -3.2 1.4 0.1
v -3.2 1.6 0.1
v -3.2 2 0.1
v -3.1 0.5 0.1
v -3.1 0.7 0.1
v -3.1 1.1 0.1
v -3.1 1.3 0.1
v -3.1 1.7 0.1
v -3.1 1.9 0.1
v -2.9 0.2 0.1
v -2.9 0.4 0.1
v -2.9 0.8 0.1
v -2.9 1 0.1
v -2.9 1.4 0.1
v -2.9 1.6 0.1
v -2.8 0.2 0.1
v -2.8 0.4 0.1
v -2.8 0.8 0.1
v -2.8 1 0.1
v -2.8 1.4 0.1
v -2.8 1.6 0.1
v -2.6 0.5 0.1
v -2.6 0.7 0.1
v -2.6 1.1 0.1
v -2.6 1.3 0.1
v -2.6 1.7 0.1
v -2.6 1.9 0.1
v -2.5 0.5 0.1
v -2.5 0.7 0.1
v -2.5 1.1 0.1
v -2.5 1.3 0.1
v -2.5 1.7 0.1
v -2.5 1.9 0.1
v -2.2 0.2 0.1
v -2.2 0.4 0.1
v -2.2 0.8 0.1
v -2.2 1 0.1
v -2.2 1.4 0.1
v -2.2 1.6 0.1
v -2.1 0.2 0.1
v -2.1 0.4 0.1
v -2.1 0.8 0.1
v -2.1 1 0.1
v -2.1 1.4 0.1
v -2.1 1.6 0.1
v -1.9 0.5 0.1
v -1.9 0.7 0.1
v -1.9 1.1 0.1
v -1.9 1.3 0.1
v -1.9 1.7 0.1
v -1.9 1.9 0.1
v -1.8 0.5 0.1
v -1.8 0.7 0.1
v -1.8 1.1 0.1
v -1.8 1.3 0.1
v -1.8 1.7 0.1
v -1.8 1.9 0.1
v -1.5 0.2 0.1
v -1.5 0.4 0.1
v -1.5 0.8 0.1
v -1.5 1 0.1
v -1.5 1.4 0.1
v -1.5 1.6 0.1
v -1.4 0.2 0.1
v -1.4 0.4 0.1
v -1.4 0.8 0.1
v -1.4 1 0.1
v -1.4 1.4 0.1
v -1.4 1.6 0.1
v -1.2 0.5 0.1
v -1.2 0.7 0.1
v -1.2 1.1 0.1
v -1.2 1.3 0.1
v -1.2 1.7 0.1
v -1.2 1.9 0.1
v -1.1 0.5 0.1
v -1.1 0.7 0.1
v -1.1 1.1 0.1
v -1.1 1.3 0.1
v -1.1 1.7 0.1
v -1.1 1.9 0.1
v -0.8 0.2 0.1
v -0.8 0.4 0.1
v -0.8 0.8 0.1
v -0.8 1 0.1
v -0.8 1.4 0.1
v -0.8 1.6 0.1
v -0.7 0.2 0.1
v -0.7 0.4 0.1
v -0.7 0.8 0.1
v -0.7 1 0.1
v -0.7 1.4 0.1
v -0.7 1.6 0.1
v -0.5 0.5 0.1
v -0.5 0.7 0.1
v -0.5 1.1 0.1
v -0.5 1.3 0.1
v -0.5 1.7 0.1
v -0.5 1.9 0.1
v -0.4 0.5 0.1
v -0.4 0.7 0.1
v -0.4 1.1 0.1
v -0.4 1.3 0.1
v -0.4 1.7 0.1
v -0.4 1.9 0.1
v -0.0999999 0.2 0.1
v -0.0999999 0.4 0.1
v -0.0999999 0.8 0.1
v -0.0999999 1 0.1
v -0.0999999 1.4 0.1
v -0.0999999 1.6 0.1
v 0 0.2 0.1
v 0 0.4 0.1
v 0 0.8 0.1
v 0 1 0.1
v 0 1.4 0.1
v 0 1.6 0.1
v 0.3 0.5 0.1
v 0.3 0.7 0.1
v 0.3 1.1 0.1
v 0.3 1.3 0.1
v 0.3 1.7 0.1
v 0.3 1.9 0.1
v 0.4 0.5 0.1
v 0.4 0.7 0.1
v 0.4 1.1 0.1
v 0.4 1.3 0.1
v 0.4 1.7 0.1
v 0.4 1.9 0.1
v 0.7 0.2 0.1
v 0.7 0.4 0.1
v 0.7 0.8 0.1
v 0.7 1 0.1
v 0.7 1.4 0.1
v 0.7 1.6 0.1
v 0.8 0.2 0.1
v 0.8 0.4 0.1
v 0.8 0.8 0.1
v 0.8 1 0.1
v 0.8 1.4 0.1
v 0.8 1.6 0.1
v 1.1 0.5 0.1
v 1.1 0.7 0.1
v 1.1 1.1 0.1
v 1.1 1.3 0.1
v 1.1 1.7 0.1
v 1.1 1.9 0.1
v 1.2 0.5 0.1
v 1.2 0.7 0.1
v 1.2 1.1 0.1
v 1.2 1.3 0.1
v 1.2 1.7 0.1
v 1.2 1.9 0.1
v 1.5 1.4 0.1
v 1.5 1.6 0.1
v 1.6 0.2 0.1
v 1.6 0.4 0.1
v 1.6 0.8 0.1
v 1.6 1 0.1
v 1.6 1.4 0.1
v 1.6 1.6 0.1
v 1.7 0.2 0.1
v 1.7 0.4 0.1
v 1.7 0.8 0.1
v 1.7 1 0.1
v 1.9 0.5 0.1
v 1.9 0.7 0.1
v 1.9 1.1 0.1
v 1.9 1.3 0.1
v 1.9 1.7 0.1
v 1.9 1.9 0.1
v 2 0.5 0.1
v 2 0.7 0.1
v 2 1.1 0.1
v 2 1.3 0.1
v 2 1.7 0.1
v 2 1.9 0.1
v 2.4 0.2 0.1
v 2.4 0.4 0.1
v 2.4 0.8 0.1
v 2.4 1 0.1
v 2.4 1.4 0.1
v 2.4 1.6 0.1
v 2.5 0.2 0.1
v 2.5 0.4 0.1
v 2.5 0.8 0.1
v 2.5 1 0.1
v 2.5 1.4 0.1
v 2.5 1.6 0.1
v 2.7 0.5 0.1
v 2.7 0.7 0.1
v 2.7 1.1 0.1
v 2.7 1.3 0.1
v 2.7 1.7 0.1
v 2.7 1.9 0.1
v 2.8 0.5 0.1
v 2.8 0.7 0.1
v 2.8 1.1 0.1
v 2.8 1.3 0.1
v 2.8 1.7 0.1
v 2.8 1.9 0.1
v 3.1 0.2 0.1
v 3.1 0.4 0.1
v 3.1 0.8 0.1
v 3.1 1 0.1
v 3.1 1.4 0.1
v 3.1 1.6 0.1
v 3.2 0 0.1
v 3.2 0.5 0.1
v 3.2 0.7 0.1
v 3.2 1.1 0.1
v 3.2 1.3 0.1
v 3.2 1.7 0.1
v 3.2 1.9 0.1
v 3.2 2 0.1
v -3.2 0 -0.2
v -3.2 0.2 -0.2
v -3.2 0.4 -0.2
v -3.2 0.8 -0.2
v -3.2 1 -0.2
v -3.2 1.4 -0.2
v -3.2 1.6 -0.2
v -3.2 2 -0.2
v -3.1 0.5 -0.2
v -3.1 0.7 -0.2
v -3.1 1.1 -0.2
v -3.1 1.3 -0.2
v -3.1 1.7 -0.2
v -3.1 1.9 -0.2
v -2.9 0.2 -0.2
v -2.9 0.4 -0.2
v -2.9 0.8 -0.2
v -2.9 1 -0.2
v -2.9 1.4 -0.2
v -2.9 1.6 -0.2
v -2.8 0.2 -0.2
v -2.8 0.4 -0.2
v -2.8 0.8 -0.2
v -2.8 1 -0.2
v -2.8 1.4 -0.2
v -2.8 1.6 -0.2
v -2.6 0.5 -0.2
v -2.6 0.7 -0.2
v -2.6 1.1 -0.2
v -2.6 1.3 -0.2
v -2.6 1.7 -0.2
v -2.6 1.9 -0.2
v -2.5 0.5 -0.2
v -2.5 0.7 -0.2
v -2.5 1.1 -0.2
v -2.5 1.3 -0.2
v -2.5 1.7 -0.2
v -2.5 1.9 -0.2
v -2.2 0.2 -0.2
v -2.2 0.4 -0.2
v -2.2 0.8 -0.2
v -2.2 1 -0.2
v -2.2 1.4 -0.2
v -2.2 1.6 -0.2
v -2.1 0.2 -0.2
v -2.1 0.4 -0.2
v -2.1 0.8 -0.2
v -2.1 1 -0.2
v -2.1 1.4 -0.2
v -2.1 1.6 -0.2
v -1.9 0.5 -0.2
v -1.9 0.7 -0.2
v -1.9 1.1 -0.2
v -1.9 1.3 -0.2
v -1.9 1.7 -0.2
v -1.9 1.9 -0.2
v -1.8 0.5 -0.2
v -1.8 0.7 -0.2
v -1.8 1.1 -0.2
v -1.8 1.3 -0.2
v -1.8 1.7 -0.2
v -1.8 1.9 -0.2
v -1.5 0.2 -0.2
v -1.5 0.4 -0.2
v -1.5 0.8 -0.2
v -1.5 1 -0.2
v -1.5 1.4 -0.2
v -1.5 1.6 -0.2
v -1.4 0.2 -0.2
v -1.4 0.4 -0.2
v -1.4 0.8 -0.2
v -1.4 1 -0.2
v -1.4 1.4 -0.2
v -1.4 1.6 -0.2
v -1.2 0.5 -0.2
v -1.2 0.7 -0.2
v -1.2 1.1 -0.2
v -1.2 1.3 -0.2
v -1.2 1.7 -0.2
v -1.2 1.9 -0.2
v -1.1 0.5 -0.2
v -1.1 0.7 -0.2
v -1.1 1.1 -0.2
v -1.1 1.3 -0.2
v -1.1 1.7 -0.2
v -1.1 1.9 -0.2
v -0.8 0.2 -0.2
v -0.8 0.4 -0.2
v -0.8 0.8 -0.2
v -0.8 1 -0.2
v -0.8 1.4 -0.2
v -0.8 1.6 -0.2
v -0.7 0.2 -0.2
v -0.7 0.4 -0.2
v -0.7 0.8 -0.2
v -0.7 1 -0.2
v -0.7 1.4 -0.2
v -0.7 1.6 -0.2
v -0.5 0.5 -0.2
v -0.5 0.7 -0.2
v -0.5 1.1 -0.2
v -0.5 1.3 -0.2
v -0.5 1.7 -0.2
v -0.5 1.9 -0.2
v -0.4 0.5 -0.2
v -0.4 0.7 -0.2
v -0.4 1.1 -0.2
v -0.4 1.3 -0.2
v -0.4 1.7 -0.2
v -0.4 1.9 -0.2
v -0.0999999 0.2 -0.2
v -0.0999999 0.4 -0.2
v -0.0999999 0.8 -0.2
v -0.0999999 1 -0.2
v -0.0999999 1.4 -0.2
v -0.0999999 1.6 -0.2
v 0 0.2 -0.2
v 0 0.4 -0.2
v 0 0.8 -0.2
v 0 1 -0.2
v 0 1.4 -0.2
v 0 1.6 -0.2
v 0.3 0.5 -0.2
v 0.3 0.7 -0.2
v 0.3 1.1 -0.2
v 0.3 1.3 -0.2
v 0.3 1.7 -0.2
v 0.3 1.9 -0.2
v 0.4 0.5 -0.2
v 0.4 0.7 -0.2
v 0.4 1.1 -0.2
v 0.4 1.3 -0.2
v 0.4 1.7 -0.2
v 0.4 1.9 -0.2
v 0.7 0.2 -0.2
v 0.7 0.4 -0.2
v 0.7 0.8 -0.2
v 0.7 1 -0.2
v 0.7 1.4 -0.2
v 0.7 1.6 -0.2
v 0.8 0.2 -0.2
v 0.8 0.4 -0.2
v 0.8 0.8 -0.2
v 0.8 1 -0.2
v 0.8 1.4 -0.2
v 0.8 1.6 -0.2
v 1.1 0.5 -0.2
v 1.1 0.7 -0.2
v 1.1 1.1 -0.2
v 1.1 1.3 -0.2
v 1.1 1.7 -0.2
v 1.1 1.9 -0.2
v 1.2 0.5 -0.2
v 1.2 0.7 -0.2
v 1.2 1.1 -0.2
v 1.2 1.3 -0.2
v 1.2 1.7 -0.2
v 1.2 1.9 -0.2
v 1.5 1.4 -0.2
v 1.5 1.6 -0.2
v 1.6 0.2 -0.2
v 1.6 0.4 -0.2
v 1.6 0.8 -0.2
v 1.6 1 -0.2
v 1.6 1.4 -0.2
v 1.6 1.6 -0.2
v 1.7 0.2 -0.2
v 1.7 0.4 -0.2
v 1.7 0.8 -0.2
v 1.7 1 -0.2
v 1.9 0.5 -0.2
v 1.9 0.7 -0.2
v 1.9 1.1 -0.2
v 1.9 1.3 -0.2
v 1.9 1.7 -0.2
v 1.9 1.9 -0.2
v 2 0.5 -0.2
v 2 0.7 -0.2
v 2 1.1 -0.2
v 2 1.3 -0.2
v 2 1.7 -0.2
v 2 1.9 -0.2
v 2.4 0.2 -0.2
v 2.4 0.4 -0.2
v 2.4 0.8 -0.2
v 2.4 1 -0.2
v 2.4 1.4 -0.2
v 2.4 1.6 -0.2
v 2.5 0.2 -0.2
v 2.5 0.4 -0.2
v 2.5 0.8 -0.2
v 2.5 1 -0.2
v 2.5 1.4 -0.2
v 2.5 1.6 -0.2
v 2.7 0.5 -0.2
v 2.7 0.7 -0.2
v 2.7 1.1 -0.2
v 2.7 1.3 -0.2
v 2.7 1.7 -0.2
v 2.7 1.9 -0.2
v 2.8 0.5 -0.2
v 2.8 0.7 -0.2
v 2.8 1.1 -0.2
v 2.8 1.3 -0.2
v 2.8 1.7 -0.2
v 2.8 1.9 -0.2
v 3.1 0.2 -0.2
v 3.1 0.4 -0.2
v 3.1 0.8 -0.2
v 3.1 1 -0.2
v 3.1 1.4 -0.2
v 3.1 1.6 -0.2
v 3.2 0 -0.2
v 3.2 0.5 -0.2
v 3.2 0.7 -0.2
v 3.2 1.1 -0.2
v 3.2 1.3 -0.2
v 3.2 1.7 -0.2
v 3.2 1.9 -0.2
v 3.2 2 -0.2
v -3.2 0 0.1
v 3.2 0 0.1
v -3.1 0 0
v -2.9 0 0
v -2.8 0 0
v 3.1 0 0
v -3.1 0 -0.1
v -2.9 0 -0.1
v -2.8 0 -0.1
v 3.1 0 -0.1
v -3.2 0 -0.2
v 3.2 0 -0.2
v -3.2 2 0.1
v 3.2 2 0.1
v -3.2 2 -0.2
v 3.2 2 -0.2

# faces
f 3/1/1 2/1/1 1/1/1
f 4/1/1 2/1/1 3/1/1
f 5/2/1 4/2/1 3/2/1
f 6/2/1 4/2/1 5/2/1
f 7/1/1 6/1/1 5/1/1
f 8/1/1 6/1/1 7/1/1
f 9/2/1 8/2/1 7/2/1
f 10/2/1 8/2/1 9/2/1
f 11/1/1 10/1/1 9/1/1
f 12/1/1 10/1/1 11/1/1
f 13/2/1 12/2/1 11/2/1
f 14/2/1 12/2/1 13/2/1
f 15/1/1 14/1/1 13/1/1
f 16/1/1 14/1/1 15/1/1
f 17/1/2 18/1/2 19/1/2
f 19/1/2 18/1/2 20/1/2
f 19/2/2 20/2/2 21/2/2
f 21/2/2 20/2/2 22/2/2
f 21/1/2 22/1/2 23/1/2
f 23/1/2 22/1/2 24/1/2
f 23/2/2 24/2/2 25/2/2
f 25/2/2 24/2/2 26/2/2
f 25/1/2 26/1/2 27/1/2
f 27/1/2 26/1/2 28/1/2
f 27/2/2 28/2/2 29/2/2
f 29/2/2 28/2/2 30/2/2
f 29/1/2 30/1/2 31/1/2
f 31/1/2 30/1/2 32/1/2
f 41/1/3 36/1/3 35/1/3
f 42/1/3 36/1/3 41/1/3
f 43/1/3 38/1/3 37/1/3
f 44/1/3 38/1/3 43/1/3
f 45/1/3 40/1/3 39/1/3
f 46/1/3 40/1/3 45/1/3
f 47/1/3 34/1/3 33/1/3
f 47/2/3 35/2/3 34/2/3
f 48/1/3 41/1/3 35/1/3
f 48/2/3 35/2/3 47/2/3
f 49/2/3 37/2/3 36/2/3
f 49/1/3 36/1/3 42/1/3
f 50/1/3 43/1/3 37/1/3
f 50/2/3 37/2/3 49/2/3
f 51/1/3 38/1/3 44/1/3
f 51/2/3 39/2/3 38/2/3
f 52/1/3 45/1/3 39/1/3
f 52/2/3 39/2/3 51/2/3
f 53/1/3 48/1/3 47/1/3
f 53/1/3 47/1/3 33/1/3
f 54/1/3 41/1/3 48/1/3
f 54/1/3 48/1/3 53/1/3
f 55/1/3 50/1/3 49/1/3
f 55/1/3 49/1/3 42/1/3
f 56/1/3 43/1/3 50/1/3
f 56/1/3 50/1/3 55/1/3
f 57/1/3 52/1/3 51/1/3
f 57/1/3 51/1/3 44/1/3
f 58/1/3 45/1/3 52/1/3
f 58/1/3 52/1/3 57/1/3
f 59/1/3 41/1/3 54/1/3
f 59/2/3 42/2/3 41/2/3
f 60/1/3 55/1/3 42/1/3
f 60/2/3 42/2/3 59/2/3
f 61/1/3 43/1/3 56/1/3
f 61/2/3 44/2/3 43/2/3
f 62/1/3 57/1/3 44/1/3
f 62/2/3 44/2/3 61/2/3
f 63/2/3 46/2/3 45/2/3
f 63/1/3 45/1/3 58/1/3
f 64/1/3 40/1/3 46/1/3
f 64/2/3 46/2/3 63/2/3
f 65/1/3 59/1/3 54/1/3
f 65/1/3 60/1/3 59/1/3
f 66/1/3 55/1/3 60/1/3
f 66/1/3 60/1/3 65/1/3
f 67/1/3 61/1/3 56/1/3
f 67/1/3 62/1/3 61/1/3
f 68/1/3 57/1/3 62/1/3
f 68/1/3 62/1/3 67/1/3
f 69/1/3 63/1/3 58/1/3
f 69/1/3 64/1/3 63/1/3
f 70/1/3 40/1/3 64/1/3
f 70/1/3 64/1/3 69/1/3
f 71/1/3 53/1/3 33/1/3
f 71/2/3 54/2/3 53/2/3
f 72/1/3 65/1/3 54/1/3
f 72/2/3 54/2/3 71/2/3
f 73/1/3 55/1/3 66/1/3
f 73/2/3 56/2/3 55/2/3
f 74/1/3 67/1/3 56/1/3
f 74/2/3 56/2/3 73/2/3
f 75/1/3 57/1/3 68/1/3
f 75/2/3 58/2/3 57/2/3
f 76/1/3 69/1/3 58/1/3
f 76/2/3 58/2/3 75/2/3
f 77/1/3 71/1/3 33/1/3
f 77/1/3 72/1/3 71/1/3
f 78/1/3 65/1/3 72/1/3
f 78/1/3 72/1/3 77/1/3
f 79/1/3 73/1/3 66/1/3
f 79/1/3 74/1/3 73/1/3
f 80/1/3 67/1/3 74/1/3
f 80/1/3 74/1/3 79/1/3
f 81/1/3 75/1/3 68/1/3
f 81/1/3 76/1/3 75/1/3
f 82/1/3 69/1/3 76/1/3
f 82/1/3 76/1/3 81/1/3
f 83/1/3 65/1/3 78/1/3
f 83/2/3 66/2/3 65/2/3
f 84/1/3 79/1/3 66/1/3
f 84/2/3 66/2/3 83/2/3
f 85/1/3 67/1/3 80/1/3
f 85/2/3 68/2/3 67/2/3
f 86/1/3 81/1/3 68/1/3
f 86/2/3 68/2/3 85/2/3
f 87/1/3 69/1/3 82/1/3
f 87/2/3 70/2/3 69/2/3
f 88/1/3 40/1/3 70/1/3
f 88/2/3 70/2/3 87/2/3
f 89/1/3 83/1/3 78/1/3
f 89/1/3 84/1/3 83/1/3
f 90/1/3 79/1/3 84/1/3
f 90/1/3 84/1/3 89/1/3
f 91/1/3 85/1/3 80/1/3
f 91/1/3 86/1/3 85/1/3
f 92/1/3 81/1/3 86/1/3
f 92/1/3 86/1/3 91/1/3
f 93/1/3 87/1/3 82/1/3
f 93/1/3 88/1/3 87/1/3
f 94/1/3 40/1/3 88/1/3
f 94/1/3 88/1/3 93/1/3
f 95/1/3 77/1/3 33/1/3
f 95/2/3 78/2/3 77/2/3
f 96/1/3 89/1/3 78/1/3
f 96/2/3 78/2/3 95/2/3
f 97/1/3 79/1/3 90/1/3
f 97/2/3 80/2/3 79/2/3
f 98/1/3 91/1/3 80/1/3
f 98/2/3 80/2/3 97/2/3
f 99/1/3 81/1/3 92/1/3
f 99/2/3 82/2/3 81/2/3
f 100/1/3 93/1/3 82/1/3
f 100/2/3 82/2/3 99/2/3
f 101/1/3 95/1/3 33/1/3
f 101/1/3 96/1/3 95/1/3
f 102/1/3 89/1/3 96/1/3
f 102/1/3 96/1/3 101/1/3
f 103/1/3 97/1/3 90/1/3
f 103/1/3 98/1/3 97/1/3
f 104/1/3 91/1/3 98/1/3
f 104/1/3 98/1/3 103/1/3
f 105/1/3 99/1/3 92/1/3
f 105/1/3 100/1/3 99/1/3
f 106/1/3 93/1/3 100/1/3
f 106/1/3 100/1/3 105/1/3
f 107/1/3 89/1/3 102/1/3
f 107/2/3 90/2/3 89/2/3
f 108/1/3 103/1/3 90/1/3
f 108/2/3 90/2/3 107/2/3
f 109/1/3 91/1/3 104/1/3
f 109/2/3 92/2/3 91/2/3
f 110/1/3 105/1/3 92/1/3
f 110/2/3 92/2/3 109/2/3
f 111/1/3 93/1/3 106/1/3
f 111/2/3 94/2/3 93/2/3
f 112/1/3 40/1/3 94/1/3
f 112/2/3 94/2/3 111/2/3
f 113/1/3 107/1/3 102/1/3
f 113/1/3 108/1/3 107/1/3
f 114/1/3 103/1/3 108/1/3
f 114/1/3 108/1/3 113/1/3
f 115/1/3 109/1/3 104/1/3
f 115/1/3 110/1/3 109/1/3
f 116/1/3 105/1/3 110/1/3
f 116/1/3 110/1/3 115/1/3
f 117/1/3 111/1/3 106/1/3
f 117/1/3 112/1/3 111/1/3
f 118/1/3 40/1/3 112/1/3
f 118/1/3 112/1/3 117/1/3
f 119/2/3 102/2/3 101/2/3
f 119/1/3 101/1/3 33/1/3
f 120/1/3 113/1/3 102/1/3
f 120/2/3 102/2/3 119/2/3
f 121/1/3 103/1/3 114/1/3
f 121/2/3 104/2/3 103/2/3
f 122/1/3 115/1/3 104/1/3
f 122/2/3 104/2/3 121/2/3
f 123/1/3 105/1/3 116/1/3
f 123/2/3 106/2/3 105/2/3
f 124/1/3 117/1/3 106/1/3
f 124/2/3 106/2/3 123/2/3
f 125/1/3 119/1/3 33/1/3
f 125/1/3 120/1/3 119/1/3
f 126/1/3 113/1/3 120/1/3
f 126/1/3 120/1/3 125/1/3
f 127/1/3 121/1/3 114/1/3
f 127/1/3 122/1/3 121/1/3
f 128/1/3 115/1/3 122/1/3
f 128/1/3 122/1/3 127/1/3
f 129/1/3 123/1/3 116/1/3
f 129/1/3 124/1/3 123/1/3
f 130/1/3 117/1/3 124/1/3
f 130/1/3 124/1/3 129/1/3
f 131/1/3 113/1/3 126/1/3
f 131/2/3 114/2/3 113/2/3
f 132/1/3 127/1/3 114/1/3
f 132/2/3 114/2/3 131/2/3
f 133/1/3 115/1/3 128/1/3
f 133/2/3 116/2/3 115/2/3
f 134/1/3 129/1/3 116/1/3
f 134/2/3 116/2/3 133/2/3
f 135/1/3 117/1/3 130/1/3
f 135/2/3 118/2/3 117/2/3
f 136/1/3 40/1/3 118/1/3
f 136/2/3 118/2/3 135/2/3
f 137/1/3 131/1/3 126/1/3
f 137/1/3 132/1/3 131/1/3
f 138/1/3 127/1/3 132/1/3
f 138/1/3 132/1/3 137/1/3
f 139/1/3 133/1/3 128/1/3
f 139/1/3 134/1/3 133/1/3
f 140/1/3 129/1/3 134/1/3
f 140/1/3 134/1/3 139/1/3
f 141/1/3 135/1/3 130/1/3
f 141/1/3 136/1/3 135/1/3
f 142/1/3 40/1/3 136/1/3
f 142/1/3 136/1/3 141/1/3
f 143/1/3 125/1/3 33/1/3
f 143/2/3 126/2/3 125/2/3
f 144/1/3 137/1/3 126/1/3
f 144/2/3 126/2/3 143/2/3
f 145/1/3 127/1/3 138/1/3
f 145/2/3 128/2/3 127/2/3
f 146/1/3 139/1/3 128/1/3
f 146/2/3 128/2/3 145/2/3
f 147/1/3 129/1/3 140/1/3
f 147/2/3 130/2/3 129/2/3
f 148/1/3 141/1/3 130/1/3
f 148/2/3 130/2/3 147/2/3
f 149/1/3 143/1/3 33/1/3
f 149/1/3 144/1/3 143/1/3
f 150/1/3 137/1/3 144/1/3
f 150/1/3 144/1/3 149/1/3
f 151/1/3 145/1/3 138/1/3
f 151/1/3 146/1/3 145/1/3
f 152/1/3 139/1/3 146/1/3
f 152/1/3 146/1/3 151/1/3
f 153/1/3 147/1/3 140/1/3
f 153/1/3 148/1/3 147/1/3
f 154/1/3 141/1/3 148/1/3
f 154/1/3 148/1/3 153/1/3
f 155/1/3 137/1/3 150/1/3
f 155/2/3 138/2/3 137/2/3
f 156/1/3 151/1/3 138/1/3
f 156/2/3 138/2/3 155/2/3
f 157/1/3 139/1/3 152/1/3
f 157/2/3 140/2/3 139/2/3
f 158/1/3 153/1/3 140/1/3
f 158/2/3 140/2/3 157/2/3
f 159/1/3 141/1/3 154/1/3
f 159/2/3 142/2/3 141/2/3
f 160/1/3 40/1/3 142/1/3
f 160/2/3 142/2/3 159/2/3
f 161/1/3 155/1/3 150/1/3
f 161/1/3 156/1/3 155/1/3
f 162/1/3 151/1/3 156/1/3
f 162/1/3 156/1/3 161/1/3
f 163/1/3 157/1/3 152/1/3
f 163/1/3 158/1/3 157/1/3
f 164/1/3 153/1/3 158/1/3
f 164/1/3 158/1/3 163/1/3
f 165/1/3 159/1/3 154/1/3
f 165/1/3 160/1/3 159/1/3
f 166/1/3 40/1/3 160/1/3
f 166/1/3 160/1/3 165/1/3
f 167/1/3 149/1/3 33/1/3
f 167/2/3 150/2/3 149/2/3
f 168/1/3 161/1/3 150/1/3
f 168/2/3 150/2/3 167/2/3
f 169/1/3 151/1/3 162/1/3
f 169/2/3 152/2/3 151/2/3
f 170/1/3 163/1/3 152/1/3
f 170/2/3 152/2/3 169/2/3
f 171/1/3 153/1/3 164/1/3
f 171/2/3 154/2/3 153/2/3
f 172/1/3 165/1/3 154/1/3
f 172/2/3 154/2/3 171/2/3
f 173/1/3 167/1/3 33/1/3
f 173/1/3 168/1/3 167/1/3
f 174/1/3 161/1/3 168/1/3
f 174/1/3 168/1/3 173/1/3
f 175/1/3 169/1/3 162/1/3
f 175/1/3 170/1/3 169/1/3
f 176/1/3 163/1/3 170/1/3
f 176/1/3 170/1/3 175/1/3
f 177/1/3 171/1/3 164/1/3
f 177/1/3 172/1/3 171/1/3
f 178/1/3 165/1/3 172/1/3
f 178/1/3 172/1/3 177/1/3
f 179/1/3 161/1/3 174/1/3
f 179/2/3 162/2/3 161/2/3
f 180/1/3 175/1/3 162/1/3
f 180/2/3 162/2/3 179/2/3
f 181/1/3 163/1/3 176/1/3
f 181/2/3 164/2/3 163/2/3
f 182/1/3 177/1/3 164/1/3
f 182/2/3 164/2/3 181/2/3
f 183/1/3 165/1/3 178/1/3
f 183/2/3 166/2/3 165/2/3
f 184/1/3 40/1/3 166/1/3
f 184/2/3 166/2/3 183/2/3
f 185/1/3 179/1/3 174/1/3
f 185/1/3 180/1/3 179/1/3
f 186/1/3 175/1/3 180/1/3
f 186/1/3 180/1/3 185/1/3
f 187/1/3 181/1/3 176/1/3
f 187/1/3 182/1/3 181/1/3
f 188/1/3 177/1/3 182/1/3
f 188/1/3 182/1/3 187/1/3
f 189/1/3 183/1/3 178/1/3
f 189/1/3 184/1/3 183/1/3
f 190/1/3 40/1/3 184/1/3
f 190/1/3 184/1/3 189/1/3
f 191/1/3 177/1/3 188/1/3
f 191/2/3 178/2/3 177/2/3
f 192/1/3 189/1/3 178/1/3
f 192/2/3 178/2/3 191/2/3
f 193/1/3 173/1/3 33/1/3
f 193/2/3 174/2/3 173/2/3
f 194/1/3 185/1/3 174/1/3
f 194/2/3 174/2/3 193/2/3
f 195/1/3 175/1/3 186/1/3
f 195/2/3 176/2/3 175/2/3
f 196/1/3 187/1/3 176/1/3
f 196/2/3 176/2/3 195/2/3
f 197/1/3 191/1/3 188/1/3
f 197/1/3 192/1/3 191/1/3
f 198/1/3 189/1/3 192/1/3
f 198/1/3 192/1/3 197/1/3
f 199/1/3 193/1/3 33/1/3
f 199/1/3 194/1/3 193/1/3
f 200/1/3 185/1/3 194/1/3
f 200/1/3 194/1/3 199/1/3
f 201/1/3 195/1/3 186/1/3
f 201/1/3 196/1/3 195/1/3
f 202/1/3 187/1/3 196/1/3
f 202/1/3 196/1/3 201/1/3
f 203/1/3 185/1/3 200/1/3
f 203/2/3 186/2/3 185/2/3
f 204/1/3 201/1/3 186/1/3
f 204/2/3 186/2/3 203/2/3
f 205/1/3 187/1/3 202/1/3
f 205/2/3 188/2/3 187/2/3
f 206/1/3 197/1/3 188/1/3
f 206/2/3 188/2/3 205/2/3
f 207/1/3 189/1/3 198/1/3
f 207/2/3 190/2/3 189/2/3
f 208/1/3 40/1/3 190/1/3
f 208/2/3 190/2/3 207/2/3
f 209/1/3 203/1/3 200/1/3
f 209/1/3 204/1/3 203/1/3
f 210/1/3 201/1/3 204/1/3
f 210/1/3 204/1/3 209/1/3
f 211/1/3 205/1/3 202/1/3
f 211/1/3 206/1/3 205/1/3
f 212/1/3 197/1/3 206/1/3
f 212/1/3 206/1/3 211/1/3
f 213/1/3 207/1/3 198/1/3
f 213/1/3 208/1/3 207/1/3
f 214/1/3 40/1/3 208/1/3
f 214/1/3 208/1/3 213/1/3
f 215/1/3 199/1/3 33/1/3
f 215/2/3 200/2/3 199/2/3
f 216/1/3 209/1/3 200/1/3
f 216/2/3 200/2/3 215/2/3
f 217/1/3 201/1/3 210/1/3
f 217/2/3 202/2/3 201/2/3
f 218/1/3 211/1/3 202/1/3
f 218/2/3 202/2/3 217/2/3
f 219/1/3 197/1/3 212/1/3
f 219/2/3 198/2/3 197/2/3
f 220/1/3 213/1/3 198/1/3
f 220/2/3 198/2/3 219/2/3
f 221/1/3 215/1/3 33/1/3
f 221/1/3 216/1/3 215/1/3
f 222/1/3 209/1/3 216/1/3
f 222/1/3 216/1/3 221/1/3
f 223/1/3 217/1/3 210/1/3
f 223/1/3 218/1/3 217/1/3
f 224/1/3 211/1/3 218/1/3
f 224/1/3 218/1/3 223/1/3
f 225/1/3 219/1/3 212/1/3
f 225/1/3 220/1/3 219/1/3
f 226/1/3 213/1/3 220/1/3
f 226/1/3 220/1/3 225/1/3
f 227/1/3 209/1/3 222/1/3
f 227/2/3 210/2/3 209/2/3
f 228/1/3 223/1/3 210/1/3
f 228/2/3 210/2/3 227/2/3
f 229/1/3 211/1/3 224/1/3
f 229/2/3 212/2/3 211/2/3
f 230/1/3 225/1/3 212/1/3
f 230/2/3 212/2/3 229/2/3
f 231/1/3 213/1/3 226/1/3
f 231/2/3 214/2/3 213/2/3
f 232/1/3 40/1/3 214/1/3
f 232/2/3 214/2/3 231/2/3
f 233/1/3 227/1/3 222/1/3
f 233/1/3 228/1/3 227/1/3
f 234/1/3 223/1/3 228/1/3
f 234/1/3 228/1/3 233/1/3
f 235/1/3 229/1/3 224/1/3
f 235/1/3 230/1/3 229/1/3
f 236/1/3 225/1/3 230/1/3
f 236/1/3 230/1/3 235/1/3
f 237/1/3 231/1/3 226/1/3
f 237/1/3 232/1/3 231/1/3
f 238/1/3 40/1/3 232/1/3
f 238/1/3 232/1/3 237/1/3
f 239/1/3 221/1/3 33/1/3
f 239/2/3 222/2/3 221/2/3
f 240/1/3 233/1/3 222/1/3
f 240/2/3 222/2/3 239/2/3
f 241/1/3 223/1/3 234/1/3
f 241/2/3 224/2/3 223/2/3
f 242/1/3 235/1/3 224/1/3
f 242/2/3 224/2/3 241/2/3
f 243/1/3 225/1/3 236/1/3
f 243/2/3 226/2/3 225/2/3
f 244/1/3 237/1/3 226/1/3
f 244/2/3 226/2/3 243/2/3
f 245/1/3 239/1/3 33/1/3
f 245/1/3 240/1/3 239/1/3
f 246/1/3 233/1/3 240/1/3
f 246/1/3 240/1/3 245/1/3
f 246/2/3 234/2/3 233/2/3
f 247/1/3 241/1/3 234/1/3
f 247/2/3 234/2/3 246/2/3
f 247/1/3 242/1/3 241/1/3
f 248/1/3 235/1/3 242/1/3
f 248/1/3 242/1/3 247/1/3
f 248/2/3 236/2/3 235/2/3
f 249/1/3 243/1/3 236/1/3
f 249/2/3 236/2/3 248/2/3
f 249/1/3 244/1/3 243/1/3
f 250/1/3 237/1/3 244/1/3
f 250/1/3 244/1/3 249/1/3
f 250/2/3 238/2/3 237/2/3
f 251/1/3 40/1/3 238/1/3
f 251/2/3 238/2/3 250/2/3
f 252/1/3 40/1/3 251/1/3
f 255/1/4 256/1/4 261/1/4
f 261/1/4 256/1/4 262/1/4
f 257/1/4 258/1/4 263/1/4
f 263/1/4 258/1/4 264/1/4
f 259/1/4 260/1/4 265/1/4
f 265/1/4 260/1/4 266/1/4
f 253/1/4 254/1/4 267/1/4
f 254/2/4 255/2/4 267/2/4
f 255/1/4 261/1/4 268/1/4
f 267/2/4 255/2/4 268/2/4
f 256/2/4 257/2/4 269/2/4
f 262/1/4 256/1/4 269/1/4
f 257/1/4 263/1/4 270/1/4
f 269/2/4 257/2/4 270/2/4
f 264/1/4 258/1/4 271/1/4
f 258/2/4 259/2/4 271/2/4
f 259/1/4 265/1/4 272/1/4
f 271/2/4 259/2/4 272/2/4
f 267/1/4 268/1/4 273/1/4
f 253/1/4 267/1/4 273/1/4
f 268/1/4 261/1/4 274/1/4
f 273/1/4 268/1/4 274/1/4
f 269/1/4 270/1/4 275/1/4
f 262/1/4 269/1/4 275/1/4
f 270/1/4 263/1/4 276/1/4
f 275/1/4 270/1/4 276/1/4
f 271/1/4 272/1/4 277/1/4
f 264/1/4 271/1/4 277/1/4
f 272/1/4 265/1/4 278/1/4
f 277/1/4 272/1/4 278/1/4
f 274/1/4 261/1/4 279/1/4
f 261/2/4 262/2/4 279/2/4
f 262/1/4 275/1/4 280/1/4
f 279/2/4 262/2/4 280/2/4
f 276/1/4 263/1/4 281/1/4
f 263/2/4 264/2/4 281/2/4
f 264/1/4 277/1/4 282/1/4
f 281/2/4 264/2/4 282/2/4
f 265/2/4 266/2/4 283/2/4
f 278/1/4 265/1/4 283/1/4
f 266/1/4 260/1/4 284/1/4
f 283/2/4 266/2/4 284/2/4
f 274/1/4 279/1/4 285/1/4
f 279/1/4 280/1/4 285/1/4
f 280/1/4 275/1/4 286/1/4
f 285/1/4 280/1/4 286/1/4
f 276/1/4 281/1/4 287/1/4
f 281/1/4 282/1/4 287/1/4
f 282/1/4 277/1/4 288/1/4
f 287/1/4 282/1/4 288/1/4
f 278/1/4 283/1/4 289/1/4
f 283/1/4 284/1/4 289/1/4
f 284/1/4 260/1/4 290/1/4
f 289/1/4 284/1/4 290/1/4
f 253/1/4 273/1/4 291/1/4
f 273/2/4 274/2/4 291/2/4
f 274/1/4 285/1/4 292/1/4
f 291/2/4 274/2/4 292/2/4
f 286/1/4 275/1/4 293/1/4
f 275/2/4 276/2/4 293/2/4
f 276/1/4 287/1/4 294/1/4
f 293/2/4 276/2/4 294/2/4
f 288/1/4 277/1/4 295/1/4
f 277/2/4 278/2/4 295/2/4
f 278/1/4 289/1/4 296/1/4
f 295/2/4 278/2/4 296/2/4
f 253/1/4 291/1/4 297/1/4
f 291/1/4 292/1/4 297/1/4
f 292/1/4 285/1/4 298/1/4
f 297/1/4 292/1/4 298/1/4
f 286/1/4 293/1/4 299/1/4
f 293/1/4 294/1/4 299/1/4
f 294/1/4 287/1/4 300/1/4
f 299/1/4 294/1/4 300/1/4
f 288/1/4 295/1/4 301/1/4
f 295/1/4 296/1/4 301/1/4
f 296/1/4 289/1/4 302/1/4
f 301/1/4 296/1/4 302/1/4
f 298/1/4 285/1/4 303/1/4
f 285/2/4 286/2/4 303/2/4
f 286/1/4 299/1/4 304/1/4
f 303/2/4 286/2/4 304/2/4
f 300/1/4 287/1/4 305/1/4
f 287/2/4 288/2/4 305/2/4
f 288/1/4 301/1/4 306/1/4
f 305/2/4 288/2/4 306/2/4
f 302/1/4 289/1/4 307/1/4
f 289/2/4 290/2/4 307/2/4
f 290/1/4 260/1/4 308/1/4
f 307/2/4 290/2/4 308/2/4
f 298/1/4 303/1/4 309/1/4
f 303/1/4 304/1/4 309/1/4
f 304/1/4 299/1/4 310/1/4
f 309/1/4 304/1/4 310/1/4
f 300/1/4 305/1/4 311/1/4
f 305/1/4 306/1/4 311/1/4
f 306/1/4 301/1/4 312/1/4
f 311/1/4 306/1/4 312/1/4
f 302/1/4 307/1/4 313/1/4
f 307/1/4 308/1/4 313/1/4
f 308/1/4 260/1/4 314/1/4
f 313/1/4 308/1/4 314/1/4
f 253/1/4 297/1/4 315/1/4
f 297/2/4 298/2/4 315/2/4
f 298/1/4 309/1/4 316/1/4
f 315/2/4 298/2/4 316/2/4
f 310/1/4 299/1/4 317/1/4
f 299/2/4 300/2/4 317/2/4
f 300/1/4 311/1/4 318/1/4
f 317/2/4 300/2/4 318/2/4
f 312/1/4 301/1/4 319/1/4
f 301/2/4 302/2/4 319/2/4
f 302/1/4 313/1/4 320/1/4
f 319/2/4 302/2/4 320/2/4
f 253/1/4 315/1/4 321/1/4
f 315/1/4 316/1/4 321/1/4
f 316/1/4 309/1/4 322/1/4
f 321/1/4 316/1/4 322/1/4
f 310/1/4 317/1/4 323/1/4
f 317/1/4 318/1/4 323/1/4
f 318/1/4 311/1/4 324/1/4
f 323/1/4 318/1/4 324/1/4
f 312/1/4 319/1/4 325/1/4
f 319/1/4 320/1/4 325/1/4
f 320/1/4 313/1/4 326/1/4
f 325/1/4 320/1/4 326/1/4
f 322/1/4 309/1/4 327/1/4
f 309/2/4 310/2/4 327/2/4
f 310/1/4 323/1/4 328/1/4
f 327/2/4 310/2/4 328/2/4
f 324/1/4 311/1/4 329/1/4
f 311/2/4 312/2/4 329/2/4
f 312/1/4 325/1/4 330/1/4
f 329/2/4 312/2/4 330/2/4
f 326/1/4 313/1/4 331/1/4
f 313/2/4 314/2/4 331/2/4
f 314/1/4 260/1/4 332/1/4
f 331/2/4 314/2/4 332/2/4
f 322/1/4 327/1/4 333/1/4
f 327/1/4 328/1/4 333/1/4
f 328/1/4 323/1/4 334/1/4
f 333/1/4 328/1/4 334/1/4
f 324/1/4 329/1/4 335/1/4
f 329/1/4 330/1/4 335/1/4
f 330/1/4 325/1/4 336/1/4
f 335/1/4 330/1/4 336/1/4
f 326/1/4 331/1/4 337/1/4
f 331/1/4 332/1/4 337/1/4
f 332/1/4 260/1/4 338/1/4
f 337/1/4 332/1/4 338/1/4
f 321/2/4 322/2/4 339/2/4
f 253/1/4 321/1/4 339/1/4
f 322/1/4 333/1/4 340/1/4
f 339/2/4 322/2/4 340/2/4
f 334/1/4 323/1/4 341/1/4
f 323/2/4 324/2/4 341/2/4
f 324/1/4 335/1/4 342/1/4
f 341/2/4 324/2/4 342/2/4
f 336/1/4 325/1/4 343/1/4
f 325/2/4 326/2/4 343/2/4
f 326/1/4 337/1/4 344/1/4
f 343/2/4 326/2/4 344/2/4
f 253/1/4 339/1/4 345/1/4
f 339/1/4 340/1/4 345/1/4
f 340/1/4 333/1/4 346/1/4
f 345/1/4 340/1/4 346/1/4
f 334/1/4 341/1/4 347/1/4
f 341/1/4 342/1/4 347/1/4
f 342/1/4 335/1/4 348/1/4
f 347/1/4 342/1/4 348/1/4
f 336/1/4 343/1/4 349/1/4
f 343/1/4 344/1/4 349/1/4
f 344/1/4 337/1/4 350/1/4
f 349/1/4 344/1/4 350/1/4
f 346/1/4 333/1/4 351/1/4
f 333/2/4 334/2/4 351/2/4
f 334/1/4 347/1/4 352/1/4
f 351/2/4 334/2/4 352/2/4
f 348/1/4 335/1/4 353/1/4
f 335/2/4 336/2/4 353/2/4
f 336/1/4 349/1/4 354/1/4
f 353/2/4 336/2/4 354/2/4
f 350/1/4 337/1/4 355/1/4
f 337/2/4 338/2/4 355/2/4
f 338/1/4 260/1/4 356/1/4
f 355/2/4 338/2/4 356/2/4
f 346/1/4 351/1/4 357/1/4
f 351/1/4 352/1/4 357/1/4
f 352/1/4 347/1/4 358/1/4
f 357/1/4 352/1/4 358/1/4
f 348/1/4 353/1/4 359/1/4
f 353/1/4 354/1/4 359/1/4
f 354/1/4 349/1/4 360/1/4
f 359/1/4 354/1/4 360/1/4
f 350/1/4 355/1/4 361/1/4
f 355/1/4 356/1/4 361/1/4
f 356/1/4 260/1/4 362/1/4
f 361/1/4 356/1/4 362/1/4
f 253/1/4 345/1/4 363/1/4
f 345/2/4 346/2/4 363/2/4
f 346/1/4 357/1/4 364/1/4
f 363/2/4 346/2/4 364/2/4
f 358/1/4 347/1/4 365/1/4
f 347/2/4 348/2/4 365/2/4
f 348/1/4 359/1/4 366/1/4
f 365/2/4 348/2/4 366/2/4
f 360/1/4 349/1/4 367/1/4
f 349/2/4 350/2/4 367/2/4
f 350/1/4 361/1/4 368/1/4
f 367/2/4 350/2/4 368/2/4
f 253/1/4 363/1/4 369/1/4
f 363/1/4 364/1/4 369/1/4
f 364/1/4 357/1/4 370/1/4
f 369/1/4 364/1/4 370/1/4
f 358/1/4 365/1/4 371/1/4
f 365/1/4 366/1/4 371/1/4
f 366/1/4 359/1/4 372/1/4
f 371/1/4 366/1/4 372/1/4
f 360/1/4 367/1/4 373/1/4
f 367/1/4 368/1/4 373/1/4
f 368/1/4 361/1/4 374/1/4
f 373/1/4 368/1/4 374/1/4
f 370/1/4 357/1/4 375/1/4
f 357/2/4 358/2/4 375/2/4
f 358/1/4 371/1/4 376/1/4
f 375/2/4 358/2/4 376/2/4
f 372/1/4 359/1/4 377/1/4
f 359/2/4 360/2/4 377/2/4
f 360/1/4 373/1/4 378/1/4
f 377/2/4 360/2/4 378/2/4
f 374/1/4 361/1/4 379/1/4
f 361/2/4 362/2/4 379/2/4
f 362/1/4 260/1/4 380/1/4
f 379/2/4 362/2/4 380/2/4
f 370/1/4 375/1/4 381/1/4
f 375/1/4 376/1/4 381/1/4
f 376/1/4 371/1/4 382/1/4
f 381/1/4 376/1/4 382/1/4
f 372/1/4 377/1/4 383/1/4
f 377/1/4 378/1/4 383/1/4
f 378/1/4 373/1/4 384/1/4
f 383/1/4 378/1/4 384/1/4
f 374/1/4 379/1/4 385/1/4
f 379/1/4 380/1/4 385/1/4
f 380/1/4 260/1/4 386/1/4
f 385/1/4 380/1/4 386/1/4
f 253/1/4 369/1/4 387/1/4
f 369/2/4 370/2/4 387/2/4
f 370/1/4 381/1/4 388/1/4
f 387/2/4 370/2/4 388/2/4
f 382/1/4 371/1/4 389/1/4
f 371/2/4 372/2/4 389/2/4
f 372/1/4 383/1/4 390/1/4
f 389/2/4 372/2/4 390/2/4
f 384/1/4 373/1/4 391/1/4
f 373/2/4 374/2/4 391/2/4
f 374/1/4 385/1/4 392/1/4
f 391/2/4 374/2/4 392/2/4
f 253/1/4 387/1/4 393/1/4
f 387/1/4 388/1/4 393/1/4
f 388/1/4 381/1/4 394/1/4
f 393/1/4 388/1/4 394/1/4
f 382/1/4 389/1/4 395/1/4
f 389/1/4 390/1/4 395/1/4
f 390/1/4 383/1/4 396/1/4
f 395/1/4 390/1/4 396/1/4
f 384/1/4 391/1/4 397/1/4
f 391/1/4 392/1/4 397/1/4
f 392/1/4 385/1/4 398/1/4
f 397/1/4 392/1/4 398/1/4
f 394/1/4 381/1/4 399/1/4
f 381/2/4 382/2/4 399/2/4
f 382/1/4 395/1/4 400/1/4
f 399/2/4 382/2/4 400/2/4
f 396/1/4 383/1/4 401/1/4
f 383/2/4 384/2/4 401/2/4
f 384/1/4 397/1/4 402/1/4
f 401/2/4 384/2/4 402/2/4
f 398/1/4 385/1/4 403/1/4
f 385/2/4 386/2/4 403/2/4
f 386/1/4 260/1/4 404/1/4
f 403/2/4 386/2/4 404/2/4
f 394/1/4 399/1/4 405/1/4
f 399/1/4 400/1/4 405/1/4
f 400/1/4 395/1/4 406/1/4
f 405/1/4 400/1/4 406/1/4
f 396/1/4 401/1/4 407/1/4
f 401/1/4 402/1/4 407/1/4
f 402/1/4 397/1/4 408/1/4
f 407/1/4 402/1/4 408/1/4
f 398/1/4 403/1/4 409/1/4
f 403/1/4 404/1/4 409/1/4
f 404/1/4 260/1/4 410/1/4
f 409/1/4 404/1/4 410/1/4
f 408/1/4 397/1/4 411/1/4
f 397/2/4 398/2/4 411/2/4
f 398/1/4 409/1/4 412/1/4
f 411/2/4 398/2/4 412/2/4
f 253/1/4 393/1/4 413/1/4
f 393/2/4 394/2/4 413/2/4
f 394/1/4 405/1/4 414/1/4
f 413/2/4 394/2/4 414/2/4
f 406/1/4 395/1/4 415/1/4
f 395/2/4 396/2/4 415/2/4
f 396/1/4 407/1/4 416/1/4
f 415/2/4 396/2/4 416/2/4
f 408/1/4 411/1/4 417/1/4
f 411/1/4 412/1/4 417/1/4
f 412/1/4 409/1/4 418/1/4
f 417/1/4 412/1/4 418/1/4
f 253/1/4 413/1/4 419/1/4
f 413/1/4 414/1/4 419/1/4
f 414/1/4 405/1/4 420/1/4
f 419/1/4 414/1/4 420/1/4
f 406/1/4 415/1/4 421/1/4
f 415/1/4 416/1/4 421/1/4
f 416/1/4 407/1/4 422/1/4
f 421/1/4 416/1/4 422/1/4
f 420/1/4 405/1/4 423/1/4
f 405/2/4 406/2/4 423/2/4
f 406/1/4 421/1/4 424/1/4
f 423/2/4 406/2/4 424/2/4
f 422/1/4 407/1/4 425/1/4
f 407/2/4 408/2/4 425/2/4
f 408/1/4 417/1/4 426/1/4
f 425/2/4 408/2/4 426/2/4
f 418/1/4 409/1/4 427/1/4
f 409/2/4 410/2/4 427/2/4
f 410/1/4 260/1/4 428/1/4
f 427/2/4 410/2/4 428/2/4
f 420/1/4 423/1/4 429/1/4
f 423/1/4 424/1/4 429/1/4
f 424/1/4 421/1/4 430/1/4
f 429/1/4 424/1/4 430/1/4
f 422/1/4 425/1/4 431/1/4
f 425/1/4 426/1/4 431/1/4
f 426/1/4 417/1/4 432/1/4
f 431/1/4 426/1/4 432/1/4
f 418/1/4 427/1/4 433/1/4
f 427/1/4 428/1/4 433/1/4
f 428/1/4 260/1/4 434/1/4
f 433/1/4 428/1/4 434/1/4
f 253/1/4 419/1/4 435/1/4
f 419/2/4 420/2/4 435/2/4
f 420/1/4 429/1/4 436/1/4
f 435/2/4 420/2/4 436/2/4
f 430/1/4 421/1/4 437/1/4
f 421/2/4 422/2/4 437/2/4
f 422/1/4 431/1/4 438/1/4
f 437/2/4 422/2/4 438/2/4
f 432/1/4 417/1/4 439/1/4
f 417/2/4 418/2/4 439/2/4
f 418/1/4 433/1/4 440/1/4
f 439/2/4 418/2/4 440/2/4
f 253/1/4 435/1/4 441/1/4
f 435/1/4 436/1/4 441/1/4
f 436/1/4 429/1/4 442/1/4
f 441/1/4 436/1/4 442/1/4
f 430/1/4 437/1/4 443/1/4
f 437/1/4 438/1/4 443/1/4
f 438/1/4 431/1/4 444/1/4
f 443/1/4 438/1/4 444/1/4
f 432/1/4 439/1/4 445/1/4
f 439/1/4 440/1/4 445/1/4
f 440/1/4 433/1/4 446/1/4
f 445/1/4 440/1/4 446/1/4
f 442/1/4 429/1/4 447/1/4
f 429/2/4 430/2/4 447/2/4
f 430/1/4 443/1/4 448/1/4
f 447/2/4 430/2/4 448/2/4
f 444/1/4 431/1/4 449/1/4
f 431/2/4 432/2/4 449/2/4
f 432/1/4 445/1/4 450/1/4
f 449/2/4 432/2/4 450/2/4
f 446/1/4 433/1/4 451/1/4
f 433/2/4 434/2/4 451/2/4
f 434/1/4 260/1/4 452/1/4
f 451/2/4 434/2/4 452/2/4
f 442/1/4 447/1/4 453/1/4
f 447/1/4 448/1/4 453/1/4
f 448/1/4 443/1/4 454/1/4
f 453/1/4 448/1/4 454/1/4
f 444/1/4 449/1/4 455/1/4
f 449/1/4 450/1/4 455/1/4
f 450/1/4 445/1/4 456/1/4
f 455/1/4 450/1/4 456/1/4
f 446/1/4 451/1/4 457/1/4
f 451/1/4 452/1/4 457/1/4
f 452/1/4 260/1/4 458/1/4
f 457/1/4 452/1/4 458/1/4
f 253/1/4 441/1/4 459/1/4
f 441/2/4 442/2/4 459/2/4
f 442/1/4 453/1/4 460/1/4
f 459/2/4 442/2/4 460/2/4
f 454/1/4 443/1/4 461/1/4
f 443/2/4 444/2/4 461/2/4
f 444/1/4 455/1/4 462/1/4
f 461/2/4 444/2/4 462/2/4
f 456/1/4 445/1/4 463/1/4
f 445/2/4 446/2/4 463/2/4
f 446/1/4 457/1/4 464/1/4
f 463/2/4 446/2/4 464/2/4
f 253/1/4 459/1/4 465/1/4
f 459/1/4 460/1/4 465/1/4
f 460/1/4 453/1/4 466/1/4
f 465/1/4 460/1/4 466/1/4
f 453/2/4 454/2/4 466/2/4
f 454/1/4 461/1/4 467/1/4
f 466/2/4 454/2/4 467/2/4
f 461/1/4 462/1/4 467/1/4
f 462/1/4 455/1/4 468/1/4
f 467/1/4 462/1/4 468/1/4
f 455/2/4 456/2/4 468/2/4
f 456/1/4 463/1/4 469/1/4
f 468/2/4 456/2/4 469/2/4
f 463/1/4 464/1/4 469/1/4
f 464/1/4 457/1/4 470/1/4
f 469/1/4 464/1/4 470/1/4
f 457/2/4 458/2/4 470/2/4
f 458/1/4 260/1/4 471/1/4
f 470/2/4 458/2/4 471/2/4
f 471/1/4 260/1/4 472/1/4
f 475/1/5 474/1/5 473/1/5
f 476/1/5 474/1/5 475/1/5
f 477/1/5 474/1/5 476/1/5
f 478/1/5 474/1/5 477/1/5
f 479/1/5 475/1/5 473/1/5
f 479/2/5 476/2/5 475/2/5
f 480/1/5 477/1/5 476/1/5
f 480/2/5 476/2/5 479/2/5
f 481/2/5 478/2/5 477/2/5
f 481/1/5 477/1/5 480/1/5
f 482/1/5 474/1/5 478/1/5
f 482/2/5 478/2/5 481/2/5
f 483/1/5 481/1/5 480/1/5
f 483/1/5 480/1/5 479/1/5
f 483/1/5 482/1/5 481/1/5
f 483/1/5 479/1/5 473/1/5
f 484/1/5 474/1/5 482/1/5
f 484/1/5 482/1/5 483/1/5
f 485/1/6 486/1/6 487/1/6
f 487/1/6 486/1/6 488/1/6
