# MagicaVoxel @ Ephtracy

# group
o 

# material
mtllib _Wall_castle.mtl
usemtl palette

# normals
vn -1 0 0
vn 1 0 0
vn 0 0 1
vn 0 0 -1
vn 0 -1 0
vn 0 1 0

# texcoords
vt 0.966797 0.5
vt 0.970703 0.5
vt 0.974609 0.5
vt 0.978516 0.5
vt 0.982422 0.5

# verts
v -3 0 0.1
v -3 0 -0.2
v -3 0.2 0.1
v -3 0.2 -0.2
v -3 0.3 0
v -3 0.3 -0.1
v -3 0.3 -0.2
v -3 0.4 0.1
v -3 0.4 0
v -3 0.4 -0.1
v -3 0.4 -0.2
v -3 0.8 0.1
v -3 0.8 0
v -3 0.8 -0.1
v -3 0.8 -0.2
v -3 0.9 0.1
v -3 0.9 0
v -3 0.9 -0.1
v -3 0.9 -0.2
v -3 1 0.1
v -3 1 -0.1
v -3 1 -0.2
v -3 1.1 0.1
v -3 1.1 -0.2
v -3 1.6 0.1
v -3 1.6 -0.2
v -2.9 1.6 0.1
v -2.9 1.6 -0.2
v -2.9 1.7 0.1
v -2.9 1.7 -0.2
v -2.4 1.3 0.1
v -2.4 1.3 -0.2
v -2.4 1.6 0.1
v -2.4 1.6 -0.2
v -2.3 1.6 0.1
v -2.3 1.6 -0.2
v -2.3 1.7 0.1
v -2.3 1.7 -0.2
v -1.8 1.3 0.1
v -1.8 1.3 -0.2
v -1.8 1.6 0.1
v -1.8 1.6 -0.2
v -1.7 1.6 0.1
v -1.7 1.6 -0.2
v -1.7 1.7 0.1
v -1.7 1.7 -0.2
v -1.2 1.3 0.1
v -1.2 1.3 -0.2
v -1.2 1.6 0.1
v -1.2 1.6 -0.2
v -1.1 1.6 0.1
v -1.1 1.6 -0.2
v -1.1 1.7 0.1
v -1.1 1.7 -0.2
v -0.6 1.3 0.1
v -0.6 1.3 -0.2
v -0.6 1.6 0.1
v -0.6 1.6 -0.2
v -0.5 1.6 0.1
v -0.5 1.6 -0.2
v -0.5 1.7 0.1
v -0.5 1.7 -0.2
v 2.38419e-007 1.3 0.1
v 2.38419e-007 1.3 -0.2
v 2.38419e-007 1.6 0.1
v 2.38419e-007 1.6 -0.2
v 0.1 1.6 0.1
v 0.1 1.6 -0.2
v 0.1 1.7 0.1
v 0.1 1.7 -0.2
v 0.6 1.3 0.1
v 0.6 1.3 -0.2
v 0.6 1.6 0.1
v 0.6 1.6 -0.2
v 0.7 1.6 0.1
v 0.7 1.6 -0.2
v 0.7 1.7 0.1
v 0.7 1.7 -0.2
v 1.2 1.3 0.1
v 1.2 1.3 -0.2
v 1.2 1.6 0.1
v 1.2 1.6 -0.2
v 1.3 1.6 0.1
v 1.3 1.6 -0.2
v 1.3 1.7 0.1
v 1.3 1.7 -0.2
v 1.8 1.3 0.1
v 1.8 1.3 -0.2
v 1.8 1.6 0.1
v 1.8 1.6 -0.2
v 1.9 1.6 0.1
v 1.9 1.6 -0.2
v 1.9 1.7 0.1
v 1.9 1.7 -0.2
v 2.4 1.3 0.1
v 2.4 1.3 -0.2
v 2.4 1.6 0.1
v 2.4 1.6 -0.2
v 2.5 1.6 0.1
v 2.5 1.6 -0.2
v 2.5 1.7 0.1
v 2.5 1.7 -0.2
v -2.8 1.6 0.1
v -2.8 1.6 -0.2
v -2.8 1.7 0.1
v -2.8 1.7 -0.2
v -2.7 1.3 0.1
v -2.7 1.3 -0.2
v -2.7 1.6 0.1
v -2.7 1.6 -0.2
v -2.2 1.6 0.1
v -2.2 1.6 -0.2
v -2.2 1.7 0.1
v -2.2 1.7 -0.2
v -2.1 1.3 0.1
v -2.1 1.3 -0.2
v -2.1 1.6 0.1
v -2.1 1.6 -0.2
v -1.6 1.6 0.1
v -1.6 1.6 -0.2
v -1.6 1.7 0.1
v -1.6 1.7 -0.2
v -1.5 1.3 0.1
v -1.5 1.3 -0.2
v -1.5 1.6 0.1
v -1.5 1.6 -0.2
v -1 1.6 0.1
v -1 1.6 -0.2
v -1 1.7 0.1
v -1 1.7 -0.2
v -0.9 1.3 0.1
v -0.9 1.3 -0.2
v -0.9 1.6 0.1
v -0.9 1.6 -0.2
v -0.4 1.6 0.1
v -0.4 1.6 -0.2
v -0.4 1.7 0.1
v -0.4 1.7 -0.2
v -0.3 1.3 0.1
v -0.3 1.3 -0.2
v -0.3 1.6 0.1
v -0.3 1.6 -0.2
v 0.2 1.6 0.1
v 0.2 1.6 -0.2
v 0.2 1.7 0.1
v 0.2 1.7 -0.2
v 0.3 1.3 0.1
v 0.3 1.3 -0.2
v 0.3 1.6 0.1
v 0.3 1.6 -0.2
v 0.8 1.6 0.1
v 0.8 1.6 -0.2
v 0.8 1.7 0.1
v 0.8 1.7 -0.2
v 0.9 1.3 0.1
v 0.9 1.3 -0.2
v 0.9 1.6 0.1
v 0.9 1.6 -0.2
v 1.4 1.6 0.1
v 1.4 1.6 -0.2
v 1.4 1.7 0.1
v 1.4 1.7 -0.2
v 1.5 1.3 0.1
v 1.5 1.3 -0.2
v 1.5 1.6 0.1
v 1.5 1.6 -0.2
v 2 1.6 0.1
v 2 1.6 -0.2
v 2 1.7 0.1
v 2 1.7 -0.2
v 2.1 1.3 0.1
v 2.1 1.3 -0.2
v 2.1 1.6 0.1
v 2.1 1.6 -0.2
v 2.6 1.6 0.1
v 2.6 1.6 -0.2
v 2.6 1.7 0.1
v 2.6 1.7 -0.2
v 2.7 1.3 0.1
v 2.7 1.3 -0.2
v 2.7 1.6 0.1
v 2.7 1.6 -0.2
v 3 0 0.1
v 3 0 0
v 3 0 -0.1
v 3 0 -0.2
v 3 0.1 0
v 3 0.1 -0.1
v 3 0.2 0.1
v 3 0.2 0
v 3 0.2 -0.1
v 3 0.2 -0.2
v 3 0.3 0
v 3 0.3 -0.1
v 3 0.3 -0.2
v 3 0.4 0.1
v 3 0.4 0
v 3 0.4 -0.1
v 3 0.4 -0.2
v 3 0.5 0
v 3 0.5 -0.1
v 3 0.6 0
v 3 0.6 -0.1
v 3 0.7 0
v 3 0.7 -0.1
v 3 0.8 0.1
v 3 0.8 0
v 3 0.8 -0.1
v 3 0.8 -0.2
v 3 0.9 0.1
v 3 0.9 0
v 3 1 0.1
v 3 1 0
v 3 1 -0.1
v 3 1 -0.2
v 3 1.1 0.1
v 3 1.1 0
v 3 1.1 -0.1
v 3 1.1 -0.2
v 3 1.2 0.1
v 3 1.2 -0.2
v 3 1.3 0.1
v 3 1.3 -0.2
v -3 0 0.1
v -3 0.2 0.1
v -3 0.4 0.1
v -3 0.8 0.1
v -3 0.9 0.1
v -3 1 0.1
v -3 1.1 0.1
v -3 1.6 0.1
v -2.9 0.5 0.1
v -2.9 0.6 0.1
v -2.9 0.7 0.1
v -2.9 0.8 0.1
v -2.9 0.9 0.1
v -2.9 1 0.1
v -2.9 1.6 0.1
v -2.9 1.7 0.1
v -2.8 0.5 0.1
v -2.8 0.6 0.1
v -2.8 0.7 0.1
v -2.8 0.8 0.1
v -2.8 0.9 0.1
v -2.8 1 0.1
v -2.8 1.6 0.1
v -2.8 1.7 0.1
v -2.7 0.3 0.1
v -2.7 0.4 0.1
v -2.7 0.6 0.1
v -2.7 0.7 0.1
v -2.7 0.8 0.1
v -2.7 0.9 0.1
v -2.7 1 0.1
v -2.7 1.2 0.1
v -2.7 1.3 0.1
v -2.7 1.6 0.1
v -2.6 0.3 0.1
v -2.6 0.4 0.1
v -2.6 0.5 0.1
v -2.6 0.6 0.1
v -2.6 0.8 0.1
v -2.6 0.9 0.1
v -2.6 1 0.1
v -2.5 0.5 0.1
v -2.5 0.6 0.1
v -2.5 0.9 0.1
v -2.5 1 0.1
v -2.4 0.3 0.1
v -2.4 0.4 0.1
v -2.4 0.5 0.1
v -2.4 0.7 0.1
v -2.4 0.8 0.1
v -2.4 0.9 0.1
v -2.4 1 0.1
v -2.4 1.2 0.1
v -2.4 1.3 0.1
v -2.4 1.6 0.1
v -2.3 0.3 0.1
v -2.3 0.4 0.1
v -2.3 0.5 0.1
v -2.3 0.6 0.1
v -2.3 0.7 0.1
v -2.3 0.9 0.1
v -2.3 1 0.1
v -2.3 1.6 0.1
v -2.3 1.7 0.1
v -2.2 0.3 0.1
v -2.2 0.4 0.1
v -2.2 0.6 0.1
v -2.2 0.7 0.1
v -2.2 0.8 0.1
v -2.2 0.9 0.1
v -2.2 1 0.1
v -2.2 1.6 0.1
v -2.2 1.7 0.1
v -2.1 0.3 0.1
v -2.1 0.4 0.1
v -2.1 0.5 0.1
v -2.1 0.6 0.1
v -2.1 0.7 0.1
v -2.1 0.8 0.1
v -2.1 0.9 0.1
v -2.1 1 0.1
v -2.1 1.2 0.1
v -2.1 1.3 0.1
v -2.1 1.6 0.1
v -2 0.3 0.1
v -2 0.4 0.1
v -2 0.5 0.1
v -2 0.6 0.1
v -2 0.7 0.1
v -2 0.8 0.1
v -2 1 0.1
v -1.9 0.3 0.1
v -1.9 0.4 0.1
v -1.9 0.6 0.1
v -1.9 0.7 0.1
v -1.9 0.8 0.1
v -1.9 1 0.1
v -1.8 0.3 0.1
v -1.8 0.4 0.1
v -1.8 0.5 0.1
v -1.8 0.6 0.1
v -1.8 0.9 0.1
v -1.8 1 0.1
v -1.8 1.2 0.1
v -1.8 1.3 0.1
v -1.8 1.6 0.1
v -1.7 0.5 0.1
v -1.7 0.7 0.1
v -1.7 0.8 0.1
v -1.7 0.9 0.1
v -1.7 1 0.1
v -1.7 1.6 0.1
v -1.7 1.7 0.1
v -1.6 0.3 0.1
v -1.6 0.4 0.1
v -1.6 0.5 0.1
v -1.6 0.6 0.1
v -1.6 0.7 0.1
v -1.6 0.8 0.1
v -1.6 0.9 0.1
v -1.6 1 0.1
v -1.6 1.6 0.1
v -1.6 1.7 0.1
v -1.5 0.5 0.1
v -1.5 0.6 0.1
v -1.5 0.7 0.1
v -1.5 0.9 0.1
v -1.5 1 0.1
v -1.5 1.2 0.1
v -1.5 1.3 0.1
v -1.5 1.6 0.1
v -1.4 0.3 0.1
v -1.4 0.4 0.1
v -1.4 0.5 0.1
v -1.4 0.6 0.1
v -1.4 0.7 0.1
v -1.4 0.8 0.1
v -1.4 0.9 0.1
v -1.3 0.3 0.1
v -1.3 0.4 0.1
v -1.3 0.8 0.1
v -1.3 0.9 0.1
v -1.3 1 0.1
v -1.2 0.3 0.1
v -1.2 0.4 0.1
v -1.2 0.5 0.1
v -1.2 0.6 0.1
v -1.2 0.7 0.1
v -1.2 0.8 0.1
v -1.2 1 0.1
v -1.2 1.2 0.1
v -1.2 1.3 0.1
v -1.2 1.6 0.1
v -1.1 0.5 0.1
v -1.1 0.6 0.1
v -1.1 0.7 0.1
v -1.1 0.8 0.1
v -1.1 0.9 0.1
v -1.1 1 0.1
v -1.1 1.6 0.1
v -1.1 1.7 0.1
v -1 0.5 0.1
v -1 0.6 0.1
v -1 0.7 0.1
v -1 0.8 0.1
v -1 0.9 0.1
v -1 1 0.1
v -1 1.6 0.1
v -1 1.7 0.1
v -0.9 0.3 0.1
v -0.9 0.4 0.1
v -0.9 0.5 0.1
v -0.9 0.6 0.1
v -0.9 0.7 0.1
v -0.9 0.8 0.1
v -0.9 0.9 0.1
v -0.9 1 0.1
v -0.9 1.2 0.1
v -0.9 1.3 0.1
v -0.9 1.6 0.1
v -0.8 0.3 0.1
v -0.8 0.4 0.1
v -0.8 0.5 0.1
v -0.8 0.6 0.1
v -0.8 0.7 0.1
v -0.8 0.8 0.1
v -0.8 0.9 0.1
v -0.8 1 0.1
v -0.7 0.5 0.1
v -0.7 0.6 0.1
v -0.7 0.8 0.1
v -0.7 0.9 0.1
v -0.7 1 0.1
v -0.6 0.3 0.1
v -0.6 0.4 0.1
v -0.6 0.6 0.1
v -0.6 0.7 0.1
v -0.6 0.8 0.1
v -0.6 0.9 0.1
v -0.6 1 0.1
v -0.6 1.2 0.1
v -0.6 1.3 0.1
v -0.6 1.6 0.1
v -0.5 0.3 0.1
v -0.5 0.4 0.1
v -0.5 0.5 0.1
v -0.5 0.6 0.1
v -0.5 0.7 0.1
v -0.5 0.8 0.1
v -0.5 1 0.1
v -0.5 1.6 0.1
v -0.5 1.7 0.1
v -0.4 0.3 0.1
v -0.4 0.4 0.1
v -0.4 0.6 0.1
v -0.4 0.7 0.1
v -0.4 0.8 0.1
v -0.4 1 0.1
v -0.4 1.6 0.1
v -0.4 1.7 0.1
v -0.3 0.3 0.1
v -0.3 0.4 0.1
v -0.3 0.5 0.1
v -0.3 0.6 0.1
v -0.3 0.7 0.1
v -0.3 0.9 0.1
v -0.3 1 0.1
v -0.3 1.2 0.1
v -0.3 1.3 0.1
v -0.3 1.6 0.1
v -0.2 0.3 0.1
v -0.2 0.4 0.1
v -0.2 0.5 0.1
v -0.2 0.7 0.1
v -0.2 0.8 0.1
v -0.2 0.9 0.1
v -0.2 1 0.1
v -0.0999999 0.5 0.1
v -0.0999999 0.7 0.1
v -0.0999999 0.8 0.1
v -0.0999999 0.9 0.1
v -0.0999999 1 0.1
v 2.38419e-007 0.5 0.1
v 2.38419e-007 0.6 0.1
v 2.38419e-007 0.8 0.1
v 2.38419e-007 0.9 0.1
v 2.38419e-007 1 0.1
v 2.38419e-007 1.2 0.1
v 2.38419e-007 1.3 0.1
v 2.38419e-007 1.6 0.1
v 0.1 0.3 0.1
v 0.1 0.4 0.1
v 0.1 0.5 0.1
v 0.1 0.6 0.1
v 0.1 0.7 0.1
v 0.1 0.8 0.1
v 0.1 1 0.1
v 0.1 1.6 0.1
v 0.1 1.7 0.1
v 0.2 0.3 0.1
v 0.2 0.4 0.1
v 0.2 0.5 0.1
v 0.2 0.6 0.1
v 0.2 0.7 0.1
v 0.2 0.8 0.1
v 0.2 0.9 0.1
v 0.2 1 0.1
v 0.2 1.6 0.1
v 0.2 1.7 0.1
v 0.3 0.3 0.1
v 0.3 0.4 0.1
v 0.3 0.5 0.1
v 0.3 0.6 0.1
v 0.3 0.8 0.1
v 0.3 0.9 0.1
v 0.3 1 0.1
v 0.3 1.2 0.1
v 0.3 1.3 0.1
v 0.3 1.6 0.1
v 0.4 0.3 0.1
v 0.4 0.4 0.1
v 0.4 0.5 0.1
v 0.4 0.6 0.1
v 0.4 0.7 0.1
v 0.4 0.8 0.1
v 0.4 0.9 0.1
v 0.4 1 0.1
v 0.5 0.3 0.1
v 0.5 0.4 0.1
v 0.5 0.5 0.1
v 0.5 0.6 0.1
v 0.5 0.7 0.1
v 0.5 0.9 0.1
v 0.5 1 0.1
v 0.6 0.3 0.1
v 0.6 0.4 0.1
v 0.6 0.5 0.1
v 0.6 0.6 0.1
v 0.6 0.7 0.1
v 0.6 0.9 0.1
v 0.6 1 0.1
v 0.6 1.2 0.1
v 0.6 1.3 0.1
v 0.6 1.6 0.1
v 0.7 0.3 0.1
v 0.7 0.4 0.1
v 0.7 0.5 0.1
v 0.7 0.6 0.1
v 0.7 0.7 0.1
v 0.7 0.8 0.1
v 0.7 0.9 0.1
v 0.7 1 0.1
v 0.7 1.6 0.1
v 0.7 1.7 0.1
v 0.8 0.5 0.1
v 0.8 0.6 0.1
v 0.8 0.9 0.1
v 0.8 1 0.1
v 0.8 1.6 0.1
v 0.8 1.7 0.1
v 0.9 0.3 0.1
v 0.9 0.4 0.1
v 0.9 0.6 0.1
v 0.9 0.7 0.1
v 0.9 0.8 0.1
v 0.9 0.9 0.1
v 0.9 1 0.1
v 0.9 1.2 0.1
v 0.9 1.3 0.1
v 0.9 1.6 0.1
v 1 0.3 0.1
v 1 0.4 0.1
v 1 0.5 0.1
v 1 0.6 0.1
v 1 0.7 0.1
v 1 0.8 0.1
v 1 0.9 0.1
v 1 1 0.1
v 1.1 0.6 0.1
v 1.1 0.7 0.1
v 1.1 0.9 0.1
v 1.1 1 0.1
v 1.2 0.3 0.1
v 1.2 0.4 0.1
v 1.2 0.5 0.1
v 1.2 0.6 0.1
v 1.2 0.7 0.1
v 1.2 0.8 0.1
v 1.2 0.9 0.1
v 1.2 1 0.1
v 1.2 1.2 0.1
v 1.2 1.3 0.1
v 1.2 1.6 0.1
v 1.3 0.3 0.1
v 1.3 0.4 0.1
v 1.3 0.5 0.1
v 1.3 0.6 0.1
v 1.3 0.7 0.1
v 1.3 0.8 0.1
v 1.3 0.9 0.1
v 1.3 1 0.1
v 1.3 1.6 0.1
v 1.3 1.7 0.1
v 1.4 0.3 0.1
v 1.4 0.4 0.1
v 1.4 0.5 0.1
v 1.4 0.6 0.1
v 1.4 0.7 0.1
v 1.4 0.8 0.1
v 1.4 0.9 0.1
v 1.4 1.6 0.1
v 1.4 1.7 0.1
v 1.5 0.3 0.1
v 1.5 0.4 0.1
v 1.5 0.6 0.1
v 1.5 0.7 0.1
v 1.5 0.8 0.1
v 1.5 0.9 0.1
v 1.5 1 0.1
v 1.5 1.2 0.1
v 1.5 1.3 0.1
v 1.5 1.6 0.1
v 1.6 0.5 0.1
v 1.6 0.6 0.1
v 1.6 0.7 0.1
v 1.6 0.8 0.1
v 1.6 0.9 0.1
v 1.6 1 0.1
v 1.7 0.6 0.1
v 1.7 0.7 0.1
v 1.7 0.8 0.1
v 1.7 0.9 0.1
v 1.7 1 0.1
v 1.8 0.3 0.1
v 1.8 0.4 0.1
v 1.8 0.5 0.1
v 1.8 0.7 0.1
v 1.8 0.8 0.1
v 1.8 0.9 0.1
v 1.8 1 0.1
v 1.8 1.2 0.1
v 1.8 1.3 0.1
v 1.8 1.6 0.1
v 1.9 0.3 0.1
v 1.9 0.4 0.1
v 1.9 0.5 0.1
v 1.9 0.6 0.1
v 1.9 0.7 0.1
v 1.9 0.8 0.1
v 1.9 0.9 0.1
v 1.9 1 0.1
v 1.9 1.6 0.1
v 1.9 1.7 0.1
v 2 0.5 0.1
v 2 0.6 0.1
v 2 0.7 0.1
v 2 0.8 0.1
v 2 0.9 0.1
v 2 1.6 0.1
v 2 1.7 0.1
v 2.1 0.5 0.1
v 2.1 0.6 0.1
v 2.1 0.7 0.1
v 2.1 0.9 0.1
v 2.1 1 0.1
v 2.1 1.2 0.1
v 2.1 1.3 0.1
v 2.1 1.6 0.1
v 2.2 0.3 0.1
v 2.2 0.4 0.1
v 2.2 0.5 0.1
v 2.2 0.6 0.1
v 2.2 0.7 0.1
v 2.2 0.8 0.1
v 2.2 0.9 0.1
v 2.3 0.3 0.1
v 2.3 0.4 0.1
v 2.3 0.5 0.1
v 2.3 0.6 0.1
v 2.3 0.7 0.1
v 2.3 0.8 0.1
v 2.3 0.9 0.1
v 2.4 0.6 0.1
v 2.4 0.7 0.1
v 2.4 0.8 0.1
v 2.4 0.9 0.1
v 2.4 1 0.1
v 2.4 1.2 0.1
v 2.4 1.3 0.1
v 2.4 1.6 0.1
v 2.5 0.3 0.1
v 2.5 0.4 0.1
v 2.5 0.5 0.1
v 2.5 0.6 0.1
v 2.5 0.7 0.1
v 2.5 0.8 0.1
v 2.5 0.9 0.1
v 2.5 1 0.1
v 2.5 1.6 0.1
v 2.5 1.7 0.1
v 2.6 0.3 0.1
v 2.6 0.4 0.1
v 2.6 0.5 0.1
v 2.6 0.6 0.1
v 2.6 0.8 0.1
v 2.6 0.9 0.1
v 2.6 1 0.1
v 2.6 1.6 0.1
v 2.6 1.7 0.1
v 2.7 0.3 0.1
v 2.7 0.4 0.1
v 2.7 0.8 0.1
v 2.7 0.9 0.1
v 2.7 1 0.1
v 2.7 1.2 0.1
v 2.7 1.3 0.1
v 2.7 1.6 0.1
v 2.8 0.5 0.1
v 2.8 0.6 0.1
v 2.8 0.7 0.1
v 2.8 0.8 0.1
v 2.8 0.9 0.1
v 2.8 1 0.1
v 2.9 0.3 0.1
v 2.9 0.4 0.1
v 2.9 0.5 0.1
v 2.9 0.6 0.1
v 2.9 0.7 0.1
v 3 0 0.1
v 3 0.2 0.1
v 3 0.4 0.1
v 3 0.8 0.1
v 3 0.9 0.1
v 3 1 0.1
v 3 1.1 0.1
v 3 1.2 0.1
v 3 1.3 0.1
v -3 0 -0.2
v -3 0.2 -0.2
v -3 0.3 -0.2
v -3 0.4 -0.2
v -3 0.8 -0.2
v -3 0.9 -0.2
v -3 1 -0.2
v -3 1.1 -0.2
v -3 1.6 -0.2
v -2.9 0.3 -0.2
v -2.9 0.4 -0.2
v -2.9 0.5 -0.2
v -2.9 0.6 -0.2
v -2.9 0.7 -0.2
v -2.9 0.9 -0.2
v -2.9 1 -0.2
v -2.9 1.6 -0.2
v -2.9 1.7 -0.2
v -2.8 0.3 -0.2
v -2.8 0.4 -0.2
v -2.8 0.5 -0.2
v -2.8 0.6 -0.2
v -2.8 0.7 -0.2
v -2.8 0.8 -0.2
v -2.8 0.9 -0.2
v -2.8 1 -0.2
v -2.8 1.6 -0.2
v -2.8 1.7 -0.2
v -2.7 0.3 -0.2
v -2.7 0.4 -0.2
v -2.7 0.5 -0.2
v -2.7 0.6 -0.2
v -2.7 0.7 -0.2
v -2.7 0.8 -0.2
v -2.7 0.9 -0.2
v -2.7 1 -0.2
v -2.7 1.2 -0.2
v -2.7 1.3 -0.2
v -2.7 1.6 -0.2
v -2.6 0.3 -0.2
v -2.6 0.4 -0.2
v -2.6 0.5 -0.2
v -2.6 0.6 -0.2
v -2.6 0.8 -0.2
v -2.6 0.9 -0.2
v -2.6 1 -0.2
v -2.5 0.3 -0.2
v -2.5 0.4 -0.2
v -2.5 0.8 -0.2
v -2.5 0.9 -0.2
v -2.4 0.3 -0.2
v -2.4 0.4 -0.2
v -2.4 0.5 -0.2
v -2.4 0.6 -0.2
v -2.4 0.7 -0.2
v -2.4 0.8 -0.2
v -2.4 1 -0.2
v -2.4 1.2 -0.2
v -2.4 1.3 -0.2
v -2.4 1.6 -0.2
v -2.3 0.3 -0.2
v -2.3 0.4 -0.2
v -2.3 0.5 -0.2
v -2.3 0.6 -0.2
v -2.3 0.7 -0.2
v -2.3 0.8 -0.2
v -2.3 0.9 -0.2
v -2.3 1 -0.2
v -2.3 1.6 -0.2
v -2.3 1.7 -0.2
v -2.2 0.5 -0.2
v -2.2 0.6 -0.2
v -2.2 0.7 -0.2
v -2.2 0.9 -0.2
v -2.2 1 -0.2
v -2.2 1.6 -0.2
v -2.2 1.7 -0.2
v -2.1 0.3 -0.2
v -2.1 0.4 -0.2
v -2.1 0.6 -0.2
v -2.1 0.7 -0.2
v -2.1 0.8 -0.2
v -2.1 0.9 -0.2
v -2.1 1 -0.2
v -2.1 1.2 -0.2
v -2.1 1.3 -0.2
v -2.1 1.6 -0.2
v -2 0.3 -0.2
v -2 0.4 -0.2
v -2 0.5 -0.2
v -2 0.6 -0.2
v -2 0.8 -0.2
v -2 0.9 -0.2
v -2 1 -0.2
v -1.9 0.3 -0.2
v -1.9 0.4 -0.2
v -1.9 0.5 -0.2
v -1.9 0.6 -0.2
v -1.9 0.8 -0.2
v -1.9 0.9 -0.2
v -1.9 1 -0.2
v -1.8 0.3 -0.2
v -1.8 0.4 -0.2
v -1.8 0.5 -0.2
v -1.8 0.6 -0.2
v -1.8 0.7 -0.2
v -1.8 0.8 -0.2
v -1.8 0.9 -0.2
v -1.8 1.2 -0.2
v -1.8 1.3 -0.2
v -1.8 1.6 -0.2
v -1.7 0.3 -0.2
v -1.7 0.4 -0.2
v -1.7 0.5 -0.2
v -1.7 0.6 -0.2
v -1.7 0.7 -0.2
v -1.7 0.8 -0.2
v -1.7 0.9 -0.2
v -1.7 1 -0.2
v -1.7 1.6 -0.2
v -1.7 1.7 -0.2
v -1.6 0.5 -0.2
v -1.6 0.6 -0.2
v -1.6 0.7 -0.2
v -1.6 0.8 -0.2
v -1.6 0.9 -0.2
v -1.6 1 -0.2
v -1.6 1.6 -0.2
v -1.6 1.7 -0.2
v -1.5 0.5 -0.2
v -1.5 0.6 -0.2
v -1.5 0.8 -0.2
v -1.5 0.9 -0.2
v -1.5 1 -0.2
v -1.5 1.2 -0.2
v -1.5 1.3 -0.2
v -1.5 1.6 -0.2
v -1.4 0.8 -0.2
v -1.4 0.9 -0.2
v -1.4 1 -0.2
v -1.3 0.3 -0.2
v -1.3 0.4 -0.2
v -1.3 0.5 -0.2
v -1.3 0.6 -0.2
v -1.3 0.7 -0.2
v -1.3 0.8 -0.2
v -1.3 0.9 -0.2
v -1.3 1 -0.2
v -1.2 0.3 -0.2
v -1.2 0.4 -0.2
v -1.2 0.5 -0.2
v -1.2 0.6 -0.2
v -1.2 0.7 -0.2
v -1.2 0.8 -0.2
v -1.2 0.9 -0.2
v -1.2 1 -0.2
v -1.2 1.2 -0.2
v -1.2 1.3 -0.2
v -1.2 1.6 -0.2
v -1.1 0.3 -0.2
v -1.1 0.4 -0.2
v -1.1 0.5 -0.2
v -1.1 0.7 -0.2
v -1.1 0.8 -0.2
v -1.1 0.9 -0.2
v -1.1 1 -0.2
v -1.1 1.6 -0.2
v -1.1 1.7 -0.2
v -1 0.3 -0.2
v -1 0.4 -0.2
v -1 0.5 -0.2
v -1 0.7 -0.2
v -1 0.8 -0.2
v -1 0.9 -0.2
v -1 1.6 -0.2
v -1 1.7 -0.2
v -0.9 0.3 -0.2
v -0.9 0.4 -0.2
v -0.9 0.5 -0.2
v -0.9 0.6 -0.2
v -0.9 0.7 -0.2
v -0.9 0.8 -0.2
v -0.9 0.9 -0.2
v -0.9 1 -0.2
v -0.9 1.2 -0.2
v -0.9 1.3 -0.2
v -0.9 1.6 -0.2
v -0.8 0.3 -0.2
v -0.8 0.4 -0.2
v -0.8 0.5 -0.2
v -0.8 0.6 -0.2
v -0.8 0.7 -0.2
v -0.8 0.8 -0.2
v -0.8 0.9 -0.2
v -0.8 1 -0.2
v -0.7 0.3 -0.2
v -0.7 0.4 -0.2
v -0.7 0.9 -0.2
v -0.7 1 -0.2
v -0.6 0.3 -0.2
v -0.6 0.4 -0.2
v -0.6 0.5 -0.2
v -0.6 0.6 -0.2
v -0.6 0.7 -0.2
v -0.6 0.8 -0.2
v -0.6 0.9 -0.2
v -0.6 1 -0.2
v -0.6 1.2 -0.2
v -0.6 1.3 -0.2
v -0.6 1.6 -0.2
v -0.5 0.3 -0.2
v -0.5 0.4 -0.2
v -0.5 0.5 -0.2
v -0.5 0.6 -0.2
v -0.5 0.7 -0.2
v -0.5 0.8 -0.2
v -0.5 0.9 -0.2
v -0.5 1 -0.2
v -0.5 1.6 -0.2
v -0.5 1.7 -0.2
v -0.4 0.5 -0.2
v -0.4 0.6 -0.2
v -0.4 0.7 -0.2
v -0.4 0.8 -0.2
v -0.4 0.9 -0.2
v -0.4 1 -0.2
v -0.4 1.6 -0.2
v -0.4 1.7 -0.2
v -0.3 0.3 -0.2
v -0.3 0.4 -0.2
v -0.3 0.5 -0.2
v -0.3 0.6 -0.2
v -0.3 0.7 -0.2
v -0.3 0.8 -0.2
v -0.3 0.9 -0.2
v -0.3 1 -0.2
v -0.3 1.2 -0.2
v -0.3 1.3 -0.2
v -0.3 1.6 -0.2
v -0.2 0.3 -0.2
v -0.2 0.4 -0.2
v -0.2 0.5 -0.2
v -0.2 0.6 -0.2
v -0.2 0.7 -0.2
v -0.2 0.8 -0.2
v -0.2 0.9 -0.2
v -0.2 1 -0.2
v -0.0999999 0.3 -0.2
v -0.0999999 0.4 -0.2
v -0.0999999 0.6 -0.2
v -0.0999999 0.7 -0.2
v 2.38419e-007 0.3 -0.2
v 2.38419e-007 0.4 -0.2
v 2.38419e-007 0.5 -0.2
v 2.38419e-007 0.6 -0.2
v 2.38419e-007 0.7 -0.2
v 2.38419e-007 0.9 -0.2
v 2.38419e-007 1 -0.2
v 2.38419e-007 1.2 -0.2
v 2.38419e-007 1.3 -0.2
v 2.38419e-007 1.6 -0.2
v 0.1 0.3 -0.2
v 0.1 0.4 -0.2
v 0.1 0.5 -0.2
v 0.1 0.6 -0.2
v 0.1 0.7 -0.2
v 0.1 0.8 -0.2
v 0.1 0.9 -0.2
v 0.1 1 -0.2
v 0.1 1.6 -0.2
v 0.1 1.7 -0.2
v 0.2 0.3 -0.2
v 0.2 0.4 -0.2
v 0.2 0.5 -0.2
v 0.2 0.6 -0.2
v 0.2 0.7 -0.2
v 0.2 0.8 -0.2
v 0.2 1 -0.2
v 0.2 1.6 -0.2
v 0.2 1.7 -0.2
v 0.3 0.3 -0.2
v 0.3 0.4 -0.2
v 0.3 0.5 -0.2
v 0.3 0.6 -0.2
v 0.3 0.7 -0.2
v 0.3 0.9 -0.2
v 0.3 1 -0.2
v 0.3 1.2 -0.2
v 0.3 1.3 -0.2
v 0.3 1.6 -0.2
v 0.4 0.5 -0.2
v 0.4 0.6 -0.2
v 0.4 0.9 -0.2
v 0.4 1 -0.2
v 0.5 0.3 -0.2
v 0.5 0.4 -0.2
v 0.5 0.5 -0.2
v 0.5 0.6 -0.2
v 0.5 0.7 -0.2
v 0.5 0.8 -0.2
v 0.5 1 -0.2
v 0.6 0.3 -0.2
v 0.6 0.4 -0.2
v 0.6 0.5 -0.2
v 0.6 0.6 -0.2
v 0.6 0.7 -0.2
v 0.6 0.8 -0.2
v 0.6 0.9 -0.2
v 0.6 1 -0.2
v 0.6 1.2 -0.2
v 0.6 1.3 -0.2
v 0.6 1.6 -0.2
v 0.7 0.3 -0.2
v 0.7 0.4 -0.2
v 0.7 0.5 -0.2
v 0.7 0.6 -0.2
v 0.7 0.7 -0.2
v 0.7 0.8 -0.2
v 0.7 0.9 -0.2
v 0.7 1 -0.2
v 0.7 1.6 -0.2
v 0.7 1.7 -0.2
v 0.8 0.3 -0.2
v 0.8 0.4 -0.2
v 0.8 0.5 -0.2
v 0.8 0.6 -0.2
v 0.8 0.7 -0.2
v 0.8 1.6 -0.2
v 0.8 1.7 -0.2
v 0.9 0.3 -0.2
v 0.9 0.4 -0.2
v 0.9 0.5 -0.2
v 0.9 0.6 -0.2
v 0.9 0.7 -0.2
v 0.9 0.8 -0.2
v 0.9 1 -0.2
v 0.9 1.2 -0.2
v 0.9 1.3 -0.2
v 0.9 1.6 -0.2
v 1 0.3 -0.2
v 1 0.4 -0.2
v 1 0.5 -0.2
v 1 0.6 -0.2
v 1 0.7 -0.2
v 1 0.8 -0.2
v 1 0.9 -0.2
v 1 1 -0.2
v 1.1 0.3 -0.2
v 1.1 0.4 -0.2
v 1.1 0.8 -0.2
v 1.1 0.9 -0.2
v 1.1 1 -0.2
v 1.2 0.5 -0.2
v 1.2 0.6 -0.2
v 1.2 0.7 -0.2
v 1.2 0.8 -0.2
v 1.2 0.9 -0.2
v 1.2 1 -0.2
v 1.2 1.2 -0.2
v 1.2 1.3 -0.2
v 1.2 1.6 -0.2
v 1.3 0.3 -0.2
v 1.3 0.4 -0.2
v 1.3 0.5 -0.2
v 1.3 0.6 -0.2
v 1.3 0.7 -0.2
v 1.3 0.9 -0.2
v 1.3 1 -0.2
v 1.3 1.6 -0.2
v 1.3 1.7 -0.2
v 1.4 0.3 -0.2
v 1.4 0.4 -0.2
v 1.4 0.5 -0.2
v 1.4 0.6 -0.2
v 1.4 0.7 -0.2
v 1.4 0.8 -0.2
v 1.4 0.9 -0.2
v 1.4 1.6 -0.2
v 1.4 1.7 -0.2
v 1.5 0.3 -0.2
v 1.5 0.4 -0.2
v 1.5 0.8 -0.2
v 1.5 0.9 -0.2
v 1.5 1.2 -0.2
v 1.5 1.3 -0.2
v 1.5 1.6 -0.2
v 1.6 0.5 -0.2
v 1.6 0.6 -0.2
v 1.6 0.7 -0.2
v 1.7 0.3 -0.2
v 1.7 0.4 -0.2
v 1.7 0.5 -0.2
v 1.7 0.6 -0.2
v 1.7 0.8 -0.2
v 1.7 0.9 -0.2
v 1.7 1 -0.2
v 1.8 0.3 -0.2
v 1.8 0.4 -0.2
v 1.8 0.5 -0.2
v 1.8 0.6 -0.2
v 1.8 0.7 -0.2
v 1.8 0.8 -0.2
v 1.8 0.9 -0.2
v 1.8 1 -0.2
v 1.8 1.2 -0.2
v 1.8 1.3 -0.2
v 1.8 1.6 -0.2
v 1.9 0.3 -0.2
v 1.9 0.4 -0.2
v 1.9 0.5 -0.2
v 1.9 0.7 -0.2
v 1.9 0.8 -0.2
v 1.9 0.9 -0.2
v 1.9 1 -0.2
v 1.9 1.6 -0.2
v 1.9 1.7 -0.2
v 2 0.9 -0.2
v 2 1 -0.2
v 2 1.6 -0.2
v 2 1.7 -0.2
v 2.1 0.3 -0.2
v 2.1 0.4 -0.2
v 2.1 0.5 -0.2
v 2.1 0.7 -0.2
v 2.1 0.8 -0.2
v 2.1 1 -0.2
v 2.1 1.2 -0.2
v 2.1 1.3 -0.2
v 2.1 1.6 -0.2
v 2.2 0.3 -0.2
v 2.2 0.4 -0.2
v 2.2 0.5 -0.2
v 2.2 0.6 -0.2
v 2.2 0.7 -0.2
v 2.2 0.8 -0.2
v 2.2 0.9 -0.2
v 2.2 1 -0.2
v 2.3 0.5 -0.2
v 2.3 0.6 -0.2
v 2.3 0.7 -0.2
v 2.3 0.8 -0.2
v 2.3 0.9 -0.2
v 2.4 0.3 -0.2
v 2.4 0.4 -0.2
v 2.4 0.5 -0.2
v 2.4 0.6 -0.2
v 2.4 0.7 -0.2
v 2.4 0.8 -0.2
v 2.4 0.9 -0.2
v 2.4 1 -0.2
v 2.4 1.2 -0.2
v 2.4 1.3 -0.2
v 2.4 1.6 -0.2
v 2.5 0.3 -0.2
v 2.5 0.4 -0.2
v 2.5 0.5 -0.2
v 2.5 0.6 -0.2
v 2.5 0.7 -0.2
v 2.5 0.8 -0.2
v 2.5 0.9 -0.2
v 2.5 1 -0.2
v 2.5 1.6 -0.2
v 2.5 1.7 -0.2
v 2.6 0.3 -0.2
v 2.6 0.4 -0.2
v 2.6 0.5 -0.2
v 2.6 0.6 -0.2
v 2.6 0.7 -0.2
v 2.6 0.8 -0.2
v 2.6 0.9 -0.2
v 2.6 1 -0.2
v 2.6 1.6 -0.2
v 2.6 1.7 -0.2
v 2.7 0.3 -0.2
v 2.7 0.4 -0.2
v 2.7 0.6 -0.2
v 2.7 0.7 -0.2
v 2.7 0.8 -0.2
v 2.7 0.9 -0.2
v 2.7 1 -0.2
v 2.7 1.2 -0.2
v 2.7 1.3 -0.2
v 2.7 1.6 -0.2
v 2.8 0.3 -0.2
v 2.8 0.4 -0.2
v 2.8 0.5 -0.2
v 2.8 0.6 -0.2
v 2.8 0.8 -0.2
v 2.8 0.9 -0.2
v 2.8 1 -0.2
v 2.9 0.5 -0.2
v 2.9 0.7 -0.2
v 2.9 0.8 -0.2
v 2.9 1 -0.2
v 3 0 -0.2
v 3 0.2 -0.2
v 3 0.3 -0.2
v 3 0.4 -0.2
v 3 0.8 -0.2
v 3 1 -0.2
v 3 1.1 -0.2
v 3 1.2 -0.2
v 3 1.3 -0.2
v -3 0 0.1
v 3 0 0.1
v -2.9 0 0
v -2.8 0 0
v -2.7 0 0
v -2.6 0 0
v -2.5 0 0
v -2.3 0 0
v -2.1 0 0
v -2 0 0
v -1.9 0 0
v -1.8 0 0
v -1.6 0 0
v -1.4 0 0
v -1.3 0 0
v -1.1 0 0
v -1 0 0
v -0.8 0 0
v -0.7 0 0
v -0.5 0 0
v -0.2 0 0
v -0.0999999 0 0
v 0.1 0 0
v 0.2 0 0
v 0.3 0 0
v 0.4 0 0
v 0.5 0 0
v 0.6 0 0
v 0.7 0 0
v 0.8 0 0
v 0.9 0 0
v 1 0 0
v 1.1 0 0
v 1.2 0 0
v 1.3 0 0
v 1.4 0 0
v 1.5 0 0
v 1.6 0 0
v 2 0 0
v 2.1 0 0
v 2.2 0 0
v 2.3 0 0
v 2.4 0 0
v 2.6 0 0
v 2.8 0 0
v 3 0 0
v -2.9 0 -0.1
v -2.8 0 -0.1
v -2.7 0 -0.1
v -2.6 0 -0.1
v -2.5 0 -0.1
v -2.3 0 -0.1
v -2.1 0 -0.1
v -2 0 -0.1
v -1.9 0 -0.1
v -1.8 0 -0.1
v -1.6 0 -0.1
v -1.4 0 -0.1
v -1.3 0 -0.1
v -1.1 0 -0.1
v -1 0 -0.1
v -0.8 0 -0.1
v -0.7 0 -0.1
v -0.5 0 -0.1
v -0.2 0 -0.1
v -0.0999999 0 -0.1
v 0.1 0 -0.1
v 0.2 0 -0.1
v 0.3 0 -0.1
v 0.4 0 -0.1
v 0.5 0 -0.1
v 0.6 0 -0.1
v 0.7 0 -0.1
v 0.8 0 -0.1
v 0.9 0 -0.1
v 1 0 -0.1
v 1.1 0 -0.1
v 1.2 0 -0.1
v 1.3 0 -0.1
v 1.4 0 -0.1
v 1.5 0 -0.1
v 1.6 0 -0.1
v 2 0 -0.1
v 2.1 0 -0.1
v 2.2 0 -0.1
v 2.3 0 -0.1
v 2.4 0 -0.1
v 2.6 0 -0.1
v 2.8 0 -0.1
v 3 0 -0.1
v -3 0 -0.2
v 3 0 -0.2
v -2.7 1.3 0.1
v -2.4 1.3 0.1
v -2.1 1.3 0.1
v -1.8 1.3 0.1
v -1.5 1.3 0.1
v -1.2 1.3 0.1
v -0.9 1.3 0.1
v -0.6 1.3 0.1
v -0.3 1.3 0.1
v 2.38419e-007 1.3 0.1
v 0.3 1.3 0.1
v 0.6 1.3 0.1
v 0.9 1.3 0.1
v 1.2 1.3 0.1
v 1.5 1.3 0.1
v 1.8 1.3 0.1
v 2.1 1.3 0.1
v 2.4 1.3 0.1
v 2.7 1.3 0.1
v 3 1.3 0.1
v -2.7 1.3 -0.2
v -2.4 1.3 -0.2
v -2.1 1.3 -0.2
v -1.8 1.3 -0.2
v -1.5 1.3 -0.2
v -1.2 1.3 -0.2
v -0.9 1.3 -0.2
v -0.6 1.3 -0.2
v -0.3 1.3 -0.2
v 2.38419e-007 1.3 -0.2
v 0.3 1.3 -0.2
v 0.6 1.3 -0.2
v 0.9 1.3 -0.2
v 1.2 1.3 -0.2
v 1.5 1.3 -0.2
v 1.8 1.3 -0.2
v 2.1 1.3 -0.2
v 2.4 1.3 -0.2
v 2.7 1.3 -0.2
v 3 1.3 -0.2
v -3 1.6 0.1
v -2.9 1.6 0.1
v -2.8 1.6 0.1
v -2.7 1.6 0.1
v -2.4 1.6 0.1
v -2.3 1.6 0.1
v -2.2 1.6 0.1
v -2.1 1.6 0.1
v -1.8 1.6 0.1
v -1.7 1.6 0.1
v -1.6 1.6 0.1
v -1.5 1.6 0.1
v -1.2 1.6 0.1
v -1.1 1.6 0.1
v -1 1.6 0.1
v -0.9 1.6 0.1
v -0.6 1.6 0.1
v -0.5 1.6 0.1
v -0.4 1.6 0.1
v -0.3 1.6 0.1
v 2.38419e-007 1.6 0.1
v 0.1 1.6 0.1
v 0.2 1.6 0.1
v 0.3 1.6 0.1
v 0.6 1.6 0.1
v 0.7 1.6 0.1
v 0.8 1.6 0.1
v 0.9 1.6 0.1
v 1.2 1.6 0.1
v 1.3 1.6 0.1
v 1.4 1.6 0.1
v 1.5 1.6 0.1
v 1.8 1.6 0.1
v 1.9 1.6 0.1
v 2 1.6 0.1
v 2.1 1.6 0.1
v 2.4 1.6 0.1
v 2.5 1.6 0.1
v 2.6 1.6 0.1
v 2.7 1.6 0.1
v -3 1.6 -0.2
v -2.9 1.6 -0.2
v -2.8 1.6 -0.2
v -2.7 1.6 -0.2
v -2.4 1.6 -0.2
v -2.3 1.6 -0.2
v -2.2 1.6 -0.2
v -2.1 1.6 -0.2
v -1.8 1.6 -0.2
v -1.7 1.6 -0.2
v -1.6 1.6 -0.2
v -1.5 1.6 -0.2
v -1.2 1.6 -0.2
v -1.1 1.6 -0.2
v -1 1.6 -0.2
v -0.9 1.6 -0.2
v -0.6 1.6 -0.2
v -0.5 1.6 -0.2
v -0.4 1.6 -0.2
v -0.3 1.6 -0.2
v 2.38419e-007 1.6 -0.2
v 0.1 1.6 -0.2
v 0.2 1.6 -0.2
v 0.3 1.6 -0.2
v 0.6 1.6 -0.2
v 0.7 1.6 -0.2
v 0.8 1.6 -0.2
v 0.9 1.6 -0.2
v 1.2 1.6 -0.2
v 1.3 1.6 -0.2
v 1.4 1.6 -0.2
v 1.5 1.6 -0.2
v 1.8 1.6 -0.2
v 1.9 1.6 -0.2
v 2 1.6 -0.2
v 2.1 1.6 -0.2
v 2.4 1.6 -0.2
v 2.5 1.6 -0.2
v 2.6 1.6 -0.2
v 2.7 1.6 -0.2
v -2.9 1.7 0.1
v -2.8 1.7 0.1
v -2.3 1.7 0.1
v -2.2 1.7 0.1
v -1.7 1.7 0.1
v -1.6 1.7 0.1
v -1.1 1.7 0.1
v -1 1.7 0.1
v -0.5 1.7 0.1
v -0.4 1.7 0.1
v 0.1 1.7 0.1
v 0.2 1.7 0.1
v 0.7 1.7 0.1
v 0.8 1.7 0.1
v 1.3 1.7 0.1
v 1.4 1.7 0.1
v 1.9 1.7 0.1
v 2 1.7 0.1
v 2.5 1.7 0.1
v 2.6 1.7 0.1
v -2.9 1.7 -0.2
v -2.8 1.7 -0.2
v -2.3 1.7 -0.2
v -2.2 1.7 -0.2
v -1.7 1.7 -0.2
v -1.6 1.7 -0.2
v -1.1 1.7 -0.2
v -1 1.7 -0.2
v -0.5 1.7 -0.2
v -0.4 1.7 -0.2
v 0.1 1.7 -0.2
v 0.2 1.7 -0.2
v 0.7 1.7 -0.2
v 0.8 1.7 -0.2
v 1.3 1.7 -0.2
v 1.4 1.7 -0.2
v 1.9 1.7 -0.2
v 2 1.7 -0.2
v 2.5 1.7 -0.2
v 2.6 1.7 -0.2

# faces
f 3/1/1 2/1/1 1/1/1
f 4/1/1 2/1/1 3/1/1
f 5/5/1 4/5/1 3/5/1
f 6/5/1 4/5/1 5/5/1
f 7/5/1 4/5/1 6/5/1
f 8/5/1 5/5/1 3/5/1
f 9/4/1 6/4/1 5/4/1
f 9/5/1 5/5/1 8/5/1
f 10/2/1 7/2/1 6/2/1
f 10/4/1 6/4/1 9/4/1
f 11/2/1 7/2/1 10/2/1
f 12/1/1 9/1/1 8/1/1
f 12/1/1 10/1/1 9/1/1
f 12/1/1 11/1/1 10/1/1
f 13/1/1 11/1/1 12/1/1
f 14/1/1 11/1/1 13/1/1
f 15/1/1 11/1/1 14/1/1
f 16/2/1 13/2/1 12/2/1
f 17/3/1 14/3/1 13/3/1
f 17/2/1 13/2/1 16/2/1
f 18/5/1 15/5/1 14/5/1
f 18/3/1 14/3/1 17/3/1
f 19/5/1 15/5/1 18/5/1
f 20/3/1 17/3/1 16/3/1
f 20/3/1 18/3/1 17/3/1
f 21/2/1 19/2/1 18/2/1
f 21/3/1 18/3/1 20/3/1
f 22/2/1 19/2/1 21/2/1
f 23/1/1 21/1/1 20/1/1
f 23/1/1 22/1/1 21/1/1
f 24/1/1 22/1/1 23/1/1
f 25/5/1 24/5/1 23/5/1
f 26/5/1 24/5/1 25/5/1
f 29/5/1 28/5/1 27/5/1
f 30/5/1 28/5/1 29/5/1
f 33/5/1 32/5/1 31/5/1
f 34/5/1 32/5/1 33/5/1
f 37/5/1 36/5/1 35/5/1
f 38/5/1 36/5/1 37/5/1
f 41/5/1 40/5/1 39/5/1
f 42/5/1 40/5/1 41/5/1
f 45/5/1 44/5/1 43/5/1
f 46/5/1 44/5/1 45/5/1
f 49/5/1 48/5/1 47/5/1
f 50/5/1 48/5/1 49/5/1
f 53/5/1 52/5/1 51/5/1
f 54/5/1 52/5/1 53/5/1
f 57/5/1 56/5/1 55/5/1
f 58/5/1 56/5/1 57/5/1
f 61/5/1 60/5/1 59/5/1
f 62/5/1 60/5/1 61/5/1
f 65/5/1 64/5/1 63/5/1
f 66/5/1 64/5/1 65/5/1
f 69/5/1 68/5/1 67/5/1
f 70/5/1 68/5/1 69/5/1
f 73/5/1 72/5/1 71/5/1
f 74/5/1 72/5/1 73/5/1
f 77/5/1 76/5/1 75/5/1
f 78/5/1 76/5/1 77/5/1
f 81/5/1 80/5/1 79/5/1
f 82/5/1 80/5/1 81/5/1
f 85/5/1 84/5/1 83/5/1
f 86/5/1 84/5/1 85/5/1
f 89/5/1 88/5/1 87/5/1
f 90/5/1 88/5/1 89/5/1
f 93/5/1 92/5/1 91/5/1
f 94/5/1 92/5/1 93/5/1
f 97/5/1 96/5/1 95/5/1
f 98/5/1 96/5/1 97/5/1
f 101/5/1 100/5/1 99/5/1
f 102/5/1 100/5/1 101/5/1
f 103/5/2 104/5/2 105/5/2
f 105/5/2 104/5/2 106/5/2
f 107/5/2 108/5/2 109/5/2
f 109/5/2 108/5/2 110/5/2
f 111/5/2 112/5/2 113/5/2
f 113/5/2 112/5/2 114/5/2
f 115/5/2 116/5/2 117/5/2
f 117/5/2 116/5/2 118/5/2
f 119/5/2 120/5/2 121/5/2
f 121/5/2 120/5/2 122/5/2
f 123/5/2 124/5/2 125/5/2
f 125/5/2 124/5/2 126/5/2
f 127/5/2 128/5/2 129/5/2
f 129/5/2 128/5/2 130/5/2
f 131/5/2 132/5/2 133/5/2
f 133/5/2 132/5/2 134/5/2
f 135/5/2 136/5/2 137/5/2
f 137/5/2 136/5/2 138/5/2
f 139/5/2 140/5/2 141/5/2
f 141/5/2 140/5/2 142/5/2
f 143/5/2 144/5/2 145/5/2
f 145/5/2 144/5/2 146/5/2
f 147/5/2 148/5/2 149/5/2
f 149/5/2 148/5/2 150/5/2
f 151/5/2 152/5/2 153/5/2
f 153/5/2 152/5/2 154/5/2
f 155/5/2 156/5/2 157/5/2
f 157/5/2 156/5/2 158/5/2
f 159/5/2 160/5/2 161/5/2
f 161/5/2 160/5/2 162/5/2
f 163/5/2 164/5/2 165/5/2
f 165/5/2 164/5/2 166/5/2
f 167/5/2 168/5/2 169/5/2
f 169/5/2 168/5/2 170/5/2
f 171/5/2 172/5/2 173/5/2
f 173/5/2 172/5/2 174/5/2
f 175/5/2 176/5/2 177/5/2
f 177/5/2 176/5/2 178/5/2
f 179/5/2 180/5/2 181/5/2
f 181/5/2 180/5/2 182/5/2
f 183/1/2 184/1/2 187/1/2
f 184/4/2 185/4/2 187/4/2
f 185/1/2 186/1/2 188/1/2
f 187/4/2 185/4/2 188/4/2
f 183/1/2 187/1/2 189/1/2
f 187/3/2 188/3/2 190/3/2
f 189/1/2 187/1/2 190/1/2
f 188/1/2 186/1/2 191/1/2
f 190/3/2 188/3/2 191/3/2
f 191/1/2 186/1/2 192/1/2
f 189/5/2 190/5/2 193/5/2
f 190/5/2 191/5/2 193/5/2
f 191/5/2 192/5/2 193/5/2
f 193/5/2 192/5/2 194/5/2
f 194/5/2 192/5/2 195/5/2
f 189/5/2 193/5/2 196/5/2
f 193/2/2 194/2/2 197/2/2
f 196/5/2 193/5/2 197/5/2
f 194/4/2 195/4/2 198/4/2
f 197/2/2 194/2/2 198/2/2
f 198/4/2 195/4/2 199/4/2
f 196/1/2 197/1/2 200/1/2
f 197/5/2 198/5/2 200/5/2
f 198/1/2 199/1/2 201/1/2
f 200/5/2 198/5/2 201/5/2
f 196/1/2 200/1/2 202/1/2
f 200/2/2 201/2/2 202/2/2
f 201/1/2 199/1/2 203/1/2
f 202/2/2 201/2/2 203/2/2
f 196/1/2 202/1/2 204/1/2
f 202/5/2 203/5/2 204/5/2
f 203/1/2 199/1/2 205/1/2
f 204/5/2 203/5/2 205/5/2
f 196/1/2 204/1/2 206/1/2
f 204/4/2 205/4/2 207/4/2
f 206/1/2 204/1/2 207/1/2
f 205/1/2 199/1/2 208/1/2
f 207/4/2 205/4/2 208/4/2
f 208/1/2 199/1/2 209/1/2
f 206/5/2 207/5/2 210/5/2
f 207/5/2 208/5/2 210/5/2
f 210/5/2 208/5/2 211/5/2
f 210/4/2 211/4/2 212/4/2
f 211/5/2 208/5/2 213/5/2
f 212/4/2 211/4/2 213/4/2
f 208/4/2 209/4/2 214/4/2
f 213/5/2 208/5/2 214/5/2
f 214/4/2 209/4/2 215/4/2
f 212/1/2 213/1/2 216/1/2
f 213/3/2 214/3/2 217/3/2
f 216/1/2 213/1/2 217/1/2
f 214/1/2 215/1/2 218/1/2
f 217/3/2 214/3/2 218/3/2
f 218/1/2 215/1/2 219/1/2
f 216/5/2 217/5/2 220/5/2
f 217/5/2 218/5/2 220/5/2
f 218/5/2 219/5/2 220/5/2
f 220/5/2 219/5/2 221/5/2
f 220/1/2 221/1/2 222/1/2
f 222/1/2 221/1/2 223/1/2
f 232/1/3 227/1/3 226/1/3
f 233/1/3 227/1/3 232/1/3
f 234/1/3 227/1/3 233/1/3
f 235/2/3 228/2/3 227/2/3
f 235/1/3 227/1/3 234/1/3
f 236/3/3 229/3/3 228/3/3
f 236/2/3 228/2/3 235/2/3
f 237/1/3 230/1/3 229/1/3
f 237/3/3 229/3/3 236/3/3
f 238/5/3 231/5/3 230/5/3
f 240/1/3 232/1/3 226/1/3
f 240/4/3 233/4/3 232/4/3
f 241/2/3 234/2/3 233/2/3
f 241/4/3 233/4/3 240/4/3
f 242/1/3 235/1/3 234/1/3
f 242/2/3 234/2/3 241/2/3
f 243/5/3 236/5/3 235/5/3
f 243/1/3 235/1/3 242/1/3
f 243/5/3 237/5/3 236/5/3
f 244/5/3 237/5/3 243/5/3
f 245/1/3 230/1/3 237/1/3
f 245/5/3 237/5/3 244/5/3
f 246/5/3 239/5/3 238/5/3
f 246/5/3 238/5/3 230/5/3
f 247/5/3 239/5/3 246/5/3
f 248/5/3 226/5/3 225/5/3
f 249/1/3 240/1/3 226/1/3
f 249/5/3 226/5/3 248/5/3
f 250/3/3 241/3/3 240/3/3
f 250/3/3 242/3/3 241/3/3
f 251/1/3 243/1/3 242/1/3
f 251/3/3 242/3/3 250/3/3
f 252/3/3 244/3/3 243/3/3
f 252/1/3 243/1/3 251/1/3
f 253/2/3 245/2/3 244/2/3
f 253/3/3 244/3/3 252/3/3
f 254/1/3 230/1/3 245/1/3
f 254/2/3 245/2/3 253/2/3
f 255/5/3 246/5/3 230/5/3
f 256/5/3 246/5/3 255/5/3
f 257/5/3 246/5/3 256/5/3
f 258/5/3 248/5/3 225/5/3
f 258/1/3 249/1/3 248/1/3
f 259/1/3 240/1/3 249/1/3
f 259/1/3 249/1/3 258/1/3
f 260/3/3 250/3/3 240/3/3
f 260/1/3 240/1/3 259/1/3
f 261/2/3 251/2/3 250/2/3
f 261/3/3 250/3/3 260/3/3
f 262/1/3 253/1/3 252/1/3
f 262/1/3 252/1/3 251/1/3
f 262/1/3 254/1/3 253/1/3
f 263/1/3 254/1/3 262/1/3
f 264/1/3 230/1/3 254/1/3
f 264/1/3 254/1/3 263/1/3
f 265/1/3 260/1/3 259/1/3
f 265/5/3 261/5/3 260/5/3
f 266/2/3 251/2/3 261/2/3
f 266/5/3 261/5/3 265/5/3
f 267/4/3 264/4/3 263/4/3
f 267/3/3 263/3/3 262/3/3
f 268/1/3 230/1/3 264/1/3
f 268/4/3 264/4/3 267/4/3
f 269/5/3 258/5/3 225/5/3
f 269/2/3 259/2/3 258/2/3
f 270/1/3 265/1/3 259/1/3
f 270/2/3 259/2/3 269/2/3
f 271/2/3 266/2/3 265/2/3
f 271/1/3 265/1/3 270/1/3
f 272/2/3 251/2/3 266/2/3
f 272/2/3 266/2/3 271/2/3
f 272/1/3 262/1/3 251/1/3
f 273/3/3 267/3/3 262/3/3
f 273/1/3 262/1/3 272/1/3
f 273/3/3 268/3/3 267/3/3
f 274/3/3 268/3/3 273/3/3
f 275/1/3 230/1/3 268/1/3
f 275/3/3 268/3/3 274/3/3
f 276/1/3 256/1/3 255/1/3
f 276/5/3 255/5/3 230/5/3
f 277/1/3 256/1/3 276/1/3
f 279/5/3 269/5/3 225/5/3
f 279/5/3 270/5/3 269/5/3
f 280/1/3 272/1/3 271/1/3
f 280/5/3 270/5/3 279/5/3
f 280/1/3 271/1/3 270/1/3
f 280/1/3 273/1/3 272/1/3
f 281/1/3 273/1/3 280/1/3
f 282/1/3 273/1/3 281/1/3
f 283/1/3 273/1/3 282/1/3
f 284/2/3 274/2/3 273/2/3
f 284/4/3 275/4/3 274/4/3
f 285/1/3 230/1/3 275/1/3
f 285/4/3 275/4/3 284/4/3
f 286/5/3 278/5/3 277/5/3
f 286/5/3 277/5/3 276/5/3
f 288/5/3 279/5/3 225/5/3
f 288/4/3 280/4/3 279/4/3
f 289/1/3 281/1/3 280/1/3
f 289/4/3 280/4/3 288/4/3
f 290/4/3 283/4/3 282/4/3
f 290/5/3 282/5/3 281/5/3
f 291/1/3 273/1/3 283/1/3
f 291/4/3 283/4/3 290/4/3
f 292/2/3 284/2/3 273/2/3
f 292/1/3 273/1/3 291/1/3
f 293/3/3 285/3/3 284/3/3
f 293/2/3 284/2/3 292/2/3
f 294/1/3 230/1/3 285/1/3
f 294/3/3 285/3/3 293/3/3
f 295/5/3 287/5/3 286/5/3
f 295/5/3 286/5/3 276/5/3
f 296/5/3 287/5/3 295/5/3
f 297/3/3 289/3/3 288/3/3
f 297/5/3 288/5/3 225/5/3
f 298/1/3 281/1/3 289/1/3
f 298/3/3 289/3/3 297/3/3
f 299/5/3 290/5/3 281/5/3
f 299/1/3 281/1/3 298/1/3
f 300/3/3 291/3/3 290/3/3
f 300/5/3 290/5/3 299/5/3
f 301/1/3 292/1/3 291/1/3
f 301/3/3 291/3/3 300/3/3
f 302/4/3 293/4/3 292/4/3
f 302/1/3 292/1/3 301/1/3
f 303/5/3 294/5/3 293/5/3
f 303/4/3 293/4/3 302/4/3
f 304/1/3 230/1/3 294/1/3
f 304/5/3 294/5/3 303/5/3
f 305/5/3 276/5/3 230/5/3
f 305/5/3 295/5/3 276/5/3
f 306/5/3 295/5/3 305/5/3
f 307/5/3 295/5/3 306/5/3
f 308/4/3 298/4/3 297/4/3
f 308/5/3 297/5/3 225/5/3
f 309/1/3 299/1/3 298/1/3
f 309/4/3 298/4/3 308/4/3
f 310/4/3 301/4/3 300/4/3
f 310/1/3 299/1/3 309/1/3
f 310/4/3 300/4/3 299/4/3
f 311/4/3 301/4/3 310/4/3
f 312/1/3 302/1/3 301/1/3
f 312/4/3 301/4/3 311/4/3
f 313/3/3 303/3/3 302/3/3
f 313/1/3 302/1/3 312/1/3
f 313/3/3 304/3/3 303/3/3
f 314/1/3 230/1/3 304/1/3
f 314/3/3 304/3/3 313/3/3
f 315/5/3 308/5/3 225/5/3
f 315/1/3 309/1/3 308/1/3
f 315/1/3 310/1/3 309/1/3
f 316/1/3 310/1/3 315/1/3
f 317/3/3 312/3/3 311/3/3
f 317/2/3 311/2/3 310/2/3
f 318/1/3 314/1/3 313/1/3
f 318/3/3 312/3/3 317/3/3
f 318/1/3 313/1/3 312/1/3
f 319/1/3 314/1/3 318/1/3
f 320/1/3 230/1/3 314/1/3
f 320/1/3 314/1/3 319/1/3
f 321/2/3 316/2/3 315/2/3
f 321/5/3 315/5/3 225/5/3
f 322/1/3 310/1/3 316/1/3
f 322/2/3 316/2/3 321/2/3
f 323/2/3 317/2/3 310/2/3
f 323/1/3 310/1/3 322/1/3
f 324/4/3 318/4/3 317/4/3
f 324/2/3 317/2/3 323/2/3
f 325/4/3 320/4/3 319/4/3
f 326/1/3 230/1/3 320/1/3
f 326/4/3 320/4/3 325/4/3
f 327/1/3 306/1/3 305/1/3
f 327/5/3 305/5/3 230/5/3
f 328/1/3 306/1/3 327/1/3
f 330/1/3 323/1/3 322/1/3
f 330/4/3 324/4/3 323/4/3
f 331/1/3 319/1/3 318/1/3
f 331/4/3 324/4/3 330/4/3
f 331/4/3 318/4/3 324/4/3
f 332/4/3 325/4/3 319/4/3
f 332/1/3 319/1/3 331/1/3
f 333/2/3 326/2/3 325/2/3
f 333/4/3 325/4/3 332/4/3
f 334/1/3 230/1/3 326/1/3
f 334/2/3 326/2/3 333/2/3
f 335/5/3 329/5/3 328/5/3
f 335/5/3 328/5/3 327/5/3
f 337/5/3 321/5/3 225/5/3
f 337/4/3 322/4/3 321/4/3
f 338/1/3 331/1/3 330/1/3
f 338/4/3 322/4/3 337/4/3
f 338/1/3 330/1/3 322/1/3
f 338/1/3 332/1/3 331/1/3
f 339/1/3 332/1/3 338/1/3
f 340/1/3 332/1/3 339/1/3
f 341/1/3 332/1/3 340/1/3
f 342/5/3 333/5/3 332/5/3
f 342/1/3 332/1/3 341/1/3
f 343/3/3 334/3/3 333/3/3
f 343/5/3 333/5/3 342/5/3
f 344/1/3 230/1/3 334/1/3
f 344/3/3 334/3/3 343/3/3
f 345/5/3 336/5/3 335/5/3
f 345/5/3 335/5/3 327/5/3
f 346/5/3 336/5/3 345/5/3
f 347/1/3 339/1/3 338/1/3
f 347/3/3 340/3/3 339/3/3
f 348/2/3 341/2/3 340/2/3
f 348/3/3 340/3/3 347/3/3
f 349/1/3 342/1/3 341/1/3
f 349/2/3 341/2/3 348/2/3
f 350/4/3 344/4/3 343/4/3
f 350/4/3 343/4/3 342/4/3
f 351/1/3 230/1/3 344/1/3
f 351/4/3 344/4/3 350/4/3
f 352/5/3 327/5/3 230/5/3
f 352/5/3 345/5/3 327/5/3
f 353/5/3 345/5/3 352/5/3
f 354/5/3 345/5/3 353/5/3
f 355/5/3 337/5/3 225/5/3
f 355/2/3 338/2/3 337/2/3
f 356/1/3 347/1/3 338/1/3
f 356/2/3 338/2/3 355/2/3
f 357/4/3 348/4/3 347/4/3
f 357/1/3 347/1/3 356/1/3
f 358/3/3 349/3/3 348/3/3
f 358/4/3 348/4/3 357/4/3
f 359/1/3 342/1/3 349/1/3
f 359/3/3 349/3/3 358/3/3
f 360/4/3 350/4/3 342/4/3
f 360/1/3 342/1/3 359/1/3
f 361/2/3 351/2/3 350/2/3
f 361/4/3 350/4/3 360/4/3
f 362/5/3 356/5/3 355/5/3
f 362/5/3 355/5/3 225/5/3
f 363/1/3 357/1/3 356/1/3
f 363/5/3 356/5/3 362/5/3
f 364/5/3 361/5/3 360/5/3
f 364/1/3 360/1/3 359/1/3
f 365/2/3 351/2/3 361/2/3
f 365/5/3 361/5/3 364/5/3
f 366/1/3 230/1/3 351/1/3
f 366/2/3 351/2/3 365/2/3
f 367/5/3 362/5/3 225/5/3
f 367/1/3 363/1/3 362/1/3
f 368/1/3 357/1/3 363/1/3
f 368/1/3 363/1/3 367/1/3
f 369/2/3 358/2/3 357/2/3
f 369/1/3 357/1/3 368/1/3
f 370/5/3 359/5/3 358/5/3
f 370/2/3 358/2/3 369/2/3
f 371/1/3 364/1/3 359/1/3
f 371/5/3 359/5/3 370/5/3
f 371/1/3 365/1/3 364/1/3
f 371/1/3 366/1/3 365/1/3
f 372/1/3 366/1/3 371/1/3
f 373/1/3 230/1/3 366/1/3
f 373/1/3 366/1/3 372/1/3
f 374/5/3 352/5/3 230/5/3
f 374/1/3 353/1/3 352/1/3
f 375/1/3 353/1/3 374/1/3
f 377/1/3 369/1/3 368/1/3
f 377/3/3 370/3/3 369/3/3
f 378/4/3 371/4/3 370/4/3
f 378/3/3 370/3/3 377/3/3
f 379/1/3 372/1/3 371/1/3
f 379/4/3 371/4/3 378/4/3
f 380/5/3 373/5/3 372/5/3
f 380/1/3 372/1/3 379/1/3
f 381/5/3 373/5/3 380/5/3
f 382/1/3 230/1/3 373/1/3
f 382/5/3 373/5/3 381/5/3
f 383/5/3 376/5/3 375/5/3
f 383/5/3 375/5/3 374/5/3
f 385/4/3 378/4/3 377/4/3
f 385/1/3 377/1/3 368/1/3
f 386/5/3 379/5/3 378/5/3
f 386/4/3 378/4/3 385/4/3
f 387/1/3 380/1/3 379/1/3
f 387/5/3 379/5/3 386/5/3
f 388/4/3 381/4/3 380/4/3
f 388/1/3 380/1/3 387/1/3
f 389/2/3 382/2/3 381/2/3
f 389/4/3 381/4/3 388/4/3
f 390/1/3 230/1/3 382/1/3
f 390/2/3 382/2/3 389/2/3
f 391/5/3 383/5/3 374/5/3
f 391/5/3 384/5/3 383/5/3
f 392/5/3 384/5/3 391/5/3
f 393/4/3 368/4/3 367/4/3
f 393/5/3 367/5/3 225/5/3
f 394/1/3 388/1/3 387/1/3
f 394/4/3 368/4/3 393/4/3
f 394/1/3 387/1/3 386/1/3
f 394/1/3 385/1/3 368/1/3
f 394/1/3 386/1/3 385/1/3
f 395/1/3 388/1/3 394/1/3
f 396/1/3 388/1/3 395/1/3
f 397/1/3 388/1/3 396/1/3
f 398/5/3 389/5/3 388/5/3
f 398/1/3 388/1/3 397/1/3
f 399/4/3 390/4/3 389/4/3
f 399/5/3 389/5/3 398/5/3
f 400/1/3 230/1/3 390/1/3
f 400/4/3 390/4/3 399/4/3
f 401/5/3 374/5/3 230/5/3
f 401/5/3 391/5/3 374/5/3
f 402/5/3 391/5/3 401/5/3
f 403/5/3 391/5/3 402/5/3
f 404/5/3 393/5/3 225/5/3
f 404/3/3 394/3/3 393/3/3
f 405/1/3 395/1/3 394/1/3
f 405/3/3 394/3/3 404/3/3
f 406/3/3 396/3/3 395/3/3
f 406/1/3 395/1/3 405/1/3
f 407/2/3 397/2/3 396/2/3
f 407/3/3 396/3/3 406/3/3
f 408/1/3 398/1/3 397/1/3
f 408/2/3 397/2/3 407/2/3
f 409/2/3 399/2/3 398/2/3
f 409/1/3 398/1/3 408/1/3
f 410/5/3 400/5/3 399/5/3
f 410/2/3 399/2/3 409/2/3
f 411/1/3 230/1/3 400/1/3
f 411/5/3 400/5/3 410/5/3
f 412/1/3 406/1/3 405/1/3
f 412/5/3 408/5/3 407/5/3
f 412/5/3 407/5/3 406/5/3
f 413/5/3 408/5/3 412/5/3
f 414/5/3 410/5/3 409/5/3
f 414/1/3 409/1/3 408/1/3
f 415/4/3 411/4/3 410/4/3
f 415/5/3 410/5/3 414/5/3
f 416/1/3 230/1/3 411/1/3
f 416/4/3 411/4/3 415/4/3
f 417/5/3 404/5/3 225/5/3
f 417/2/3 405/2/3 404/2/3
f 418/1/3 412/1/3 405/1/3
f 418/2/3 405/2/3 417/2/3
f 419/5/3 408/5/3 413/5/3
f 419/3/3 413/3/3 412/3/3
f 420/1/3 414/1/3 408/1/3
f 420/5/3 408/5/3 419/5/3
f 421/2/3 415/2/3 414/2/3
f 421/1/3 414/1/3 420/1/3
f 422/5/3 416/5/3 415/5/3
f 422/2/3 415/2/3 421/2/3
f 423/1/3 230/1/3 416/1/3
f 423/5/3 416/5/3 422/5/3
f 424/5/3 401/5/3 230/5/3
f 424/1/3 402/1/3 401/1/3
f 425/1/3 402/1/3 424/1/3
f 427/1/3 418/1/3 417/1/3
f 427/5/3 417/5/3 225/5/3
f 428/1/3 412/1/3 418/1/3
f 428/1/3 418/1/3 427/1/3
f 429/3/3 419/3/3 412/3/3
f 429/1/3 412/1/3 428/1/3
f 430/2/3 420/2/3 419/2/3
f 430/3/3 419/3/3 429/3/3
f 431/1/3 423/1/3 422/1/3
f 431/2/3 420/2/3 430/2/3
f 431/1/3 422/1/3 421/1/3
f 431/1/3 421/1/3 420/1/3
f 432/1/3 423/1/3 431/1/3
f 433/1/3 230/1/3 423/1/3
f 433/1/3 423/1/3 432/1/3
f 434/5/3 426/5/3 425/5/3
f 434/5/3 425/5/3 424/5/3
f 436/4/3 428/4/3 427/4/3
f 436/5/3 427/5/3 225/5/3
f 437/1/3 429/1/3 428/1/3
f 437/4/3 428/4/3 436/4/3
f 438/3/3 431/3/3 430/3/3
f 438/4/3 430/4/3 429/4/3
f 439/1/3 432/1/3 431/1/3
f 439/3/3 431/3/3 438/3/3
f 440/3/3 433/3/3 432/3/3
f 440/1/3 432/1/3 439/1/3
f 441/1/3 230/1/3 433/1/3
f 441/3/3 433/3/3 440/3/3
f 442/5/3 435/5/3 434/5/3
f 442/5/3 434/5/3 424/5/3
f 443/5/3 435/5/3 442/5/3
f 444/5/3 436/5/3 225/5/3
f 444/3/3 437/3/3 436/3/3
f 445/1/3 429/1/3 437/1/3
f 445/3/3 437/3/3 444/3/3
f 446/4/3 438/4/3 429/4/3
f 446/1/3 429/1/3 445/1/3
f 447/5/3 439/5/3 438/5/3
f 447/4/3 438/4/3 446/4/3
f 448/1/3 440/1/3 439/1/3
f 448/5/3 439/5/3 447/5/3
f 449/5/3 441/5/3 440/5/3
f 450/1/3 230/1/3 441/1/3
f 450/5/3 441/5/3 449/5/3
f 451/5/3 442/5/3 424/5/3
f 451/5/3 424/5/3 230/5/3
f 452/5/3 442/5/3 451/5/3
f 453/5/3 442/5/3 452/5/3
f 454/4/3 445/4/3 444/4/3
f 454/5/3 444/5/3 225/5/3
f 455/1/3 447/1/3 446/1/3
f 455/4/3 445/4/3 454/4/3
f 455/1/3 446/1/3 445/1/3
f 455/1/3 448/1/3 447/1/3
f 456/1/3 448/1/3 455/1/3
f 457/1/3 440/1/3 448/1/3
f 457/1/3 448/1/3 456/1/3
f 458/5/3 449/5/3 440/5/3
f 458/1/3 440/1/3 457/1/3
f 459/4/3 450/4/3 449/4/3
f 459/5/3 449/5/3 458/5/3
f 460/1/3 230/1/3 450/1/3
f 460/4/3 450/4/3 459/4/3
f 461/2/3 457/2/3 456/2/3
f 461/1/3 456/1/3 455/1/3
f 462/1/3 458/1/3 457/1/3
f 462/2/3 457/2/3 461/2/3
f 463/2/3 459/2/3 458/2/3
f 463/1/3 458/1/3 462/1/3
f 464/5/3 460/5/3 459/5/3
f 464/2/3 459/2/3 463/2/3
f 465/1/3 230/1/3 460/1/3
f 465/5/3 460/5/3 464/5/3
f 466/5/3 462/5/3 461/5/3
f 466/1/3 461/1/3 455/1/3
f 467/5/3 462/5/3 466/5/3
f 468/3/3 464/3/3 463/3/3
f 468/1/3 463/1/3 462/1/3
f 469/2/3 465/2/3 464/2/3
f 469/3/3 464/3/3 468/3/3
f 470/1/3 230/1/3 465/1/3
f 470/2/3 465/2/3 469/2/3
f 471/1/3 452/1/3 451/1/3
f 471/5/3 451/5/3 230/5/3
f 472/1/3 452/1/3 471/1/3
f 474/5/3 454/5/3 225/5/3
f 474/2/3 455/2/3 454/2/3
f 475/1/3 466/1/3 455/1/3
f 475/2/3 455/2/3 474/2/3
f 476/4/3 467/4/3 466/4/3
f 476/1/3 466/1/3 475/1/3
f 477/5/3 462/5/3 467/5/3
f 477/4/3 467/4/3 476/4/3
f 478/1/3 468/1/3 462/1/3
f 478/5/3 462/5/3 477/5/3
f 479/5/3 469/5/3 468/5/3
f 479/1/3 468/1/3 478/1/3
f 479/5/3 470/5/3 469/5/3
f 480/1/3 230/1/3 470/1/3
f 480/5/3 470/5/3 479/5/3
f 481/5/3 473/5/3 472/5/3
f 481/5/3 472/5/3 471/5/3
f 483/1/3 476/1/3 475/1/3
f 483/1/3 475/1/3 474/1/3
f 483/5/3 474/5/3 225/5/3
f 484/1/3 476/1/3 483/1/3
f 485/5/3 477/5/3 476/5/3
f 485/1/3 476/1/3 484/1/3
f 486/2/3 478/2/3 477/2/3
f 486/5/3 477/5/3 485/5/3
f 487/1/3 480/1/3 479/1/3
f 487/2/3 478/2/3 486/2/3
f 487/1/3 479/1/3 478/1/3
f 488/1/3 480/1/3 487/1/3
f 489/1/3 480/1/3 488/1/3
f 490/1/3 230/1/3 480/1/3
f 490/1/3 480/1/3 489/1/3
f 491/5/3 482/5/3 481/5/3
f 491/5/3 481/5/3 471/5/3
f 492/5/3 482/5/3 491/5/3
f 493/5/3 483/5/3 225/5/3
f 493/3/3 484/3/3 483/3/3
f 494/1/3 485/1/3 484/1/3
f 494/3/3 484/3/3 493/3/3
f 495/3/3 486/3/3 485/3/3
f 495/1/3 485/1/3 494/1/3
f 496/5/3 487/5/3 486/5/3
f 496/3/3 486/3/3 495/3/3
f 497/4/3 489/4/3 488/4/3
f 497/1/3 488/1/3 487/1/3
f 498/5/3 490/5/3 489/5/3
f 498/4/3 489/4/3 497/4/3
f 499/1/3 230/1/3 490/1/3
f 499/5/3 490/5/3 498/5/3
f 500/5/3 491/5/3 471/5/3
f 500/5/3 471/5/3 230/5/3
f 501/5/3 491/5/3 500/5/3
f 502/5/3 491/5/3 501/5/3
f 503/4/3 494/4/3 493/4/3
f 503/5/3 493/5/3 225/5/3
f 504/1/3 495/1/3 494/1/3
f 504/4/3 494/4/3 503/4/3
f 505/2/3 496/2/3 495/2/3
f 505/1/3 495/1/3 504/1/3
f 506/5/3 487/5/3 496/5/3
f 506/2/3 496/2/3 505/2/3
f 507/1/3 497/1/3 487/1/3
f 507/5/3 487/5/3 506/5/3
f 508/3/3 498/3/3 497/3/3
f 508/1/3 497/1/3 507/1/3
f 509/2/3 499/2/3 498/2/3
f 509/3/3 498/3/3 508/3/3
f 510/1/3 230/1/3 499/1/3
f 510/2/3 499/2/3 509/2/3
f 511/5/3 503/5/3 225/5/3
f 511/3/3 504/3/3 503/3/3
f 512/1/3 505/1/3 504/1/3
f 512/3/3 504/3/3 511/3/3
f 513/5/3 506/5/3 505/5/3
f 513/1/3 505/1/3 512/1/3
f 514/4/3 507/4/3 506/4/3
f 514/5/3 506/5/3 513/5/3
f 515/1/3 508/1/3 507/1/3
f 515/4/3 507/4/3 514/4/3
f 516/5/3 509/5/3 508/5/3
f 516/3/3 510/3/3 509/3/3
f 517/1/3 230/1/3 510/1/3
f 517/3/3 510/3/3 516/3/3
f 518/5/3 512/5/3 511/5/3
f 518/5/3 511/5/3 225/5/3
f 519/1/3 513/1/3 512/1/3
f 519/5/3 512/5/3 518/5/3
f 519/1/3 514/1/3 513/1/3
f 519/1/3 515/1/3 514/1/3
f 520/1/3 515/1/3 519/1/3
f 521/1/3 515/1/3 520/1/3
f 522/1/3 508/1/3 515/1/3
f 522/1/3 515/1/3 521/1/3
f 523/2/3 517/2/3 516/2/3
f 523/5/3 516/5/3 508/5/3
f 524/1/3 230/1/3 517/1/3
f 524/2/3 517/2/3 523/2/3
f 525/1/3 501/1/3 500/1/3
f 525/5/3 500/5/3 230/5/3
f 526/1/3 501/1/3 525/1/3
f 528/5/3 518/5/3 225/5/3
f 528/3/3 519/3/3 518/3/3
f 529/1/3 520/1/3 519/1/3
f 529/3/3 519/3/3 528/3/3
f 530/3/3 521/3/3 520/3/3
f 530/1/3 520/1/3 529/1/3
f 531/2/3 522/2/3 521/2/3
f 531/3/3 521/3/3 530/3/3
f 532/1/3 508/1/3 522/1/3
f 532/2/3 522/2/3 531/2/3
f 533/5/3 523/5/3 508/5/3
f 533/1/3 508/1/3 532/1/3
f 534/3/3 524/3/3 523/3/3
f 534/5/3 523/5/3 533/5/3
f 535/1/3 230/1/3 524/1/3
f 535/3/3 524/3/3 534/3/3
f 536/5/3 527/5/3 526/5/3
f 536/5/3 526/5/3 525/5/3
f 538/5/3 531/5/3 530/5/3
f 538/1/3 530/1/3 529/1/3
f 539/3/3 532/3/3 531/3/3
f 539/5/3 531/5/3 538/5/3
f 540/2/3 534/2/3 533/2/3
f 540/2/3 535/2/3 534/2/3
f 541/1/3 230/1/3 535/1/3
f 541/2/3 535/2/3 540/2/3
f 542/5/3 536/5/3 525/5/3
f 542/5/3 537/5/3 536/5/3
f 543/5/3 537/5/3 542/5/3
f 544/5/3 529/5/3 528/5/3
f 544/5/3 528/5/3 225/5/3
f 545/1/3 538/1/3 529/1/3
f 545/5/3 529/5/3 544/5/3
f 546/3/3 532/3/3 539/3/3
f 546/2/3 539/2/3 538/2/3
f 547/1/3 533/1/3 532/1/3
f 547/3/3 532/3/3 546/3/3
f 548/2/3 540/2/3 533/2/3
f 548/1/3 533/1/3 547/1/3
f 549/5/3 541/5/3 540/5/3
f 549/2/3 540/2/3 548/2/3
f 550/1/3 230/1/3 541/1/3
f 550/5/3 541/5/3 549/5/3
f 551/5/3 525/5/3 230/5/3
f 551/5/3 542/5/3 525/5/3
f 552/5/3 542/5/3 551/5/3
f 553/5/3 542/5/3 552/5/3
f 554/5/3 544/5/3 225/5/3
f 554/1/3 545/1/3 544/1/3
f 555/1/3 538/1/3 545/1/3
f 555/1/3 545/1/3 554/1/3
f 556/2/3 546/2/3 538/2/3
f 556/1/3 538/1/3 555/1/3
f 557/4/3 547/4/3 546/4/3
f 557/2/3 546/2/3 556/2/3
f 558/1/3 549/1/3 548/1/3
f 558/4/3 547/4/3 557/4/3
f 558/1/3 548/1/3 547/1/3
f 558/1/3 550/1/3 549/1/3
f 559/1/3 550/1/3 558/1/3
f 560/1/3 550/1/3 559/1/3
f 561/1/3 230/1/3 550/1/3
f 561/1/3 550/1/3 560/1/3
f 562/4/3 557/4/3 556/4/3
f 562/2/3 558/2/3 557/2/3
f 563/1/3 559/1/3 558/1/3
f 563/2/3 558/2/3 562/2/3
f 564/3/3 560/3/3 559/3/3
f 564/5/3 561/5/3 560/5/3
f 565/1/3 230/1/3 561/1/3
f 565/5/3 561/5/3 564/5/3
f 566/5/3 554/5/3 225/5/3
f 566/3/3 555/3/3 554/3/3
f 567/1/3 556/1/3 555/1/3
f 567/3/3 555/3/3 566/3/3
f 568/4/3 562/4/3 556/4/3
f 568/1/3 556/1/3 567/1/3
f 569/3/3 563/3/3 562/3/3
f 569/4/3 562/4/3 568/4/3
f 570/1/3 559/1/3 563/1/3
f 570/3/3 563/3/3 569/3/3
f 571/3/3 564/3/3 559/3/3
f 571/1/3 559/1/3 570/1/3
f 572/4/3 565/4/3 564/4/3
f 572/3/3 564/3/3 571/3/3
f 573/1/3 230/1/3 565/1/3
f 573/4/3 565/4/3 572/4/3
f 574/5/3 551/5/3 230/5/3
f 574/1/3 552/1/3 551/1/3
f 575/1/3 552/1/3 574/1/3
f 577/5/3 566/5/3 225/5/3
f 577/4/3 567/4/3 566/4/3
f 578/1/3 568/1/3 567/1/3
f 578/4/3 567/4/3 577/4/3
f 579/5/3 569/5/3 568/5/3
f 579/1/3 568/1/3 578/1/3
f 580/4/3 570/4/3 569/4/3
f 580/5/3 569/5/3 579/5/3
f 581/1/3 571/1/3 570/1/3
f 581/4/3 570/4/3 580/4/3
f 582/4/3 572/4/3 571/4/3
f 582/1/3 571/1/3 581/1/3
f 583/5/3 573/5/3 572/5/3
f 583/4/3 572/4/3 582/4/3
f 584/1/3 230/1/3 573/1/3
f 584/5/3 573/5/3 583/5/3
f 585/5/3 576/5/3 575/5/3
f 585/5/3 575/5/3 574/5/3
f 587/2/3 578/2/3 577/2/3
f 587/5/3 577/5/3 225/5/3
f 588/1/3 579/1/3 578/1/3
f 588/2/3 578/2/3 587/2/3
f 588/1/3 581/1/3 580/1/3
f 588/1/3 580/1/3 579/1/3
f 588/1/3 582/1/3 581/1/3
f 589/1/3 582/1/3 588/1/3
f 590/1/3 582/1/3 589/1/3
f 591/1/3 582/1/3 590/1/3
f 592/2/3 583/2/3 582/2/3
f 592/1/3 582/1/3 591/1/3
f 592/2/3 584/2/3 583/2/3
f 593/2/3 584/2/3 592/2/3
f 594/5/3 585/5/3 574/5/3
f 594/5/3 586/5/3 585/5/3
f 595/5/3 586/5/3 594/5/3
f 596/5/3 587/5/3 225/5/3
f 596/3/3 588/3/3 587/3/3
f 597/1/3 589/1/3 588/1/3
f 597/3/3 588/3/3 596/3/3
f 598/5/3 591/5/3 590/5/3
f 598/3/3 590/3/3 589/3/3
f 599/1/3 592/1/3 591/1/3
f 599/5/3 591/5/3 598/5/3
f 600/4/3 593/4/3 592/4/3
f 600/1/3 592/1/3 599/1/3
f 601/2/3 584/2/3 593/2/3
f 601/4/3 593/4/3 600/4/3
f 602/1/3 230/1/3 584/1/3
f 602/2/3 584/2/3 601/2/3
f 603/5/3 574/5/3 230/5/3
f 603/5/3 594/5/3 574/5/3
f 604/5/3 594/5/3 603/5/3
f 605/5/3 594/5/3 604/5/3
f 606/1/3 589/1/3 597/1/3
f 606/3/3 599/3/3 598/3/3
f 606/3/3 598/3/3 589/3/3
f 607/3/3 599/3/3 606/3/3
f 608/1/3 600/1/3 599/1/3
f 608/3/3 599/3/3 607/3/3
f 609/2/3 601/2/3 600/2/3
f 609/1/3 600/1/3 608/1/3
f 610/4/3 602/4/3 601/4/3
f 610/2/3 601/2/3 609/2/3
f 611/1/3 230/1/3 602/1/3
f 611/4/3 602/4/3 610/4/3
f 612/4/3 608/4/3 607/4/3
f 612/2/3 607/2/3 606/2/3
f 613/1/3 609/1/3 608/1/3
f 613/4/3 608/4/3 612/4/3
f 614/4/3 610/4/3 609/4/3
f 614/1/3 609/1/3 613/1/3
f 615/5/3 611/5/3 610/5/3
f 615/4/3 610/4/3 614/4/3
f 616/1/3 230/1/3 611/1/3
f 616/5/3 611/5/3 615/5/3
f 617/5/3 597/5/3 596/5/3
f 617/5/3 596/5/3 225/5/3
f 618/1/3 606/1/3 597/1/3
f 618/5/3 597/5/3 617/5/3
f 619/2/3 613/2/3 612/2/3
f 619/1/3 606/1/3 618/1/3
f 619/2/3 612/2/3 606/2/3
f 620/1/3 614/1/3 613/1/3
f 620/2/3 613/2/3 619/2/3
f 621/3/3 615/3/3 614/3/3
f 621/1/3 614/1/3 620/1/3
f 622/4/3 616/4/3 615/4/3
f 622/3/3 615/3/3 621/3/3
f 623/1/3 230/1/3 616/1/3
f 623/4/3 616/4/3 622/4/3
f 624/1/3 604/1/3 603/1/3
f 624/5/3 603/5/3 230/5/3
f 625/1/3 604/1/3 624/1/3
f 627/1/3 619/1/3 618/1/3
f 627/1/3 618/1/3 617/1/3
f 627/5/3 617/5/3 225/5/3
f 628/1/3 619/1/3 627/1/3
f 629/4/3 620/4/3 619/4/3
f 629/1/3 619/1/3 628/1/3
f 630/4/3 620/4/3 629/4/3
f 631/1/3 622/1/3 621/1/3
f 631/4/3 620/4/3 630/4/3
f 631/1/3 621/1/3 620/1/3
f 631/1/3 623/1/3 622/1/3
f 632/1/3 623/1/3 631/1/3
f 633/1/3 623/1/3 632/1/3
f 634/1/3 230/1/3 623/1/3
f 634/1/3 623/1/3 633/1/3
f 635/5/3 626/5/3 625/5/3
f 635/5/3 625/5/3 624/5/3
f 637/3/3 630/3/3 629/3/3
f 637/1/3 629/1/3 628/1/3
f 638/2/3 631/2/3 630/2/3
f 638/3/3 630/3/3 637/3/3
f 639/1/3 632/1/3 631/1/3
f 639/2/3 631/2/3 638/2/3
f 640/3/3 633/3/3 632/3/3
f 640/1/3 632/1/3 639/1/3
f 641/2/3 634/2/3 633/2/3
f 641/3/3 633/3/3 640/3/3
f 642/5/3 635/5/3 624/5/3
f 642/5/3 636/5/3 635/5/3
f 643/5/3 636/5/3 642/5/3
f 644/2/3 638/2/3 637/2/3
f 644/1/3 637/1/3 628/1/3
f 645/3/3 639/3/3 638/3/3
f 645/2/3 638/2/3 644/2/3
f 646/1/3 640/1/3 639/1/3
f 646/3/3 639/3/3 645/3/3
f 647/2/3 634/2/3 641/2/3
f 647/4/3 641/4/3 640/4/3
f 648/1/3 230/1/3 634/1/3
f 648/2/3 634/2/3 647/2/3
f 649/5/3 624/5/3 230/5/3
f 649/5/3 642/5/3 624/5/3
f 650/5/3 642/5/3 649/5/3
f 651/5/3 642/5/3 650/5/3
f 652/3/3 628/3/3 627/3/3
f 652/5/3 627/5/3 225/5/3
f 653/1/3 646/1/3 645/1/3
f 653/3/3 628/3/3 652/3/3
f 653/1/3 645/1/3 644/1/3
f 653/1/3 644/1/3 628/1/3
f 654/1/3 646/1/3 653/1/3
f 655/1/3 646/1/3 654/1/3
f 656/1/3 640/1/3 646/1/3
f 656/1/3 646/1/3 655/1/3
f 657/4/3 647/4/3 640/4/3
f 657/1/3 640/1/3 656/1/3
f 658/3/3 648/3/3 647/3/3
f 658/4/3 647/4/3 657/4/3
f 659/5/3 652/5/3 225/5/3
f 659/5/3 653/5/3 652/5/3
f 660/1/3 654/1/3 653/1/3
f 660/5/3 653/5/3 659/5/3
f 661/5/3 655/5/3 654/5/3
f 661/1/3 654/1/3 660/1/3
f 662/2/3 656/2/3 655/2/3
f 662/5/3 655/5/3 661/5/3
f 663/1/3 657/1/3 656/1/3
f 663/2/3 656/2/3 662/2/3
f 664/2/3 658/2/3 657/2/3
f 664/1/3 657/1/3 663/1/3
f 665/3/3 648/3/3 658/3/3
f 665/2/3 658/2/3 664/2/3
f 666/2/3 662/2/3 661/2/3
f 666/4/3 663/4/3 662/4/3
f 667/1/3 664/1/3 663/1/3
f 667/4/3 663/4/3 666/4/3
f 668/4/3 665/4/3 664/4/3
f 668/1/3 664/1/3 667/1/3
f 669/3/3 648/3/3 665/3/3
f 669/4/3 665/4/3 668/4/3
f 670/1/3 230/1/3 648/1/3
f 670/3/3 648/3/3 669/3/3
f 671/5/3 649/5/3 230/5/3
f 671/1/3 650/1/3 649/1/3
f 672/1/3 650/1/3 671/1/3
f 674/2/3 660/2/3 659/2/3
f 674/5/3 659/5/3 225/5/3
f 675/1/3 661/1/3 660/1/3
f 675/2/3 660/2/3 674/2/3
f 676/2/3 666/2/3 661/2/3
f 676/1/3 661/1/3 675/1/3
f 677/3/3 667/3/3 666/3/3
f 677/2/3 666/2/3 676/2/3
f 678/1/3 668/1/3 667/1/3
f 678/3/3 667/3/3 677/3/3
f 679/3/3 669/3/3 668/3/3
f 679/1/3 668/1/3 678/1/3
f 680/4/3 670/4/3 669/4/3
f 680/3/3 669/3/3 679/3/3
f 681/1/3 230/1/3 670/1/3
f 681/4/3 670/4/3 680/4/3
f 682/5/3 673/5/3 672/5/3
f 682/5/3 672/5/3 671/5/3
f 684/5/3 674/5/3 225/5/3
f 684/5/3 675/5/3 674/5/3
f 685/1/3 676/1/3 675/1/3
f 685/5/3 675/5/3 684/5/3
f 686/5/3 677/5/3 676/5/3
f 686/1/3 676/1/3 685/1/3
f 687/4/3 678/4/3 677/4/3
f 687/5/3 677/5/3 686/5/3
f 688/2/3 680/2/3 679/2/3
f 688/1/3 679/1/3 678/1/3
f 689/3/3 681/3/3 680/3/3
f 689/2/3 680/2/3 688/2/3
f 690/1/3 230/1/3 681/1/3
f 690/3/3 681/3/3 689/3/3
f 691/5/3 682/5/3 671/5/3
f 691/5/3 683/5/3 682/5/3
f 692/5/3 683/5/3 691/5/3
f 693/1/3 685/1/3 684/1/3
f 693/1/3 686/1/3 685/1/3
f 693/5/3 684/5/3 225/5/3
f 694/1/3 686/1/3 693/1/3
f 695/1/3 690/1/3 689/1/3
f 695/1/3 689/1/3 688/1/3
f 695/1/3 688/1/3 678/1/3
f 696/1/3 690/1/3 695/1/3
f 697/1/3 230/1/3 690/1/3
f 697/1/3 690/1/3 696/1/3
f 698/5/3 671/5/3 230/5/3
f 698/5/3 691/5/3 671/5/3
f 699/5/3 691/5/3 698/5/3
f 700/5/3 691/5/3 699/5/3
f 701/1/3 686/1/3 694/1/3
f 701/4/3 687/4/3 686/4/3
f 702/4/3 678/4/3 687/4/3
f 702/4/3 687/4/3 701/4/3
f 703/1/3 695/1/3 678/1/3
f 703/4/3 678/4/3 702/4/3
f 704/2/3 696/2/3 695/2/3
f 704/1/3 695/1/3 703/1/3
f 705/3/3 697/3/3 696/3/3
f 705/2/3 696/2/3 704/2/3
f 706/1/3 230/1/3 697/1/3
f 706/3/3 697/3/3 705/3/3
f 707/3/3 694/3/3 693/3/3
f 707/5/3 693/5/3 225/5/3
f 708/1/3 701/1/3 694/1/3
f 708/3/3 694/3/3 707/3/3
f 709/5/3 702/5/3 701/5/3
f 709/1/3 701/1/3 708/1/3
f 710/2/3 703/2/3 702/2/3
f 710/5/3 702/5/3 709/5/3
f 711/1/3 704/1/3 703/1/3
f 711/2/3 703/2/3 710/2/3
f 712/1/3 225/1/3 224/1/3
f 713/5/3 707/5/3 225/5/3
f 713/1/3 225/1/3 712/1/3
f 713/5/3 708/5/3 707/5/3
f 714/1/3 709/1/3 708/1/3
f 714/5/3 708/5/3 713/5/3
f 714/1/3 710/1/3 709/1/3
f 714/1/3 711/1/3 710/1/3
f 715/1/3 704/1/3 711/1/3
f 715/1/3 711/1/3 714/1/3
f 715/5/3 705/5/3 704/5/3
f 716/4/3 706/4/3 705/4/3
f 716/5/3 705/5/3 715/5/3
f 717/1/3 230/1/3 706/1/3
f 717/4/3 706/4/3 716/4/3
f 718/5/3 698/5/3 230/5/3
f 718/1/3 230/1/3 717/1/3
f 719/1/3 699/1/3 698/1/3
f 719/5/3 698/5/3 718/5/3
f 720/1/3 699/1/3 719/1/3
f 722/5/4 723/5/4 730/5/4
f 723/2/4 724/2/4 730/2/4
f 724/1/4 725/1/4 731/1/4
f 730/2/4 724/2/4 731/2/4
f 731/1/4 725/1/4 732/1/4
f 732/1/4 725/1/4 733/1/4
f 733/1/4 725/1/4 734/1/4
f 725/5/4 726/5/4 735/5/4
f 726/2/4 727/2/4 735/2/4
f 727/1/4 728/1/4 736/1/4
f 735/2/4 727/2/4 736/2/4
f 728/5/4 729/5/4 737/5/4
f 722/5/4 730/5/4 739/5/4
f 730/5/4 731/5/4 739/5/4
f 731/1/4 732/1/4 740/1/4
f 739/5/4 731/5/4 740/5/4
f 732/5/4 733/5/4 741/5/4
f 740/1/4 732/1/4 741/1/4
f 733/2/4 734/2/4 742/2/4
f 741/5/4 733/5/4 742/5/4
f 734/1/4 725/1/4 743/1/4
f 742/2/4 734/2/4 743/2/4
f 725/5/4 735/5/4 744/5/4
f 743/1/4 725/1/4 744/1/4
f 735/5/4 736/5/4 744/5/4
f 744/5/4 736/5/4 745/5/4
f 736/1/4 728/1/4 746/1/4
f 745/5/4 736/5/4 746/5/4
f 737/5/4 738/5/4 747/5/4
f 728/5/4 737/5/4 747/5/4
f 747/5/4 738/5/4 748/5/4
f 722/5/4 739/5/4 749/5/4
f 739/2/4 740/2/4 749/2/4
f 740/1/4 741/1/4 750/1/4
f 749/2/4 740/2/4 750/2/4
f 741/4/4 742/4/4 751/4/4
f 750/1/4 741/1/4 751/1/4
f 742/5/4 743/5/4 752/5/4
f 751/4/4 742/4/4 752/4/4
f 743/1/4 744/1/4 753/1/4
f 752/5/4 743/5/4 753/5/4
f 744/3/4 745/3/4 754/3/4
f 753/1/4 744/1/4 754/1/4
f 745/4/4 746/4/4 755/4/4
f 754/3/4 745/3/4 755/3/4
f 746/1/4 728/1/4 756/1/4
f 755/4/4 746/4/4 756/4/4
f 728/5/4 747/5/4 757/5/4
f 757/5/4 747/5/4 758/5/4
f 758/5/4 747/5/4 759/5/4
f 750/1/4 751/1/4 760/1/4
f 749/1/4 750/1/4 760/1/4
f 722/5/4 749/5/4 760/5/4
f 760/1/4 751/1/4 761/1/4
f 752/2/4 753/2/4 762/2/4
f 761/1/4 751/1/4 762/1/4
f 751/2/4 752/2/4 762/2/4
f 762/2/4 753/2/4 763/2/4
f 754/1/4 755/1/4 764/1/4
f 753/1/4 754/1/4 764/1/4
f 755/1/4 756/1/4 764/1/4
f 764/1/4 756/1/4 765/1/4
f 756/1/4 728/1/4 766/1/4
f 765/1/4 756/1/4 766/1/4
f 760/5/4 761/5/4 767/5/4
f 722/5/4 760/5/4 767/5/4
f 761/1/4 762/1/4 768/1/4
f 767/5/4 761/5/4 768/5/4
f 764/5/4 765/5/4 769/5/4
f 753/1/4 764/1/4 769/1/4
f 765/3/4 766/3/4 770/3/4
f 769/5/4 765/5/4 770/5/4
f 722/5/4 767/5/4 771/5/4
f 767/2/4 768/2/4 771/2/4
f 768/1/4 762/1/4 772/1/4
f 771/2/4 768/2/4 772/2/4
f 762/4/4 763/4/4 773/4/4
f 772/1/4 762/1/4 773/1/4
f 763/2/4 753/2/4 774/2/4
f 773/4/4 763/4/4 774/4/4
f 753/1/4 769/1/4 775/1/4
f 774/2/4 753/2/4 775/2/4
f 769/3/4 770/3/4 776/3/4
f 775/1/4 769/1/4 776/1/4
f 766/1/4 728/1/4 777/1/4
f 776/3/4 770/3/4 777/3/4
f 770/3/4 766/3/4 777/3/4
f 757/1/4 758/1/4 778/1/4
f 728/5/4 757/5/4 778/5/4
f 778/1/4 758/1/4 779/1/4
f 771/3/4 772/3/4 781/3/4
f 722/5/4 771/5/4 781/5/4
f 775/1/4 776/1/4 782/1/4
f 781/3/4 772/3/4 782/3/4
f 772/1/4 773/1/4 782/1/4
f 773/1/4 774/1/4 782/1/4
f 774/1/4 775/1/4 782/1/4
f 782/1/4 776/1/4 783/1/4
f 783/1/4 776/1/4 784/1/4
f 784/1/4 776/1/4 785/1/4
f 776/2/4 777/2/4 786/2/4
f 785/1/4 776/1/4 786/1/4
f 786/2/4 777/2/4 787/2/4
f 777/1/4 728/1/4 788/1/4
f 787/2/4 777/2/4 788/2/4
f 779/5/4 780/5/4 789/5/4
f 778/5/4 779/5/4 789/5/4
f 782/1/4 783/1/4 791/1/4
f 783/3/4 784/3/4 791/3/4
f 784/4/4 785/4/4 792/4/4
f 791/3/4 784/3/4 792/3/4
f 785/1/4 786/1/4 793/1/4
f 792/4/4 785/4/4 793/4/4
f 786/3/4 787/3/4 794/3/4
f 787/5/4 788/5/4 794/5/4
f 788/1/4 728/1/4 795/1/4
f 794/5/4 788/5/4 795/5/4
f 778/5/4 789/5/4 796/5/4
f 789/5/4 790/5/4 796/5/4
f 796/5/4 790/5/4 797/5/4
f 722/5/4 781/5/4 798/5/4
f 781/4/4 782/4/4 798/4/4
f 782/1/4 791/1/4 799/1/4
f 798/4/4 782/4/4 799/4/4
f 792/5/4 793/5/4 800/5/4
f 791/5/4 792/5/4 800/5/4
f 793/1/4 786/1/4 801/1/4
f 800/5/4 793/5/4 801/5/4
f 786/3/4 794/3/4 802/3/4
f 801/1/4 786/1/4 802/1/4
f 794/4/4 795/4/4 803/4/4
f 802/3/4 794/3/4 803/3/4
f 795/1/4 728/1/4 804/1/4
f 803/4/4 795/4/4 804/4/4
f 728/5/4 778/5/4 805/5/4
f 778/5/4 796/5/4 805/5/4
f 805/5/4 796/5/4 806/5/4
f 806/5/4 796/5/4 807/5/4
f 722/5/4 798/5/4 808/5/4
f 798/3/4 799/3/4 808/3/4
f 799/1/4 791/1/4 809/1/4
f 808/3/4 799/3/4 809/3/4
f 791/5/4 800/5/4 810/5/4
f 809/1/4 791/1/4 810/1/4
f 800/4/4 801/4/4 811/4/4
f 810/5/4 800/5/4 811/5/4
f 802/4/4 803/4/4 812/4/4
f 801/1/4 802/1/4 812/1/4
f 803/5/4 804/5/4 813/5/4
f 812/4/4 803/4/4 813/4/4
f 804/1/4 728/1/4 814/1/4
f 813/5/4 804/5/4 814/5/4
f 808/1/4 809/1/4 815/1/4
f 809/1/4 810/1/4 815/1/4
f 722/5/4 808/5/4 815/5/4
f 815/1/4 810/1/4 816/1/4
f 810/2/4 811/2/4 817/2/4
f 816/1/4 810/1/4 817/1/4
f 811/4/4 801/4/4 818/4/4
f 817/2/4 811/2/4 818/2/4
f 812/1/4 813/1/4 819/1/4
f 813/1/4 814/1/4 819/1/4
f 801/1/4 812/1/4 819/1/4
f 819/1/4 814/1/4 820/1/4
f 814/1/4 728/1/4 821/1/4
f 820/1/4 814/1/4 821/1/4
f 722/5/4 815/5/4 822/5/4
f 815/4/4 816/4/4 822/4/4
f 816/1/4 817/1/4 823/1/4
f 822/4/4 816/4/4 823/4/4
f 817/3/4 818/3/4 824/3/4
f 823/1/4 817/1/4 824/1/4
f 818/4/4 801/4/4 825/4/4
f 824/3/4 818/3/4 825/3/4
f 801/1/4 819/1/4 826/1/4
f 825/4/4 801/4/4 826/4/4
f 819/3/4 820/3/4 827/3/4
f 826/1/4 819/1/4 827/1/4
f 820/4/4 821/4/4 828/4/4
f 827/3/4 820/3/4 828/3/4
f 728/5/4 805/5/4 829/5/4
f 805/1/4 806/1/4 829/1/4
f 829/1/4 806/1/4 830/1/4
f 722/5/4 822/5/4 832/5/4
f 822/5/4 823/5/4 832/5/4
f 823/1/4 824/1/4 833/1/4
f 832/5/4 823/5/4 833/5/4
f 824/2/4 825/2/4 834/2/4
f 833/1/4 824/1/4 834/1/4
f 825/3/4 826/3/4 835/3/4
f 834/2/4 825/2/4 835/2/4
f 826/1/4 827/1/4 836/1/4
f 835/3/4 826/3/4 836/3/4
f 827/5/4 828/5/4 837/5/4
f 836/1/4 827/1/4 837/1/4
f 828/4/4 821/4/4 838/4/4
f 837/5/4 828/5/4 838/5/4
f 821/1/4 728/1/4 839/1/4
f 838/4/4 821/4/4 839/4/4
f 830/5/4 831/5/4 840/5/4
f 829/5/4 830/5/4 840/5/4
f 833/1/4 834/1/4 842/1/4
f 836/1/4 837/1/4 842/1/4
f 834/1/4 835/1/4 842/1/4
f 835/1/4 836/1/4 842/1/4
f 842/1/4 837/1/4 843/1/4
f 843/1/4 837/1/4 844/1/4
f 837/2/4 838/2/4 845/2/4
f 844/1/4 837/1/4 845/1/4
f 838/5/4 839/5/4 846/5/4
f 845/2/4 838/2/4 846/2/4
f 839/1/4 728/1/4 847/1/4
f 846/5/4 839/5/4 847/5/4
f 840/5/4 841/5/4 848/5/4
f 829/5/4 840/5/4 848/5/4
f 848/5/4 841/5/4 849/5/4
f 833/1/4 842/1/4 850/1/4
f 842/3/4 843/3/4 850/3/4
f 843/4/4 844/4/4 851/4/4
f 850/3/4 843/3/4 851/3/4
f 845/5/4 846/5/4 852/5/4
f 844/1/4 845/1/4 852/1/4
f 846/4/4 847/4/4 853/4/4
f 852/5/4 846/5/4 853/5/4
f 847/1/4 728/1/4 854/1/4
f 853/4/4 847/4/4 854/4/4
f 728/5/4 829/5/4 855/5/4
f 829/5/4 848/5/4 855/5/4
f 855/5/4 848/5/4 856/5/4
f 856/5/4 848/5/4 857/5/4
f 852/2/4 853/2/4 858/2/4
f 844/1/4 852/1/4 858/1/4
f 853/5/4 854/5/4 859/5/4
f 858/2/4 853/2/4 859/2/4
f 854/1/4 728/1/4 860/1/4
f 859/5/4 854/5/4 860/5/4
f 722/5/4 832/5/4 861/5/4
f 832/2/4 833/2/4 861/2/4
f 833/1/4 850/1/4 862/1/4
f 861/2/4 833/2/4 862/2/4
f 850/4/4 851/4/4 863/4/4
f 862/1/4 850/1/4 863/1/4
f 851/4/4 844/4/4 864/4/4
f 863/4/4 851/4/4 864/4/4
f 844/1/4 858/1/4 865/1/4
f 864/4/4 844/4/4 865/4/4
f 858/5/4 859/5/4 866/5/4
f 865/1/4 858/1/4 866/1/4
f 859/4/4 860/4/4 867/4/4
f 866/5/4 859/5/4 867/5/4
f 860/1/4 728/1/4 868/1/4
f 867/4/4 860/4/4 868/4/4
f 862/1/4 863/1/4 869/1/4
f 861/1/4 862/1/4 869/1/4
f 722/5/4 861/5/4 869/5/4
f 869/1/4 863/1/4 870/1/4
f 863/5/4 864/5/4 871/5/4
f 870/1/4 863/1/4 871/1/4
f 864/2/4 865/2/4 872/2/4
f 871/5/4 864/5/4 872/5/4
f 866/1/4 867/1/4 873/1/4
f 872/2/4 865/2/4 873/2/4
f 867/1/4 868/1/4 873/1/4
f 865/1/4 866/1/4 873/1/4
f 873/1/4 868/1/4 874/1/4
f 874/1/4 868/1/4 875/1/4
f 868/1/4 728/1/4 876/1/4
f 875/1/4 868/1/4 876/1/4
f 855/1/4 856/1/4 877/1/4
f 728/5/4 855/5/4 877/5/4
f 877/1/4 856/1/4 878/1/4
f 722/5/4 869/5/4 880/5/4
f 869/3/4 870/3/4 880/3/4
f 870/1/4 871/1/4 881/1/4
f 880/3/4 870/3/4 881/3/4
f 871/4/4 872/4/4 882/4/4
f 881/1/4 871/1/4 882/1/4
f 872/4/4 873/4/4 882/4/4
f 873/1/4 874/1/4 883/1/4
f 882/4/4 873/4/4 883/4/4
f 874/5/4 875/5/4 884/5/4
f 883/1/4 874/1/4 884/1/4
f 875/2/4 876/2/4 885/2/4
f 884/5/4 875/5/4 885/5/4
f 876/1/4 728/1/4 886/1/4
f 885/2/4 876/2/4 886/2/4
f 878/5/4 879/5/4 887/5/4
f 877/5/4 878/5/4 887/5/4
f 880/5/4 881/5/4 889/5/4
f 722/5/4 880/5/4 889/5/4
f 881/1/4 882/1/4 890/1/4
f 889/5/4 881/5/4 890/5/4
f 882/3/4 883/3/4 891/3/4
f 890/1/4 882/1/4 891/1/4
f 883/1/4 884/1/4 892/1/4
f 891/3/4 883/3/4 892/3/4
f 884/2/4 885/2/4 893/2/4
f 892/1/4 884/1/4 893/1/4
f 885/3/4 886/3/4 894/3/4
f 893/2/4 885/2/4 894/2/4
f 887/5/4 888/5/4 895/5/4
f 877/5/4 887/5/4 895/5/4
f 895/5/4 888/5/4 896/5/4
f 889/2/4 890/2/4 897/2/4
f 722/5/4 889/5/4 897/5/4
f 891/1/4 892/1/4 898/1/4
f 897/2/4 890/2/4 898/2/4
f 890/1/4 891/1/4 898/1/4
f 892/1/4 893/1/4 898/1/4
f 898/1/4 893/1/4 899/1/4
f 899/1/4 893/1/4 900/1/4
f 900/1/4 893/1/4 901/1/4
f 893/5/4 894/5/4 902/5/4
f 901/1/4 893/1/4 902/1/4
f 894/3/4 886/3/4 903/3/4
f 902/5/4 894/5/4 903/5/4
f 886/1/4 728/1/4 904/1/4
f 903/3/4 886/3/4 904/3/4
f 877/5/4 895/5/4 905/5/4
f 728/5/4 877/5/4 905/5/4
f 905/5/4 895/5/4 906/5/4
f 906/5/4 895/5/4 907/5/4
f 722/5/4 897/5/4 908/5/4
f 897/5/4 898/5/4 908/5/4
f 898/1/4 899/1/4 909/1/4
f 908/5/4 898/5/4 909/5/4
f 899/3/4 900/3/4 910/3/4
f 909/1/4 899/1/4 910/1/4
f 900/2/4 901/2/4 911/2/4
f 910/3/4 900/3/4 911/3/4
f 901/1/4 902/1/4 912/1/4
f 911/2/4 901/2/4 912/2/4
f 902/3/4 903/3/4 913/3/4
f 912/1/4 902/1/4 913/1/4
f 903/2/4 904/2/4 914/2/4
f 913/3/4 903/3/4 914/3/4
f 904/1/4 728/1/4 915/1/4
f 914/2/4 904/2/4 915/2/4
f 722/5/4 908/5/4 916/5/4
f 908/2/4 909/2/4 916/2/4
f 909/1/4 910/1/4 917/1/4
f 916/2/4 909/2/4 917/2/4
f 913/5/4 914/5/4 918/5/4
f 914/4/4 915/4/4 918/4/4
f 915/1/4 728/1/4 919/1/4
f 918/4/4 915/4/4 919/4/4
f 722/5/4 916/5/4 920/5/4
f 916/3/4 917/3/4 920/3/4
f 917/1/4 910/1/4 921/1/4
f 920/3/4 917/3/4 921/3/4
f 910/2/4 911/2/4 922/2/4
f 921/1/4 910/1/4 922/1/4
f 911/5/4 912/5/4 923/5/4
f 922/2/4 911/2/4 923/2/4
f 912/1/4 913/1/4 924/1/4
f 923/5/4 912/5/4 924/5/4
f 913/5/4 918/5/4 925/5/4
f 924/1/4 913/1/4 925/1/4
f 918/3/4 919/3/4 926/3/4
f 925/5/4 918/5/4 926/5/4
f 919/1/4 728/1/4 927/1/4
f 926/3/4 919/3/4 927/3/4
f 905/1/4 906/1/4 928/1/4
f 728/5/4 905/5/4 928/5/4
f 928/1/4 906/1/4 929/1/4
f 920/1/4 921/1/4 931/1/4
f 921/1/4 922/1/4 931/1/4
f 722/5/4 920/5/4 931/5/4
f 931/1/4 922/1/4 932/1/4
f 922/4/4 923/4/4 933/4/4
f 932/1/4 922/1/4 933/1/4
f 923/3/4 924/3/4 934/3/4
f 933/4/4 923/4/4 934/4/4
f 925/1/4 926/1/4 935/1/4
f 934/3/4 924/3/4 935/3/4
f 924/1/4 925/1/4 935/1/4
f 926/1/4 927/1/4 935/1/4
f 935/1/4 927/1/4 936/1/4
f 936/1/4 927/1/4 937/1/4
f 927/1/4 728/1/4 938/1/4
f 937/1/4 927/1/4 938/1/4
f 929/5/4 930/5/4 939/5/4
f 928/5/4 929/5/4 939/5/4
f 933/3/4 934/3/4 941/3/4
f 932/1/4 933/1/4 941/1/4
f 934/4/4 935/4/4 942/4/4
f 941/3/4 934/3/4 942/3/4
f 935/1/4 936/1/4 943/1/4
f 942/4/4 935/4/4 943/4/4
f 936/2/4 937/2/4 944/2/4
f 943/1/4 936/1/4 944/1/4
f 937/5/4 938/5/4 945/5/4
f 944/2/4 937/2/4 945/2/4
f 938/1/4 728/1/4 946/1/4
f 945/5/4 938/5/4 946/5/4
f 939/5/4 940/5/4 947/5/4
f 928/5/4 939/5/4 947/5/4
f 947/5/4 940/5/4 948/5/4
f 931/5/4 932/5/4 949/5/4
f 722/5/4 931/5/4 949/5/4
f 932/1/4 941/1/4 950/1/4
f 949/5/4 932/5/4 950/5/4
f 941/4/4 942/4/4 951/4/4
f 950/1/4 941/1/4 951/1/4
f 942/2/4 943/2/4 952/2/4
f 951/4/4 942/4/4 952/4/4
f 943/1/4 944/1/4 953/1/4
f 952/2/4 943/2/4 953/2/4
f 944/4/4 945/4/4 954/4/4
f 953/1/4 944/1/4 954/1/4
f 945/3/4 946/3/4 955/3/4
f 954/4/4 945/4/4 955/4/4
f 946/1/4 728/1/4 956/1/4
f 955/3/4 946/3/4 956/3/4
f 728/5/4 928/5/4 957/5/4
f 928/5/4 947/5/4 957/5/4
f 957/5/4 947/5/4 958/5/4
f 958/5/4 947/5/4 959/5/4
f 949/2/4 950/2/4 960/2/4
f 722/5/4 949/5/4 960/5/4
f 952/1/4 953/1/4 961/1/4
f 960/2/4 950/2/4 961/2/4
f 953/1/4 954/1/4 961/1/4
f 951/1/4 952/1/4 961/1/4
f 950/1/4 951/1/4 961/1/4
f 961/1/4 954/1/4 962/1/4
f 962/1/4 954/1/4 963/1/4
f 963/1/4 954/1/4 964/1/4
f 954/3/4 955/3/4 965/3/4
f 964/1/4 954/1/4 965/1/4
f 955/5/4 956/5/4 966/5/4
f 965/3/4 955/3/4 966/3/4
f 956/1/4 728/1/4 967/1/4
f 966/5/4 956/5/4 967/5/4
f 722/5/4 960/5/4 968/5/4
f 960/5/4 961/5/4 968/5/4
f 961/1/4 962/1/4 969/1/4
f 968/5/4 961/5/4 969/5/4
f 963/2/4 964/2/4 970/2/4
f 962/3/4 963/3/4 970/3/4
f 964/1/4 965/1/4 971/1/4
f 970/2/4 964/2/4 971/2/4
f 722/5/4 968/5/4 972/5/4
f 968/4/4 969/4/4 972/4/4
f 969/1/4 962/1/4 973/1/4
f 972/4/4 969/4/4 973/4/4
f 962/3/4 970/3/4 974/3/4
f 973/1/4 962/1/4 974/1/4
f 970/3/4 971/3/4 974/3/4
f 974/3/4 971/3/4 975/3/4
f 971/1/4 965/1/4 976/1/4
f 975/3/4 971/3/4 976/3/4
f 965/2/4 966/2/4 977/2/4
f 966/4/4 967/4/4 977/4/4
f 967/1/4 728/1/4 978/1/4
f 977/4/4 967/4/4 978/4/4
f 728/5/4 957/5/4 979/5/4
f 957/1/4 958/1/4 979/1/4
f 979/1/4 958/1/4 980/1/4
f 722/5/4 972/5/4 982/5/4
f 972/5/4 973/5/4 982/5/4
f 973/1/4 974/1/4 983/1/4
f 982/5/4 973/5/4 983/5/4
f 974/2/4 975/2/4 984/2/4
f 983/1/4 974/1/4 984/1/4
f 975/4/4 976/4/4 985/4/4
f 984/2/4 975/2/4 985/2/4
f 976/1/4 965/1/4 986/1/4
f 985/4/4 976/4/4 986/4/4
f 965/2/4 977/2/4 987/2/4
f 986/1/4 965/1/4 987/1/4
f 977/3/4 978/3/4 988/3/4
f 987/2/4 977/2/4 988/2/4
f 978/1/4 728/1/4 989/1/4
f 988/3/4 978/3/4 989/3/4
f 980/5/4 981/5/4 990/5/4
f 979/5/4 980/5/4 990/5/4
f 983/1/4 984/1/4 992/1/4
f 982/1/4 983/1/4 992/1/4
f 722/5/4 982/5/4 992/5/4
f 992/1/4 984/1/4 993/1/4
f 985/5/4 986/5/4 994/5/4
f 993/1/4 984/1/4 994/1/4
f 984/5/4 985/5/4 994/5/4
f 994/5/4 986/5/4 995/5/4
f 987/1/4 988/1/4 996/1/4
f 995/5/4 986/5/4 996/5/4
f 986/1/4 987/1/4 996/1/4
f 988/1/4 989/1/4 996/1/4
f 996/1/4 989/1/4 997/1/4
f 989/1/4 728/1/4 998/1/4
f 997/1/4 989/1/4 998/1/4
f 979/5/4 990/5/4 999/5/4
f 990/5/4 991/5/4 999/5/4
f 999/5/4 991/5/4 1000/5/4
f 992/4/4 993/4/4 1001/4/4
f 722/5/4 992/5/4 1001/5/4
f 993/1/4 994/1/4 1002/1/4
f 1001/4/4 993/4/4 1002/4/4
f 994/3/4 995/3/4 1003/3/4
f 1002/1/4 994/1/4 1003/1/4
f 995/4/4 996/4/4 1004/4/4
f 1003/3/4 995/3/4 1004/3/4
f 996/1/4 997/1/4 1005/1/4
f 1004/4/4 996/4/4 1005/4/4
f 997/2/4 998/2/4 1006/2/4
f 998/1/4 728/1/4 1007/1/4
f 1006/2/4 998/2/4 1007/2/4
f 979/5/4 999/5/4 1008/5/4
f 728/5/4 979/5/4 1008/5/4
f 1008/5/4 999/5/4 1009/5/4
f 1009/5/4 999/5/4 1010/5/4
f 1003/4/4 1004/4/4 1011/4/4
f 1002/1/4 1003/1/4 1011/1/4
f 1004/3/4 1005/3/4 1012/3/4
f 1011/4/4 1004/4/4 1012/4/4
f 1006/4/4 1007/4/4 1013/4/4
f 997/2/4 1006/2/4 1013/2/4
f 1007/1/4 728/1/4 1014/1/4
f 1013/4/4 1007/4/4 1014/4/4
f 1001/2/4 1002/2/4 1015/2/4
f 722/5/4 1001/5/4 1015/5/4
f 1002/1/4 1011/1/4 1016/1/4
f 1015/2/4 1002/2/4 1016/2/4
f 1011/2/4 1012/2/4 1017/2/4
f 1016/1/4 1011/1/4 1017/1/4
f 1012/3/4 1005/3/4 1018/3/4
f 1017/2/4 1012/2/4 1018/2/4
f 1005/1/4 997/1/4 1019/1/4
f 1018/3/4 1005/3/4 1019/3/4
f 1013/2/4 1014/2/4 1020/2/4
f 1019/1/4 997/1/4 1020/1/4
f 997/2/4 1013/2/4 1020/2/4
f 1014/1/4 728/1/4 1021/1/4
f 1020/2/4 1014/2/4 1021/2/4
f 1015/3/4 1016/3/4 1022/3/4
f 722/5/4 1015/5/4 1022/5/4
f 1019/1/4 1020/1/4 1023/1/4
f 1022/3/4 1016/3/4 1023/3/4
f 1018/1/4 1019/1/4 1023/1/4
f 1016/1/4 1017/1/4 1023/1/4
f 1017/1/4 1018/1/4 1023/1/4
f 1023/1/4 1020/1/4 1024/1/4
f 1024/1/4 1020/1/4 1025/1/4
f 1025/1/4 1020/1/4 1026/1/4
f 1020/4/4 1021/4/4 1027/4/4
f 1026/1/4 1020/1/4 1027/1/4
f 1027/4/4 1021/4/4 1028/4/4
f 1021/1/4 728/1/4 1029/1/4
f 1028/4/4 1021/4/4 1029/4/4
f 728/5/4 1008/5/4 1030/5/4
f 1008/1/4 1009/1/4 1030/1/4
f 1030/1/4 1009/1/4 1031/1/4
f 722/5/4 1022/5/4 1033/5/4
f 1022/4/4 1023/4/4 1033/4/4
f 1023/1/4 1024/1/4 1034/1/4
f 1033/4/4 1023/4/4 1034/4/4
f 1024/5/4 1025/5/4 1035/5/4
f 1034/1/4 1024/1/4 1035/1/4
f 1025/4/4 1026/4/4 1036/4/4
f 1035/5/4 1025/5/4 1036/5/4
f 1026/1/4 1027/1/4 1037/1/4
f 1036/4/4 1026/4/4 1037/4/4
f 1027/3/4 1028/3/4 1038/3/4
f 1037/1/4 1027/1/4 1038/1/4
f 1028/5/4 1029/5/4 1039/5/4
f 1038/3/4 1028/3/4 1039/3/4
f 1029/1/4 728/1/4 1040/1/4
f 1039/5/4 1029/5/4 1040/5/4
f 1031/5/4 1032/5/4 1041/5/4
f 1030/5/4 1031/5/4 1041/5/4
f 722/5/4 1033/5/4 1043/5/4
f 1033/5/4 1034/5/4 1043/5/4
f 1034/1/4 1035/1/4 1044/1/4
f 1043/5/4 1034/5/4 1044/5/4
f 1035/4/4 1036/4/4 1045/4/4
f 1044/1/4 1035/1/4 1045/1/4
f 1036/2/4 1037/2/4 1046/2/4
f 1045/4/4 1036/4/4 1046/4/4
f 1037/1/4 1038/1/4 1047/1/4
f 1046/2/4 1037/2/4 1047/2/4
f 1030/5/4 1041/5/4 1048/5/4
f 1041/5/4 1042/5/4 1048/5/4
f 1048/5/4 1042/5/4 1049/5/4
f 722/5/4 1043/5/4 1050/5/4
f 1043/3/4 1044/3/4 1050/3/4
f 1044/1/4 1045/1/4 1051/1/4
f 1050/3/4 1044/3/4 1051/3/4
f 1045/3/4 1046/3/4 1052/3/4
f 1051/1/4 1045/1/4 1052/1/4
f 1046/5/4 1047/5/4 1053/5/4
f 1052/3/4 1046/3/4 1053/3/4
f 1047/1/4 1038/1/4 1054/1/4
f 1053/5/4 1047/5/4 1054/5/4
f 1038/4/4 1039/4/4 1055/4/4
f 1054/1/4 1038/1/4 1055/1/4
f 1039/4/4 1040/4/4 1055/4/4
f 1040/1/4 728/1/4 1056/1/4
f 1055/4/4 1040/4/4 1056/4/4
f 1030/5/4 1048/5/4 1057/5/4
f 728/5/4 1030/5/4 1057/5/4
f 1057/5/4 1048/5/4 1058/5/4
f 1058/5/4 1048/5/4 1059/5/4
f 1050/1/4 1051/1/4 1060/1/4
f 722/5/4 1050/5/4 1060/5/4
f 1051/1/4 1052/1/4 1060/1/4
f 1060/1/4 1052/1/4 1061/1/4
f 1052/2/4 1053/2/4 1062/2/4
f 1061/1/4 1052/1/4 1062/1/4
f 1053/4/4 1054/4/4 1063/4/4
f 1062/2/4 1053/2/4 1063/2/4
f 1054/1/4 1055/1/4 1064/1/4
f 1063/4/4 1054/4/4 1064/4/4
f 1055/1/4 1056/1/4 1064/1/4
f 1064/1/4 1056/1/4 1065/1/4
f 1065/1/4 1056/1/4 1066/1/4
f 1056/1/4 728/1/4 1067/1/4
f 1066/1/4 1056/1/4 1067/1/4
f 1060/4/4 1061/4/4 1068/4/4
f 722/5/4 1060/5/4 1068/5/4
f 1061/1/4 1062/1/4 1069/1/4
f 1068/4/4 1061/4/4 1069/4/4
f 1065/3/4 1066/3/4 1070/3/4
f 1064/1/4 1065/1/4 1070/1/4
f 1066/5/4 1067/5/4 1071/5/4
f 1070/3/4 1066/3/4 1071/3/4
f 1067/1/4 728/1/4 1072/1/4
f 1071/5/4 1067/5/4 1072/5/4
f 1062/3/4 1063/3/4 1073/3/4
f 1069/1/4 1062/1/4 1073/1/4
f 1063/5/4 1064/5/4 1074/5/4
f 1073/3/4 1063/3/4 1074/3/4
f 1064/1/4 1070/1/4 1075/1/4
f 1074/5/4 1064/5/4 1075/5/4
f 1070/2/4 1071/2/4 1076/2/4
f 1075/1/4 1070/1/4 1076/1/4
f 1071/4/4 1072/4/4 1077/4/4
f 1076/2/4 1071/2/4 1077/2/4
f 1072/1/4 728/1/4 1078/1/4
f 1077/4/4 1072/4/4 1078/4/4
f 1057/1/4 1058/1/4 1079/1/4
f 728/5/4 1057/5/4 1079/5/4
f 1079/1/4 1058/1/4 1080/1/4
f 722/5/4 1068/5/4 1082/5/4
f 1068/2/4 1069/2/4 1082/2/4
f 1069/1/4 1073/1/4 1083/1/4
f 1082/2/4 1069/2/4 1083/2/4
f 1073/4/4 1074/4/4 1084/4/4
f 1083/1/4 1073/1/4 1084/1/4
f 1074/3/4 1075/3/4 1085/3/4
f 1084/4/4 1074/4/4 1085/4/4
f 1075/1/4 1076/1/4 1086/1/4
f 1085/3/4 1075/3/4 1086/3/4
f 1076/5/4 1077/5/4 1087/5/4
f 1077/2/4 1078/2/4 1087/2/4
f 1078/1/4 728/1/4 1088/1/4
f 1087/2/4 1078/2/4 1088/2/4
f 1080/5/4 1081/5/4 1089/5/4
f 1079/5/4 1080/5/4 1089/5/4
f 1082/3/4 1083/3/4 1091/3/4
f 722/5/4 1082/5/4 1091/5/4
f 1083/1/4 1084/1/4 1092/1/4
f 1091/3/4 1083/3/4 1092/3/4
f 1084/1/4 1085/1/4 1092/1/4
f 1085/1/4 1086/1/4 1092/1/4
f 1092/1/4 1086/1/4 1093/1/4
f 1093/1/4 1086/1/4 1094/1/4
f 1086/1/4 1076/1/4 1095/1/4
f 1094/1/4 1086/1/4 1095/1/4
f 1076/5/4 1087/5/4 1096/5/4
f 1095/1/4 1076/1/4 1096/1/4
f 1087/5/4 1088/5/4 1096/5/4
f 1096/5/4 1088/5/4 1097/5/4
f 1079/5/4 1089/5/4 1098/5/4
f 1089/5/4 1090/5/4 1098/5/4
f 1098/5/4 1090/5/4 1099/5/4
f 722/5/4 1091/5/4 1100/5/4
f 1091/4/4 1092/4/4 1100/4/4
f 1092/1/4 1093/1/4 1101/1/4
f 1100/4/4 1092/4/4 1101/4/4
f 1096/3/4 1097/3/4 1102/3/4
f 1095/1/4 1096/1/4 1102/1/4
f 1097/5/4 1088/5/4 1103/5/4
f 1102/3/4 1097/3/4 1103/3/4
f 728/5/4 1079/5/4 1104/5/4
f 1079/5/4 1098/5/4 1104/5/4
f 1104/5/4 1098/5/4 1105/5/4
f 1105/5/4 1098/5/4 1106/5/4
f 1093/2/4 1094/2/4 1107/2/4
f 1101/1/4 1093/1/4 1107/1/4
f 1094/4/4 1095/4/4 1108/4/4
f 1107/2/4 1094/2/4 1108/2/4
f 1095/1/4 1102/1/4 1109/1/4
f 1108/4/4 1095/4/4 1109/4/4
f 722/5/4 1100/5/4 1110/5/4
f 1100/5/4 1101/5/4 1110/5/4
f 1101/1/4 1107/1/4 1111/1/4
f 1110/5/4 1101/5/4 1111/5/4
f 1107/5/4 1108/5/4 1112/5/4
f 1111/1/4 1107/1/4 1112/1/4
f 1108/2/4 1109/2/4 1113/2/4
f 1112/5/4 1108/5/4 1113/5/4
f 1109/1/4 1102/1/4 1114/1/4
f 1102/5/4 1103/5/4 1114/5/4
f 1103/5/4 1088/5/4 1115/5/4
f 1114/5/4 1103/5/4 1115/5/4
f 1088/1/4 728/1/4 1116/1/4
f 1115/5/4 1088/5/4 1116/5/4
f 1110/3/4 1111/3/4 1117/3/4
f 722/5/4 1110/5/4 1117/5/4
f 1111/1/4 1112/1/4 1118/1/4
f 1117/3/4 1111/3/4 1118/3/4
f 1112/3/4 1113/3/4 1119/3/4
f 1118/1/4 1112/1/4 1119/1/4
f 1113/2/4 1109/2/4 1120/2/4
f 1119/3/4 1113/3/4 1120/3/4
f 1109/1/4 1114/1/4 1121/1/4
f 1120/2/4 1109/2/4 1121/2/4
f 1114/4/4 1115/4/4 1122/4/4
f 1121/1/4 1114/1/4 1122/1/4
f 1115/3/4 1116/3/4 1123/3/4
f 1122/4/4 1115/4/4 1123/4/4
f 1116/1/4 728/1/4 1124/1/4
f 1123/3/4 1116/3/4 1124/3/4
f 1104/1/4 1105/1/4 1125/1/4
f 728/5/4 1104/5/4 1125/5/4
f 1125/1/4 1105/1/4 1126/1/4
f 1118/1/4 1119/1/4 1128/1/4
f 1117/1/4 1118/1/4 1128/1/4
f 722/5/4 1117/5/4 1128/5/4
f 1128/1/4 1119/1/4 1129/1/4
f 1120/5/4 1121/5/4 1130/5/4
f 1129/1/4 1119/1/4 1130/1/4
f 1119/5/4 1120/5/4 1130/5/4
f 1122/1/4 1123/1/4 1131/1/4
f 1130/5/4 1121/5/4 1131/5/4
f 1121/1/4 1122/1/4 1131/1/4
f 1123/1/4 1124/1/4 1131/1/4
f 1131/1/4 1124/1/4 1132/1/4
f 1132/1/4 1124/1/4 1133/1/4
f 1124/1/4 728/1/4 1134/1/4
f 1133/1/4 1124/1/4 1134/1/4
f 1126/5/4 1127/5/4 1135/5/4
f 1125/5/4 1126/5/4 1135/5/4
f 1132/2/4 1133/2/4 1137/2/4
f 1133/5/4 1134/5/4 1137/5/4
f 1134/1/4 728/1/4 1138/1/4
f 1137/5/4 1134/5/4 1138/5/4
f 1125/5/4 1135/5/4 1139/5/4
f 1135/5/4 1136/5/4 1139/5/4
f 1139/5/4 1136/5/4 1140/5/4
f 1128/2/4 1129/2/4 1141/2/4
f 722/5/4 1128/5/4 1141/5/4
f 1129/1/4 1130/1/4 1142/1/4
f 1141/2/4 1129/2/4 1142/2/4
f 1130/3/4 1131/3/4 1143/3/4
f 1142/1/4 1130/1/4 1143/1/4
f 1131/1/4 1132/1/4 1144/1/4
f 1143/3/4 1131/3/4 1144/3/4
f 1132/2/4 1137/2/4 1145/2/4
f 1144/1/4 1132/1/4 1145/1/4
f 1137/2/4 1138/2/4 1145/2/4
f 1138/1/4 728/1/4 1146/1/4
f 1145/2/4 1138/2/4 1146/2/4
f 728/5/4 1125/5/4 1147/5/4
f 1125/5/4 1139/5/4 1147/5/4
f 1147/5/4 1139/5/4 1148/5/4
f 1148/5/4 1139/5/4 1149/5/4
f 722/5/4 1141/5/4 1150/5/4
f 1141/4/4 1142/4/4 1150/4/4
f 1144/1/4 1145/1/4 1151/1/4
f 1150/4/4 1142/4/4 1151/4/4
f 1143/1/4 1144/1/4 1151/1/4
f 1142/1/4 1143/1/4 1151/1/4
f 1151/1/4 1145/1/4 1152/1/4
f 1152/1/4 1145/1/4 1153/1/4
f 1153/1/4 1145/1/4 1154/1/4
f 1145/4/4 1146/4/4 1155/4/4
f 1154/1/4 1145/1/4 1155/1/4
f 1155/4/4 1146/4/4 1156/4/4
f 1146/1/4 728/1/4 1157/1/4
f 1156/4/4 1146/4/4 1157/4/4
f 1151/1/4 1152/1/4 1158/1/4
f 1152/3/4 1153/3/4 1158/3/4
f 1153/4/4 1154/4/4 1159/4/4
f 1158/3/4 1153/3/4 1159/3/4
f 1154/1/4 1155/1/4 1160/1/4
f 1159/4/4 1154/4/4 1160/4/4
f 1155/3/4 1156/3/4 1161/3/4
f 1160/1/4 1155/1/4 1161/1/4
f 1156/2/4 1157/2/4 1162/2/4
f 1161/3/4 1156/3/4 1162/3/4
f 722/5/4 1150/5/4 1163/5/4
f 1150/3/4 1151/3/4 1163/3/4
f 1151/1/4 1158/1/4 1164/1/4
f 1163/3/4 1151/3/4 1164/3/4
f 1159/5/4 1160/5/4 1165/5/4
f 1164/1/4 1158/1/4 1165/1/4
f 1158/5/4 1159/5/4 1165/5/4
f 1165/5/4 1160/5/4 1166/5/4
f 1160/1/4 1161/1/4 1167/1/4
f 1166/5/4 1160/5/4 1167/5/4
f 1161/4/4 1162/4/4 1168/4/4
f 1167/1/4 1161/1/4 1168/1/4
f 1162/2/4 1157/2/4 1169/2/4
f 1168/4/4 1162/4/4 1169/4/4
f 1157/1/4 728/1/4 1170/1/4
f 1169/2/4 1157/2/4 1170/2/4
f 728/5/4 1147/5/4 1171/5/4
f 1147/1/4 1148/1/4 1171/1/4
f 1171/1/4 1148/1/4 1172/1/4
f 1163/2/4 1164/2/4 1174/2/4
f 722/5/4 1163/5/4 1174/5/4
f 1164/1/4 1165/1/4 1175/1/4
f 1174/2/4 1164/2/4 1175/2/4
f 1165/2/4 1166/2/4 1176/2/4
f 1175/1/4 1165/1/4 1176/1/4
f 1166/3/4 1167/3/4 1177/3/4
f 1176/2/4 1166/2/4 1177/2/4
f 1167/1/4 1168/1/4 1178/1/4
f 1177/3/4 1167/3/4 1178/3/4
f 1168/2/4 1169/2/4 1179/2/4
f 1178/1/4 1168/1/4 1179/1/4
f 1169/4/4 1170/4/4 1180/4/4
f 1179/2/4 1169/2/4 1180/2/4
f 1170/1/4 728/1/4 1181/1/4
f 1180/4/4 1170/4/4 1181/4/4
f 1172/5/4 1173/5/4 1182/5/4
f 1171/5/4 1172/5/4 1182/5/4
f 1174/4/4 1175/4/4 1184/4/4
f 722/5/4 1174/5/4 1184/5/4
f 1175/1/4 1176/1/4 1185/1/4
f 1184/4/4 1175/4/4 1185/4/4
f 1176/4/4 1177/4/4 1186/4/4
f 1185/1/4 1176/1/4 1186/1/4
f 1177/2/4 1178/2/4 1187/2/4
f 1186/4/4 1177/4/4 1187/4/4
f 1178/1/4 1179/1/4 1188/1/4
f 1187/2/4 1178/2/4 1188/2/4
f 1179/4/4 1180/4/4 1189/4/4
f 1188/1/4 1179/1/4 1189/1/4
f 1180/2/4 1181/2/4 1190/2/4
f 1189/4/4 1180/4/4 1190/4/4
f 1181/1/4 728/1/4 1191/1/4
f 1190/2/4 1181/2/4 1191/2/4
f 1171/5/4 1182/5/4 1192/5/4
f 1182/5/4 1183/5/4 1192/5/4
f 1192/5/4 1183/5/4 1193/5/4
f 1184/1/4 1185/1/4 1194/1/4
f 722/5/4 1184/5/4 1194/5/4
f 1185/1/4 1186/1/4 1194/1/4
f 1194/1/4 1186/1/4 1195/1/4
f 1187/3/4 1188/3/4 1196/3/4
f 1186/5/4 1187/5/4 1196/5/4
f 1189/1/4 1190/1/4 1197/1/4
f 1196/3/4 1188/3/4 1197/3/4
f 1188/1/4 1189/1/4 1197/1/4
f 1190/1/4 1191/1/4 1197/1/4
f 1197/1/4 1191/1/4 1198/1/4
f 1198/1/4 1191/1/4 1199/1/4
f 1191/1/4 728/1/4 1200/1/4
f 1199/1/4 1191/1/4 1200/1/4
f 1171/5/4 1192/5/4 1201/5/4
f 728/5/4 1171/5/4 1201/5/4
f 1201/5/4 1192/5/4 1202/5/4
f 1202/5/4 1192/5/4 1203/5/4
f 722/5/4 1194/5/4 1204/5/4
f 1194/3/4 1195/3/4 1204/3/4
f 1195/1/4 1186/1/4 1205/1/4
f 1204/3/4 1195/3/4 1205/3/4
f 1186/5/4 1196/5/4 1206/5/4
f 1205/1/4 1186/1/4 1206/1/4
f 1196/4/4 1197/4/4 1207/4/4
f 1206/5/4 1196/5/4 1207/5/4
f 1198/4/4 1199/4/4 1208/4/4
f 1197/1/4 1198/1/4 1208/1/4
f 1199/5/4 1200/5/4 1209/5/4
f 1208/4/4 1199/4/4 1209/4/4
f 1200/1/4 728/1/4 1210/1/4
f 1209/5/4 1200/5/4 1210/5/4
f 1205/1/4 1206/1/4 1211/1/4
f 1206/4/4 1207/4/4 1211/4/4
f 1207/4/4 1197/4/4 1212/4/4
f 1211/4/4 1207/4/4 1212/4/4
f 1197/1/4 1208/1/4 1212/1/4
f 1208/3/4 1209/3/4 1213/3/4
f 1212/1/4 1208/1/4 1213/1/4
f 1209/3/4 1210/3/4 1213/3/4
f 1210/1/4 728/1/4 1214/1/4
f 1213/3/4 1210/3/4 1214/3/4
f 721/1/4 722/1/4 1215/1/4
f 722/5/4 1204/5/4 1216/5/4
f 1215/1/4 722/1/4 1216/1/4
f 1204/4/4 1205/4/4 1217/4/4
f 1216/5/4 1204/5/4 1217/5/4
f 1205/1/4 1211/1/4 1218/1/4
f 1217/4/4 1205/4/4 1218/4/4
f 1211/1/4 1212/1/4 1218/1/4
f 1212/1/4 1213/1/4 1218/1/4
f 1213/4/4 1214/4/4 1219/4/4
f 1218/1/4 1213/1/4 1219/1/4
f 1214/1/4 728/1/4 1220/1/4
f 1219/4/4 1214/4/4 1220/4/4
f 728/5/4 1201/5/4 1221/5/4
f 1220/1/4 728/1/4 1221/1/4
f 1201/1/4 1202/1/4 1222/1/4
f 1221/5/4 1201/5/4 1222/5/4
f 1222/1/4 1202/1/4 1223/1/4
f 1226/1/5 1225/1/5 1224/1/5
f 1227/1/5 1225/1/5 1226/1/5
f 1228/1/5 1225/1/5 1227/1/5
f 1229/1/5 1225/1/5 1228/1/5
f 1230/1/5 1225/1/5 1229/1/5
f 1231/1/5 1225/1/5 1230/1/5
f 1232/1/5 1225/1/5 1231/1/5
f 1233/1/5 1225/1/5 1232/1/5
f 1234/1/5 1225/1/5 1233/1/5
f 1235/1/5 1225/1/5 1234/1/5
f 1236/1/5 1225/1/5 1235/1/5
f 1237/1/5 1225/1/5 1236/1/5
f 1238/1/5 1225/1/5 1237/1/5
f 1239/1/5 1225/1/5 1238/1/5
f 1240/1/5 1225/1/5 1239/1/5
f 1241/1/5 1225/1/5 1240/1/5
f 1242/1/5 1225/1/5 1241/1/5
f 1243/1/5 1225/1/5 1242/1/5
f 1244/1/5 1225/1/5 1243/1/5
f 1245/1/5 1225/1/5 1244/1/5
f 1246/1/5 1225/1/5 1245/1/5
f 1247/1/5 1225/1/5 1246/1/5
f 1248/1/5 1225/1/5 1247/1/5
f 1249/1/5 1225/1/5 1248/1/5
f 1250/1/5 1225/1/5 1249/1/5
f 1251/1/5 1225/1/5 1250/1/5
f 1252/1/5 1225/1/5 1251/1/5
f 1253/1/5 1225/1/5 1252/1/5
f 1254/1/5 1225/1/5 1253/1/5
f 1255/1/5 1225/1/5 1254/1/5
f 1256/1/5 1225/1/5 1255/1/5
f 1257/1/5 1225/1/5 1256/1/5
f 1258/1/5 1225/1/5 1257/1/5
f 1259/1/5 1225/1/5 1258/1/5
f 1260/1/5 1225/1/5 1259/1/5
f 1261/1/5 1225/1/5 1260/1/5
f 1262/1/5 1225/1/5 1261/1/5
f 1263/1/5 1225/1/5 1262/1/5
f 1264/1/5 1225/1/5 1263/1/5
f 1265/1/5 1225/1/5 1264/1/5
f 1266/1/5 1225/1/5 1265/1/5
f 1267/1/5 1225/1/5 1266/1/5
f 1268/1/5 1225/1/5 1267/1/5
f 1269/1/5 1225/1/5 1268/1/5
f 1270/1/5 1226/1/5 1224/1/5
f 1270/4/5 1227/4/5 1226/4/5
f 1271/5/5 1228/5/5 1227/5/5
f 1271/4/5 1227/4/5 1270/4/5
f 1272/1/5 1229/1/5 1228/1/5
f 1272/5/5 1228/5/5 1271/5/5
f 1273/3/5 1230/3/5 1229/3/5
f 1273/1/5 1229/1/5 1272/1/5
f 1274/4/5 1231/4/5 1230/4/5
f 1274/3/5 1230/3/5 1273/3/5
f 1275/5/5 1232/5/5 1231/5/5
f 1275/4/5 1231/4/5 1274/4/5
f 1276/3/5 1233/3/5 1232/3/5
f 1276/5/5 1232/5/5 1275/5/5
f 1277/5/5 1234/5/5 1233/5/5
f 1277/3/5 1233/3/5 1276/3/5
f 1278/2/5 1235/2/5 1234/2/5
f 1278/5/5 1234/5/5 1277/5/5
f 1279/4/5 1236/4/5 1235/4/5
f 1279/2/5 1235/2/5 1278/2/5
f 1280/5/5 1237/5/5 1236/5/5
f 1280/4/5 1236/4/5 1279/4/5
f 1281/4/5 1238/4/5 1237/4/5
f 1281/5/5 1237/5/5 1280/5/5
f 1282/2/5 1239/2/5 1238/2/5
f 1282/4/5 1238/4/5 1281/4/5
f 1283/3/5 1240/3/5 1239/3/5
f 1283/2/5 1239/2/5 1282/2/5
f 1284/5/5 1241/5/5 1240/5/5
f 1284/3/5 1240/3/5 1283/3/5
f 1285/3/5 1242/3/5 1241/3/5
f 1285/5/5 1241/5/5 1284/5/5
f 1286/5/5 1243/5/5 1242/5/5
f 1286/3/5 1242/3/5 1285/3/5
f 1287/2/5 1244/2/5 1243/2/5
f 1287/5/5 1243/5/5 1286/5/5
f 1288/5/5 1245/5/5 1244/5/5
f 1288/2/5 1244/2/5 1287/2/5
f 1289/4/5 1246/4/5 1245/4/5
f 1289/5/5 1245/5/5 1288/5/5
f 1290/3/5 1247/3/5 1246/3/5
f 1290/4/5 1246/4/5 1289/4/5
f 1291/2/5 1248/2/5 1247/2/5
f 1291/3/5 1247/3/5 1290/3/5
f 1292/3/5 1249/3/5 1248/3/5
f 1292/2/5 1248/2/5 1291/2/5
f 1293/4/5 1250/4/5 1249/4/5
f 1293/3/5 1249/3/5 1292/3/5
f 1294/5/5 1251/5/5 1250/5/5
f 1294/4/5 1250/4/5 1293/4/5
f 1295/3/5 1252/3/5 1251/3/5
f 1295/5/5 1251/5/5 1294/5/5
f 1296/5/5 1253/5/5 1252/5/5
f 1296/3/5 1252/3/5 1295/3/5
f 1297/2/5 1254/2/5 1253/2/5
f 1297/5/5 1253/5/5 1296/5/5
f 1298/3/5 1255/3/5 1254/3/5
f 1298/2/5 1254/2/5 1297/2/5
f 1299/5/5 1256/5/5 1255/5/5
f 1299/3/5 1255/3/5 1298/3/5
f 1300/2/5 1257/2/5 1256/2/5
f 1300/5/5 1256/5/5 1299/5/5
f 1301/3/5 1258/3/5 1257/3/5
f 1301/2/5 1257/2/5 1300/2/5
f 1302/5/5 1259/5/5 1258/5/5
f 1302/3/5 1258/3/5 1301/3/5
f 1303/4/5 1260/4/5 1259/4/5
f 1303/5/5 1259/5/5 1302/5/5
f 1304/2/5 1261/2/5 1260/2/5
f 1304/4/5 1260/4/5 1303/4/5
f 1305/4/5 1262/4/5 1261/4/5
f 1305/2/5 1261/2/5 1304/2/5
f 1306/2/5 1263/2/5 1262/2/5
f 1306/4/5 1262/4/5 1305/4/5
f 1307/4/5 1264/4/5 1263/4/5
f 1307/2/5 1263/2/5 1306/2/5
f 1308/2/5 1265/2/5 1264/2/5
f 1308/4/5 1264/4/5 1307/4/5
f 1309/5/5 1266/5/5 1265/5/5
f 1309/2/5 1265/2/5 1308/2/5
f 1310/4/5 1267/4/5 1266/4/5
f 1310/5/5 1266/5/5 1309/5/5
f 1311/5/5 1268/5/5 1267/5/5
f 1311/4/5 1267/4/5 1310/4/5
f 1312/4/5 1269/4/5 1268/4/5
f 1312/5/5 1268/5/5 1311/5/5
f 1313/4/5 1269/4/5 1312/4/5
f 1314/1/5 1311/1/5 1310/1/5
f 1314/1/5 1270/1/5 1224/1/5
f 1314/1/5 1313/1/5 1312/1/5
f 1314/1/5 1312/1/5 1311/1/5
f 1314/1/5 1310/1/5 1309/1/5
f 1314/1/5 1309/1/5 1308/1/5
f 1314/1/5 1308/1/5 1307/1/5
f 1314/1/5 1307/1/5 1306/1/5
f 1314/1/5 1306/1/5 1305/1/5
f 1314/1/5 1305/1/5 1304/1/5
f 1314/1/5 1304/1/5 1303/1/5
f 1314/1/5 1303/1/5 1302/1/5
f 1314/1/5 1302/1/5 1301/1/5
f 1314/1/5 1301/1/5 1300/1/5
f 1314/1/5 1300/1/5 1299/1/5
f 1314/1/5 1299/1/5 1298/1/5
f 1314/1/5 1298/1/5 1297/1/5
f 1314/1/5 1297/1/5 1296/1/5
f 1314/1/5 1296/1/5 1295/1/5
f 1314/1/5 1295/1/5 1294/1/5
f 1314/1/5 1294/1/5 1293/1/5
f 1314/1/5 1293/1/5 1292/1/5
f 1314/1/5 1292/1/5 1291/1/5
f 1314/1/5 1291/1/5 1290/1/5
f 1314/1/5 1290/1/5 1289/1/5
f 1314/1/5 1289/1/5 1288/1/5
f 1314/1/5 1288/1/5 1287/1/5
f 1314/1/5 1287/1/5 1286/1/5
f 1314/1/5 1286/1/5 1285/1/5
f 1314/1/5 1285/1/5 1284/1/5
f 1314/1/5 1284/1/5 1283/1/5
f 1314/1/5 1283/1/5 1282/1/5
f 1314/1/5 1282/1/5 1281/1/5
f 1314/1/5 1281/1/5 1280/1/5
f 1314/1/5 1280/1/5 1279/1/5
f 1314/1/5 1279/1/5 1278/1/5
f 1314/1/5 1278/1/5 1277/1/5
f 1314/1/5 1277/1/5 1276/1/5
f 1314/1/5 1276/1/5 1275/1/5
f 1314/1/5 1275/1/5 1274/1/5
f 1314/1/5 1274/1/5 1273/1/5
f 1314/1/5 1273/1/5 1272/1/5
f 1314/1/5 1272/1/5 1271/1/5
f 1314/1/5 1271/1/5 1270/1/5
f 1315/1/5 1313/1/5 1314/1/5
f 1316/1/6 1317/1/6 1336/1/6
f 1336/1/6 1317/1/6 1337/1/6
f 1318/1/6 1319/1/6 1338/1/6
f 1338/1/6 1319/1/6 1339/1/6
f 1320/1/6 1321/1/6 1340/1/6
f 1340/1/6 1321/1/6 1341/1/6
f 1322/1/6 1323/1/6 1342/1/6
f 1342/1/6 1323/1/6 1343/1/6
f 1324/1/6 1325/1/6 1344/1/6
f 1344/1/6 1325/1/6 1345/1/6
f 1326/1/6 1327/1/6 1346/1/6
f 1346/1/6 1327/1/6 1347/1/6
f 1328/1/6 1329/1/6 1348/1/6
f 1348/1/6 1329/1/6 1349/1/6
f 1330/1/6 1331/1/6 1350/1/6
f 1350/1/6 1331/1/6 1351/1/6
f 1332/1/6 1333/1/6 1352/1/6
f 1352/1/6 1333/1/6 1353/1/6
f 1334/1/6 1335/1/6 1354/1/6
f 1354/1/6 1335/1/6 1355/1/6
f 1356/5/6 1357/5/6 1396/5/6
f 1396/5/6 1357/5/6 1397/5/6
f 1358/5/6 1359/5/6 1398/5/6
f 1398/5/6 1359/5/6 1399/5/6
f 1360/5/6 1361/5/6 1400/5/6
f 1400/5/6 1361/5/6 1401/5/6
f 1362/5/6 1363/5/6 1402/5/6
f 1402/5/6 1363/5/6 1403/5/6
f 1364/5/6 1365/5/6 1404/5/6
f 1404/5/6 1365/5/6 1405/5/6
f 1366/5/6 1367/5/6 1406/5/6
f 1406/5/6 1367/5/6 1407/5/6
f 1368/5/6 1369/5/6 1408/5/6
f 1408/5/6 1369/5/6 1409/5/6
f 1370/5/6 1371/5/6 1410/5/6
f 1410/5/6 1371/5/6 1411/5/6
f 1372/5/6 1373/5/6 1412/5/6
f 1412/5/6 1373/5/6 1413/5/6
f 1374/5/6 1375/5/6 1414/5/6
f 1414/5/6 1375/5/6 1415/5/6
f 1376/5/6 1377/5/6 1416/5/6
f 1416/5/6 1377/5/6 1417/5/6
f 1378/5/6 1379/5/6 1418/5/6
f 1418/5/6 1379/5/6 1419/5/6
f 1380/5/6 1381/5/6 1420/5/6
f 1420/5/6 1381/5/6 1421/5/6
f 1382/5/6 1383/5/6 1422/5/6
f 1422/5/6 1383/5/6 1423/5/6
f 1384/5/6 1385/5/6 1424/5/6
f 1424/5/6 1385/5/6 1425/5/6
f 1386/5/6 1387/5/6 1426/5/6
f 1426/5/6 1387/5/6 1427/5/6
f 1388/5/6 1389/5/6 1428/5/6
f 1428/5/6 1389/5/6 1429/5/6
f 1390/5/6 1391/5/6 1430/5/6
f 1430/5/6 1391/5/6 1431/5/6
f 1392/5/6 1393/5/6 1432/5/6
f 1432/5/6 1393/5/6 1433/5/6
f 1394/5/6 1395/5/6 1434/5/6
f 1434/5/6 1395/5/6 1435/5/6
f 1436/5/6 1437/5/6 1456/5/6
f 1456/5/6 1437/5/6 1457/5/6
f 1438/5/6 1439/5/6 1458/5/6
f 1458/5/6 1439/5/6 1459/5/6
f 1440/5/6 1441/5/6 1460/5/6
f 1460/5/6 1441/5/6 1461/5/6
f 1442/5/6 1443/5/6 1462/5/6
f 1462/5/6 1443/5/6 1463/5/6
f 1444/5/6 1445/5/6 1464/5/6
f 1464/5/6 1445/5/6 1465/5/6
f 1446/5/6 1447/5/6 1466/5/6
f 1466/5/6 1447/5/6 1467/5/6
f 1448/5/6 1449/5/6 1468/5/6
f 1468/5/6 1449/5/6 1469/5/6
f 1450/5/6 1451/5/6 1470/5/6
f 1470/5/6 1451/5/6 1471/5/6
f 1452/5/6 1453/5/6 1472/5/6
f 1472/5/6 1453/5/6 1473/5/6
f 1454/5/6 1455/5/6 1474/5/6
f 1474/5/6 1455/5/6 1475/5/6
